#Initialization

units	real 		# units: A, amu, Kcal/mol, fs, K, atm, q_el

atom_style full 	# full molecular properties + charges - recommended for biomolecules

pair_style hybrid/overlay table linear 4001 coul/long 40.0
# Style for NB-interactions: hybrid/overlay - combine two styles, more than one style can be assigned to a pair of atom types
# first style: table linear 1001 - table with 1001 points and use linear interpolation to calculate E,F
# second style: coul/long 40.0 - short-range real-space part of Ewald/PPPM electrostatics with cutoff 45A
bond_style hybrid table linear 4001 zero
angle_style hybrid table linear 4001 zero
# pairwise bonds and bending angle bonds read from tabules with 1001 point and linear interpolation will be used

read_data LAMMPS.data  # read system topology and starting coordinates from LAMMPS.data (generated by MagicTools)
include LAMMPS.data.run.inc
# include part of interaction definitions from the file LAMMPS.data.run.inc (generated by MagicTools)
# it is made for compatibility with VMD topotools, which are used to visualize LAMMPS.data file.

# Settings
variable t equal 303 	# define variable "t" and assign value of 297
dielectric 78.0 	# Dielectric permittivity

kspace_style ewald 1.0e-5
#define long-range Ewald electrostatics (reciprocal space part) with relative force error of 1.0e-4 (relative to 2 unit charges on 1A distance)
# I am not sure if 1.0e-4 is a good value.(it is default in LAMMPS manual)
#can be substituted by pppm/gpu - to test performance
special_bonds lj 0.0 0.0 0.0 coul 0.0 0.0 1.0 angle yes dihedral no
# factors to multiply energies for [1st 1-2pairs, 2nd 1-3pairs, 3rd 1-4 pairs, angle yes - only apply 2nd factor to atoms involved in angle-bond
# specify exclusions (i.e. exclude all pairwise bonded or angle bonded atoms)

neighbor 1.0 bin     # How to build paiwise neighbour lists - Rcut_list=Rcut_force+5.0  (create list by binning - whatever it means)
neigh_modify delay 5 every 1 check no cluster no
# Update neighbor list: 
#	delay 5 - wait at least 5 steps before rebuilding the list
#	every 1 - build list every 1 steps, once the delay has passed
#	check yes - rebuild the list (after delay+every) only if an atom passed half skin distance
#	cluster no - do not do sanity test for bonded atoms (i.e. do not check if they are close)

thermo_style multi 	# define thermodynamic variables to print: Multi - Etotal, Kin, T, Pot, Ebond, Eangle, Edih, Eimprop, Evdw, Ecoul, Erecip, Press
thermo_modify lost error 	# Check if atoms are not moving too far from the origin box between thermodynamic calculations. If they do - throw an error. Check of simulation quality

timestep 1.0  	# Integration timestep in fs

#velocity  all create $t 12345 mom yes rot yes  
velocity  all create $t 12345 mom no rot no  
# generate randim velocities for all atoms(all) with respect to the temperature ($t=297) using random seed (12345) 
# total linear momentum (mom yes) and angular momentum (rot yes) will be zeroed

dump 1 all xtc 1000 trj.xtc
dump_modify 1 unwrap yes
#dump 2 all xyz 1000 trj.xyz
#dump_modify 2 element D P MG K NA CL
#make dump group 1: dump all atoms in xyz-format every 1000 steps into file trj.xyz

#----- 1st equilibration run with direct velocity rescaling.-------------------------------------------

fix		1 all nve # define fix #1: set integrator to perform NVE integration
fix 		2 all temp/rescale 1 $t $t 10. 0.5 # define fix #2
# apply velocity rescale every 1 step Tstart=($t=297) Tstop=($t=297)
# rescale when (T-Tdesired) > 0.05K, scale straight to the desired temperature
thermo	        1  # print thermodynamic data every 1 step
run             20 # perform 20 MD steps = 20fss
thermo	        10  # print thermodynamic data every 10 step
run             200 # perform 200 MD steps = 200fs
thermo	        1000  # print thermodynamic data every 100 step
run             10000 # perform 10000 MD steps = 10ps

#----- 2nd equilibration run ------------------------------------------------------------------------------
unfix	2	# unset velocity-rescaling-thermostat
unfix 	1 	# unset NVE integrator
fix		1 all nve# required to run with lagevin thermostat
fix		2 all langevin ${t} ${t} 10000.0 59804 zero yes angmom no 
# set langevin thermostat Tstart=($t=297) Tstop=($t=297), t_dump = 10fs;
# total random force =0, do not thermostat angular DoF

fix 		3 all momentum 1000 linear 1 1 1 #remove COM movement
fix		Tavrg  all  ave/time 10 1000 10000 c_thermo_temp  # Define fix for calculating Taverage
#Calculate time averaged temperature: Perform calculatin every 10000 steps, average over 1000 values, pick the values to average every 10 step
# use value c_thermo_temp, which is an instant temperature
thermo_style custom step etotal ke f_Tavrg temp pe ebond eangle edihed eimp evdwl ecoul elong press # Define custom style to report thermodynamic properties

thermo_modify lost error
thermo 10000 		# print thermodynamic data every 10000 steps
timestep 2 		# increase timestep to 2fs
run 500000		#run 500000 integration steps = 1ns

#----- Production run ---------------------------------------------------------------------------------------
unfix Tavrg  	# unset Temperature averaging
unfix 2		# unset langevin thermostat
fix		2 all langevin ${t} ${t} 10000.0 69804 zero yes angmom no 
# set langevin thermostat Tstart=($t=297) Tstop=($t=297), t_dump = 10ps;
# total random force =0, do not thermostat angular DoF
fix		Tavrg  all  ave/time 10 10000 100000 c_thermo_temp
#Calculate time averaged temperature: 
#Perform calculation every 100000 steps, average over 10000 values, pick the values to average every 10 steps

thermo_style custom step etotal ke f_Tavrg temp pe ebond eangle edihed eimp evdwl ecoul elong press
thermo 100000 # print thermodynamic variables every 100000 steps
timestep 2 	# timestep 2fs
run 25000000 # run 25 mln steps = 50 ns 
