<?xml version="1.0" encoding="UTF-8"?>
<galamost_xml version="1.3">
<configuration time_step="0" dimensions="3" natoms="450" >
<box lx="4.80174" ly="4.80174" lz="4.80174"/>
<position num="450">
    0.83579    -1.80155     0.35853
    1.22844    -1.81333     0.15626
    0.89137    -2.21928    -0.01317
    1.19837    -2.23582     0.06765
    0.58500    -2.55761     0.08074
    0.38938    -3.00636    -0.03512
    0.29295    -3.45021     0.00847
    1.30016    -2.64014     0.17643
    1.34495    -3.03733     0.08406
    1.58538    -3.40137     0.15736
    1.63360     0.56883     1.96626
    1.64875     0.91336     2.18127
    2.17808     0.89242     1.99957
    2.04569     0.96960     2.30485
    2.54667     1.03700     1.98293
    2.89730     1.33545     2.05191
    3.02428     1.64081     2.30490
    2.24001     1.07197     2.69278
    2.15206     1.47693     2.91358
    2.18122     1.91758     3.12549
   -0.45647    -1.66425    -0.71203
   -0.59665    -2.03272    -0.65652
   -1.02843    -2.24389    -0.98275
   -0.86231    -2.32993    -0.73016
   -1.43828    -2.35640    -0.94585
   -1.87625    -2.36067    -1.14468
   -2.12991    -2.29882    -0.86551
   -0.97644    -2.75983    -0.65847
   -0.91738    -3.26034    -0.69082
   -0.92689    -3.77169    -0.74588
    2.05395    -1.62364     0.61468
    1.77309    -1.73673     0.91627
    1.16384    -1.97764     1.00400
    1.50910    -2.05513     1.05423
    1.03897    -2.32503     1.29661
    1.07588    -2.53623     1.62490
    1.19232    -2.56070     2.04642
    1.76532    -2.42811     1.22390
    1.89679    -2.72337     1.01575
    1.83158    -2.75411     0.56609
    0.14480    -1.56471     0.28834
    0.24473    -1.76778     0.68211
    0.54090    -2.19813     1.02853
    0.51931    -2.03808     0.66512
    0.70158    -2.62303     1.06084
    0.92651    -3.01581     1.10374
    1.10071    -3.47516     1.25184
    0.82217    -2.35703     0.50208
    0.87181    -2.77391     0.31388
    0.80097    -3.10774     0.03271
    0.04470     0.08824     0.83703
    0.03699     0.50414     0.70801
   -0.33554     0.98695     0.81671
   -0.21656     0.79908     0.57851
   -0.58119     1.33644     0.68249
   -0.64457     1.81559     0.65865
   -0.68384     2.19529     0.32822
   -0.28226     1.12320     0.31686
   -0.08694     1.56347     0.24835
   -0.18744     2.03326     0.24415
    0.71376     0.67989     1.61707
    0.38792     0.57020     1.85774
   -0.10227     0.98466     2.00267
    0.18799     0.88675     1.75801
   -0.30412     1.35934     2.08045
   -0.35586     1.83369     2.24033
   -0.28990     2.23747     2.01079
    0.06218     1.24388     1.63313
   -0.14298     1.66504     1.67937
   -0.04084     2.10582     1.66806
   -1.36143     0.56754     1.21162
   -1.75812     0.46810     1.05716
   -1.89718     0.75390     0.59799
   -1.61619     0.76464     0.87147
   -1.92460     1.20992     0.61890
   -2.18453     1.50436     0.68865
   -2.60677     1.68331     0.90928
   -1.45063     1.05510     0.63775
   -1.64473     0.98853     0.24864
   -1.66640     0.88460    -0.15691
   -0.69705     0.33676    -1.94879
   -0.71597     0.53300    -2.35920
   -0.62178     1.10141    -2.17171
   -0.85816     0.94006    -2.35359
   -0.58938     1.34060    -1.85468
   -0.53810     1.81804    -1.77998
   -0.63848     2.21681    -1.74694
   -1.32737     1.03909    -2.41744
   -1.66402     1.23599    -2.25694
   -1.70661     1.58410    -1.97166
    0.89412     0.35755    -1.47549
    1.25770     0.56532    -1.62855
    1.61554     0.99560    -1.77569
    1.54780     0.73771    -1.43748
    1.73197     1.42375    -1.74490
    1.54411     1.90079    -1.73162
    1.48376     2.31420    -1.86606
    1.63780     0.79684    -0.96508
    1.53722     1.02274    -0.55718
    1.27135     1.33653    -0.34345
   -2.27178     0.40961    -0.55437
   -2.42379     0.46918    -0.14164
   -2.93150     0.59109     0.06469
   -2.75109     0.72922    -0.14994
   -3.34224     0.79864     0.11761
   -3.65936     1.11249     0.00297
   -4.13043     1.04449    -0.02334
   -2.94816     1.09375    -0.33321
   -3.14772     1.55282    -0.25996
   -3.31021     1.96615    -0.37770
    0.40107    -1.80732    -0.63012
    0.02420    -1.72224    -0.43464
   -0.34162    -2.24890    -0.42596
   -0.00451    -2.07414    -0.58978
   -0.44807    -2.54128    -0.74510
   -0.51885    -2.99344    -0.68312
   -0.53757    -3.46241    -0.49686
    0.14997    -2.18363    -1.00176
    0.12024    -2.38641    -1.43869
    0.48276    -2.53666    -1.66121
    1.35280    -1.54645    -0.69842
    1.54257    -1.62873    -0.28788
    1.70964    -2.13249    -0.02580
    1.85581    -1.92633    -0.21669
    1.78665    -2.57432    -0.10443
    2.00164    -3.02665    -0.12940
    2.08332    -3.47302     0.03632
    2.21881    -2.14947    -0.43153
    2.43747    -2.50369    -0.61105
    2.63027    -2.94011    -0.74383
    1.48613     0.47477     1.12611
    1.86202     0.34165     1.13690
    2.19160     0.85556     1.07079
    1.91270     0.74004     1.15411
    2.10227     1.30271     1.11952
    1.87497     1.66338     1.39115
    1.59022     1.97479     1.66865
    1.61420     1.09025     1.21097
    1.44400     1.46581     1.45255
    1.19363     1.74875     1.62980
    0.22298    -1.35461     1.51798
    0.25173    -1.74982     1.32467
   -0.16633    -2.16605     1.45174
    0.24576    -2.09523     1.54840
   -0.52226    -2.46915     1.55231
   -0.60487    -2.88199     1.71656
   -0.64082    -3.36483     1.75004
    0.49284    -2.44390     1.67298
    0.71545    -2.82560     1.86577
    0.86678    -3.29244     1.85162
   -0.59097    -1.69849     1.32919
   -0.95112    -1.75095     1.59387
   -0.71920    -2.25338     1.81835
   -0.84637    -2.11328     1.45419
   -1.05330    -2.50290     1.97544
   -1.17347    -2.93958     2.05081
   -1.15266    -3.37975     1.93721
   -0.97730    -2.53491     1.40050
   -1.02182    -3.00507     1.53711
   -1.05006    -3.49648     1.49185
    2.39981    -1.24538    -0.94221
    2.27306    -1.65446    -0.93867
    2.38353    -2.08246    -1.28857
    2.24146    -2.06445    -0.99452
    2.17790    -2.28313    -1.68131
    1.96181    -2.62099    -1.91810
    1.70681    -3.00371    -2.14797
    1.96391    -2.35488    -0.77724
    2.02549    -2.80173    -0.65044
    2.22244    -3.22730    -0.57212
   -1.42434     0.17437     2.25996
   -1.53333     0.58617     2.22607
   -1.49176     0.82405     2.77096
   -1.82872     0.77348     2.50605
   -1.74817     1.02606     3.05751
   -2.08473     1.23884     2.99149
   -2.22208     1.64535     3.10999
   -2.13542     1.10593     2.48690
   -2.23723     1.56449     2.61833
   -2.08447     1.96994     2.65054
   -2.13452     0.45069    -1.89345
   -1.71440     0.47016    -1.93020
   -1.29592     0.70311    -1.57596
   -1.67952     0.63492    -1.54249
   -1.08619     1.07517    -1.69462
   -1.16337     1.35853    -2.11164
   -1.26781     1.69249    -2.32765
   -1.99384     0.88068    -1.27950
   -2.09159     1.18821    -0.97942
   -1.88652     1.30287    -0.63582
    1.50706     0.35266    -0.44076
    1.32401     0.55451    -0.74365
    0.90564     0.91328    -0.59707
    1.17556     1.03381    -0.85802
    0.86373     1.27659    -0.46979
    0.74451     1.32554    -0.84761
    0.78871     1.13669    -1.23235
    1.24859     1.46786    -0.82017
    1.25435     1.90412    -0.71437
    1.45394     2.28401    -0.88848
   -1.94913     0.15602    -0.97072
   -1.84473     0.24181    -0.55658
   -1.53685     0.75622    -0.51248
   -1.80955     0.48702    -0.25832
   -1.42625     1.15846    -0.77642
   -1.50604     1.58590    -0.85010
   -1.71111     1.99079    -0.79312
   -2.04267     0.62592     0.10988
   -2.22369     1.03414     0.07218
   -2.29008     1.38383    -0.21883
   -2.19181    -0.07625     0.89127
   -2.27558     0.29240     1.09252
   -2.26078     0.83533     0.94139
   -2.26739     0.66069     1.31936
   -2.41638     1.08863     0.56336
   -2.51661     1.50274     0.38283
   -2.92874     1.69618     0.36141
   -2.51360     0.92051     1.54184
   -2.91296     1.01717     1.62283
   -3.37031     0.97715     1.62219
   -0.22117    -1.77385     2.19077
   -0.58054    -1.81511     2.41610
   -1.06124    -1.99530     2.01200
   -0.96846    -2.10336     2.30996
   -1.42539    -2.24389     2.09724
   -1.60900    -2.52703     2.45072
   -1.60796    -2.45877     2.91910
   -1.15217    -2.45711     2.53117
   -1.13157    -2.78010     2.92272
   -1.04195    -3.17799     3.09353
   -0.99961    -2.17587    -0.25541
   -1.21778    -2.10675     0.11851
   -1.81339    -2.08291     0.09797
   -1.54891    -2.10985     0.33092
   -1.85639    -2.49019     0.05728
   -1.64994    -2.91330     0.12420
   -1.47627    -3.29899     0.28124
   -1.47578    -2.36806     0.66629
   -1.70343    -2.53673     1.03499
   -1.95396    -2.72944     1.39082
   -1.07814    -1.34077    -1.09701
   -1.38171    -1.56119    -1.30302
   -1.56840    -1.97629    -0.94610
   -1.64578    -1.94089    -1.31158
   -1.82582    -2.02608    -0.56186
   -1.95019    -2.43591    -0.39830
   -1.84463    -2.93816    -0.33447
   -2.02021    -2.16030    -1.51894
   -2.20230    -2.56182    -1.50781
   -2.06754    -2.91701    -1.23601
   -0.19868     0.57624    -2.19033
   -0.34878     0.60765    -1.76564
   -0.15246     1.12279    -1.54281
   -0.52140     0.94042    -1.51586
   -0.21612     1.59534    -1.49480
   -0.30746     2.07997    -1.37075
   -0.53136     2.40822    -1.26259
   -0.83112     1.17922    -1.30562
   -1.10721     1.48850    -1.15114
   -1.25837     1.90796    -1.03302
    1.77426    -1.54771    -1.29371
    1.36926    -1.56719    -1.14159
    0.99423    -2.04687    -0.96844
    1.32437    -1.94055    -0.95049
    0.84237    -2.46135    -0.83093
    0.86089    -2.94061    -0.93467
    0.84258    -3.22403    -1.32681
    1.61182    -2.07202    -0.67852
    1.34764    -2.21251    -0.42027
    1.10156    -2.59835    -0.28253
    2.22963    -1.77675     1.49508
    2.21585    -1.66297     1.87816
    2.12803    -2.00770     2.36081
    2.22565    -2.00390     1.95836
    1.91374    -2.32175     2.51935
    1.72029    -2.40496     2.12206
    1.83821    -2.51971     1.71029
    2.25224    -2.31642     1.58404
    2.32360    -2.59594     1.17054
    2.36673    -2.79155     0.70011
   -1.28111    -1.94623    -2.03624
   -1.67022    -2.03192    -2.19153
   -1.96344    -2.31914    -2.64004
   -2.02855    -2.05566    -2.36656
   -2.12047    -2.74216    -2.61316
   -2.33562    -3.12458    -2.72996
   -2.51892    -3.42980    -2.99883
   -2.35610    -2.34864    -2.28778
   -2.55750    -2.79089    -2.29280
   -2.70888    -3.21949    -2.37770
    1.99296     0.04687    -1.12275
    2.29932     0.33717    -1.32976
    2.46993     0.79964    -1.58806
    2.29819     0.72220    -1.21331
    2.14643     1.03419    -1.57733
    1.82935     1.18488    -1.21368
    1.72948     1.48924    -0.90258
    2.14378     1.03372    -0.90064
    2.38774     1.01745    -0.58225
    2.77872     0.87825    -0.51214
    0.44908     0.93489     0.58429
    0.23424     1.15957     0.74657
   -0.02697     1.43938     0.83211
   -0.19924     1.72885     0.75968
   -0.19316     2.10752     0.67760
    1.87942     0.83529     0.45174
    1.84050     1.14293     0.61982
    1.69210     1.44330     0.81010
    1.48165     1.67386     1.02443
    1.35294     2.06062     1.17394
    0.68286     1.23642     1.40548
    0.52826     1.55319     1.42778
    0.33288     1.88044     1.34829
    0.11196     2.15446     1.20540
    0.09078     2.52445     1.09526
   -0.51947    -2.18570     1.05298
   -0.46353    -2.53267     1.08122
   -0.50155    -2.89877     1.19708
   -0.58887    -3.22007     1.33367
   -0.42957    -3.57056     1.25168
    0.64032    -2.16634    -0.42406
    0.52578    -2.48281    -0.53209
    0.46911    -2.86210    -0.57906
    0.48578    -3.24279    -0.57605
    0.32186    -3.57796    -0.50602
   -0.40890    -2.19328     2.42666
   -0.61855    -2.47851     2.40441
   -0.75603    -2.84143     2.43921
   -0.76801    -3.18380     2.51751
   -0.72411    -3.47390     2.23829
   -0.44675     1.25411    -1.05461
   -0.58108     1.54632    -1.19368
   -0.75627     1.89000    -1.24585
   -0.97776     2.17121    -1.22943
   -1.22598     2.35776    -1.44953
   -0.92552     2.39405     0.71229
   -1.06029     2.13539     0.89954
   -1.27562     1.92400     1.13414
   -1.52853     1.75820     1.36341
   -1.58424     1.47494     1.61973
    1.20118     0.91210    -1.96273
    1.20056     1.26342    -1.95968
    1.11000     1.64043    -1.93628
    0.97781     1.98886    -1.86370
    0.90399     2.40559    -1.94955
   -1.37684    -2.12793     1.20910
   -1.51070    -2.30696     1.47879
   -1.61233    -2.58950     1.72553
   -1.68347    -2.90142     1.84983
   -2.03743    -3.11494     1.72478
   -0.15941     1.08857    -2.29871
   -0.19772     1.39630    -2.14842
   -0.15492     1.77774    -2.07081
   -0.12366     2.14532    -2.06053
   -0.21986     2.47427    -1.82900
   -1.35078     0.68103    -1.04508
   -1.51305     0.98102    -1.14813
   -1.60001     1.31684    -1.31811
   -1.59546     1.64605    -1.50321
   -1.78654     2.01957    -1.53420
    1.50826    -2.15751     0.38106
    1.80369    -2.26142     0.54323
    2.12021    -2.26987     0.76532
    2.39003    -2.23144     1.02092
    2.77621    -2.24257     1.20558
    1.17844    -2.12108    -1.49466
    1.17679    -2.46029    -1.41613
    1.29555    -2.82225    -1.34518
    1.46684    -3.13463    -1.28315
    1.32762    -3.54793    -1.39722
    0.29745     1.11407    -1.65823
    0.32196     1.46631    -1.60671
    0.39035     1.80976    -1.44596
    0.52428     2.10496    -1.24978
    0.62352     2.52142    -1.23809
    0.05233     1.04612    -1.01955
   -0.01747     1.38771    -0.98548
   -0.01515     1.77323    -0.99216
    0.04877     2.12246    -0.99590
    0.02780     2.32317    -0.59408
   -0.22821     0.93293    -0.21264
   -0.12331     1.25696    -0.28006
   -0.12528     1.64191    -0.30386
   -0.16977     2.00618    -0.24844
    0.07558     2.30720    -0.07678
   -1.17623     0.87523    -0.20001
   -1.24268     1.21422    -0.20863
   -1.28556     1.59111    -0.27816
   -1.31641     1.93071    -0.44297
   -1.42832     2.34707    -0.46771
    0.51123     1.12737     2.08041
    0.29882     1.41221     2.06833
    0.19909     1.78665     2.10474
    0.18819     2.16203     2.11500
    0.07464     2.48269     2.31467
    0.94704     1.16577     2.35766
    0.95474     1.50984     2.42798
    0.87172     1.88111     2.39901
    0.69473     2.21157     2.35507
    0.69000     2.57831     2.17349
   -0.76226     2.20932    -0.23199
   -0.69745     1.88635    -0.10329
   -0.70261     1.51827    -0.00859
   -0.77647     1.17059     0.04254
   -0.92592     1.00770     0.38623
   -1.47832     0.97952     1.42189
   -1.81045     1.08374     1.43561
   -2.13934     1.28179     1.37601
   -2.35847     1.55643     1.29807
   -2.53741     1.84553     1.52765
    0.44046     1.22048    -2.21428
    0.42458     1.55088    -2.10128
    0.38803     1.93636    -2.08457
    0.31386     2.30635    -2.15233
    0.35286     2.68848    -2.03736
   -2.07004    -2.22626     0.55392
   -1.96727    -2.56514     0.59363
   -1.88951    -2.90315     0.75982
   -1.84368    -3.19332     0.98655
   -1.49890    -3.42111     1.00316
   -1.30803     2.33181    -0.01670
   -1.23362     2.10795     0.24778
   -1.12503     1.79130     0.44193
   -1.00763     1.45723     0.55654
   -1.01977     1.19242     0.91636
    1.26489     1.22494     1.98673
    1.56967     1.40631     1.97319
    1.83084     1.68867     2.00958
    2.01177     2.02217     2.05653
    2.31488     2.30490     1.97707
    0.85970     1.06266     0.85811
    0.93160     1.37268     0.71831
    1.11107     1.70246     0.62910
    1.33153     1.97794     0.60133
    1.28524     2.34124     0.76942
    1.82725    -2.27133    -1.40339
    1.84274    -2.61460    -1.31858
    1.97978    -2.95125    -1.19446
    2.21040    -3.21897    -1.09820
    2.40667    -3.45944    -1.36423
    0.06909    -2.20056     0.46041
    0.24323    -2.49834     0.52013
    0.36681    -2.86335     0.52514
    0.44133    -3.22548     0.46781
    0.70067    -3.46332     0.33144
    2.16576    -2.22400     0.08621
    2.29878    -2.54073     0.02132
    2.52421    -2.85189     0.03029
    2.77238    -3.12204     0.11346
    3.00746    -3.46849     0.00080
</position>
<mass num="450">
   73.13900
  123.02560
   72.06380
   71.05580
   56.10800
   56.10800
   57.11600
   56.10800
   56.10800
   57.11600
   73.13900
  123.02560
   72.06380
   71.05580
   56.10800
   56.10800
   57.11600
   56.10800
   56.10800
   57.11600
   73.13900
  123.02560
   72.06380
   71.05580
   56.10800
   56.10800
   57.11600
   56.10800
   56.10800
   57.11600
   73.13900
  123.02560
   72.06380
   71.05580
   56.10800
   56.10800
   57.11600
   56.10800
   56.10800
   57.11600
   73.13900
  123.02560
   72.06380
   71.05580
   56.10800
   56.10800
   57.11600
   56.10800
   56.10800
   57.11600
   73.13900
  123.02560
   72.06380
   71.05580
   56.10800
   56.10800
   57.11600
   56.10800
   56.10800
   57.11600
   73.13900
  123.02560
   72.06380
   71.05580
   56.10800
   56.10800
   57.11600
   56.10800
   56.10800
   57.11600
   73.13900
  123.02560
   72.06380
   71.05580
   56.10800
   56.10800
   57.11600
   56.10800
   56.10800
   57.11600
   73.13900
  123.02560
   72.06380
   71.05580
   56.10800
   56.10800
   57.11600
   56.10800
   56.10800
   57.11600
   73.13900
  123.02560
   72.06380
   71.05580
   56.10800
   56.10800
   57.11600
   56.10800
   56.10800
   57.11600
   73.13900
  123.02560
   72.06380
   71.05580
   56.10800
   56.10800
   57.11600
   56.10800
   56.10800
   57.11600
   73.13900
  123.02560
   72.06380
   71.05580
   56.10800
   56.10800
   57.11600
   56.10800
   56.10800
   57.11600
   73.13900
  123.02560
   72.06380
   71.05580
   56.10800
   56.10800
   57.11600
   56.10800
   56.10800
   57.11600
   73.13900
  123.02560
   72.06380
   71.05580
   56.10800
   56.10800
   57.11600
   56.10800
   56.10800
   57.11600
   73.13900
  123.02560
   72.06380
   71.05580
   56.10800
   56.10800
   57.11600
   56.10800
   56.10800
   57.11600
   73.13900
  123.02560
   72.06380
   71.05580
   56.10800
   56.10800
   57.11600
   56.10800
   56.10800
   57.11600
   73.13900
  123.02560
   72.06380
   71.05580
   56.10800
   56.10800
   57.11600
   56.10800
   56.10800
   57.11600
   73.13900
  123.02560
   72.06380
   71.05580
   56.10800
   56.10800
   57.11600
   56.10800
   56.10800
   57.11600
   73.13900
  123.02560
   72.06380
   71.05580
   56.10800
   56.10800
   57.11600
   56.10800
   56.10800
   57.11600
   73.13900
  123.02560
   72.06380
   71.05580
   56.10800
   56.10800
   57.11600
   56.10800
   56.10800
   57.11600
   73.13900
  123.02560
   72.06380
   71.05580
   56.10800
   56.10800
   57.11600
   56.10800
   56.10800
   57.11600
   73.13900
  123.02560
   72.06380
   71.05580
   56.10800
   56.10800
   57.11600
   56.10800
   56.10800
   57.11600
   73.13900
  123.02560
   72.06380
   71.05580
   56.10800
   56.10800
   57.11600
   56.10800
   56.10800
   57.11600
   73.13900
  123.02560
   72.06380
   71.05580
   56.10800
   56.10800
   57.11600
   56.10800
   56.10800
   57.11600
   73.13900
  123.02560
   72.06380
   71.05580
   56.10800
   56.10800
   57.11600
   56.10800
   56.10800
   57.11600
   73.13900
  123.02560
   72.06380
   71.05580
   56.10800
   56.10800
   57.11600
   56.10800
   56.10800
   57.11600
   73.13900
  123.02560
   72.06380
   71.05580
   56.10800
   56.10800
   57.11600
   56.10800
   56.10800
   57.11600
   73.13900
  123.02560
   72.06380
   71.05580
   56.10800
   56.10800
   57.11600
   56.10800
   56.10800
   57.11600
   73.13900
  123.02560
   72.06380
   71.05580
   56.10800
   56.10800
   57.11600
   56.10800
   56.10800
   57.11600
   73.13900
  123.02560
   72.06380
   71.05580
   56.10800
   56.10800
   57.11600
   56.10800
   56.10800
   57.11600
   58.08040
  106.16800
  109.19200
   56.10800
   57.11600
   58.08040
  106.16800
  109.19200
   56.10800
   57.11600
   58.08040
  106.16800
  109.19200
   56.10800
   57.11600
   58.08040
  106.16800
  109.19200
   56.10800
   57.11600
   58.08040
  106.16800
  109.19200
   56.10800
   57.11600
   58.08040
  106.16800
  109.19200
   56.10800
   57.11600
   58.08040
  106.16800
  109.19200
   56.10800
   57.11600
   58.08040
  106.16800
  109.19200
   56.10800
   57.11600
   58.08040
  106.16800
  109.19200
   56.10800
   57.11600
   58.08040
  106.16800
  109.19200
   56.10800
   57.11600
   58.08040
  106.16800
  109.19200
   56.10800
   57.11600
   58.08040
  106.16800
  109.19200
   56.10800
   57.11600
   58.08040
  106.16800
  109.19200
   56.10800
   57.11600
   58.08040
  106.16800
  109.19200
   56.10800
   57.11600
   58.08040
  106.16800
  109.19200
   56.10800
   57.11600
   58.08040
  106.16800
  109.19200
   56.10800
   57.11600
   58.08040
  106.16800
  109.19200
   56.10800
   57.11600
   58.08040
  106.16800
  109.19200
   56.10800
   57.11600
   58.08040
  106.16800
  109.19200
   56.10800
   57.11600
   58.08040
  106.16800
  109.19200
   56.10800
   57.11600
   58.08040
  106.16800
  109.19200
   56.10800
   57.11600
   58.08040
  106.16800
  109.19200
   56.10800
   57.11600
   58.08040
  106.16800
  109.19200
   56.10800
   57.11600
   58.08040
  106.16800
  109.19200
   56.10800
   57.11600
   58.08040
  106.16800
  109.19200
   56.10800
   57.11600
   58.08040
  106.16800
  109.19200
   56.10800
   57.11600
   58.08040
  106.16800
  109.19200
   56.10800
   57.11600
   58.08040
  106.16800
  109.19200
   56.10800
   57.11600
   58.08040
  106.16800
  109.19200
   56.10800
   57.11600
   58.08040
  106.16800
  109.19200
   56.10800
   57.11600
</mass>
<type num="450">
NCL
PCL
COL
COL
CHA4
CHA4
CHA4
CHA4
CHA4
CHA4
NCL
PCL
COL
COL
CHA4
CHA4
CHA4
CHA4
CHA4
CHA4
NCL
PCL
COL
COL
CHA4
CHA4
CHA4
CHA4
CHA4
CHA4
NCL
PCL
COL
COL
CHA4
CHA4
CHA4
CHA4
CHA4
CHA4
NCL
PCL
COL
COL
CHA4
CHA4
CHA4
CHA4
CHA4
CHA4
NCL
PCL
COL
COL
CHA4
CHA4
CHA4
CHA4
CHA4
CHA4
NCL
PCL
COL
COL
CHA4
CHA4
CHA4
CHA4
CHA4
CHA4
NCL
PCL
COL
COL
CHA4
CHA4
CHA4
CHA4
CHA4
CHA4
NCL
PCL
COL
COL
CHA4
CHA4
CHA4
CHA4
CHA4
CHA4
NCL
PCL
COL
COL
CHA4
CHA4
CHA4
CHA4
CHA4
CHA4
NCL
PCL
COL
COL
CHA4
CHA4
CHA4
CHA4
CHA4
CHA4
NCL
PCL
COL
COL
CHA4
CHA4
CHA4
CHA4
CHA4
CHA4
NCL
PCL
COL
COL
CHA4
CHA4
CHA4
CHA4
CHA4
CHA4
NCL
PCL
COL
COL
CHA4
CHA4
CHA4
CHA4
CHA4
CHA4
NCL
PCL
COL
COL
CHA4
CHA4
CHA4
CHA4
CHA4
CHA4
NCL
PCL
COL
COL
CHA4
CHA4
CHA4
CHA4
CHA4
CHA4
NCL
PCL
COL
COL
CHA4
CHA4
CHA4
CHA4
CHA4
CHA4
NCL
PCL
COL
COL
CHA4
CHA4
CHA4
CHA4
CHA4
CHA4
NCL
PCL
COL
COL
CHA4
CHA4
CHA4
CHA4
CHA4
CHA4
NCL
PCL
COL
COL
CHA4
CHA4
CHA4
CHA4
CHA4
CHA4
NCL
PCL
COL
COL
CHA4
CHA4
CHA4
CHA4
CHA4
CHA4
NCL
PCL
COL
COL
CHA4
CHA4
CHA4
CHA4
CHA4
CHA4
NCL
PCL
COL
COL
CHA4
CHA4
CHA4
CHA4
CHA4
CHA4
NCL
PCL
COL
COL
CHA4
CHA4
CHA4
CHA4
CHA4
CHA4
NCL
PCL
COL
COL
CHA4
CHA4
CHA4
CHA4
CHA4
CHA4
NCL
PCL
COL
COL
CHA4
CHA4
CHA4
CHA4
CHA4
CHA4
NCL
PCL
COL
COL
CHA4
CHA4
CHA4
CHA4
CHA4
CHA4
NCL
PCL
COL
COL
CHA4
CHA4
CHA4
CHA4
CHA4
CHA4
NCL
PCL
COL
COL
CHA4
CHA4
CHA4
CHA4
CHA4
CHA4
NCL
PCL
COL
COL
CHA4
CHA4
CHA4
CHA4
CHA4
CHA4
CLOH
CLRC
CLRC
CHB4
CHB4
CLOH
CLRC
CLRC
CHB4
CHB4
CLOH
CLRC
CLRC
CHB4
CHB4
CLOH
CLRC
CLRC
CHB4
CHB4
CLOH
CLRC
CLRC
CHB4
CHB4
CLOH
CLRC
CLRC
CHB4
CHB4
CLOH
CLRC
CLRC
CHB4
CHB4
CLOH
CLRC
CLRC
CHB4
CHB4
CLOH
CLRC
CLRC
CHB4
CHB4
CLOH
CLRC
CLRC
CHB4
CHB4
CLOH
CLRC
CLRC
CHB4
CHB4
CLOH
CLRC
CLRC
CHB4
CHB4
CLOH
CLRC
CLRC
CHB4
CHB4
CLOH
CLRC
CLRC
CHB4
CHB4
CLOH
CLRC
CLRC
CHB4
CHB4
CLOH
CLRC
CLRC
CHB4
CHB4
CLOH
CLRC
CLRC
CHB4
CHB4
CLOH
CLRC
CLRC
CHB4
CHB4
CLOH
CLRC
CLRC
CHB4
CHB4
CLOH
CLRC
CLRC
CHB4
CHB4
CLOH
CLRC
CLRC
CHB4
CHB4
CLOH
CLRC
CLRC
CHB4
CHB4
CLOH
CLRC
CLRC
CHB4
CHB4
CLOH
CLRC
CLRC
CHB4
CHB4
CLOH
CLRC
CLRC
CHB4
CHB4
CLOH
CLRC
CLRC
CHB4
CHB4
CLOH
CLRC
CLRC
CHB4
CHB4
CLOH
CLRC
CLRC
CHB4
CHB4
CLOH
CLRC
CLRC
CHB4
CHB4
CLOH
CLRC
CLRC
CHB4
CHB4
</type>
<charge num="450">
    1.00103
   -1.14785
   -0.10678
    0.25359
    0.00000
    0.00000
   -0.00000
    0.00000
    0.00000
   -0.00000
    1.00103
   -1.14785
   -0.10678
    0.25359
    0.00000
    0.00000
   -0.00000
    0.00000
    0.00000
   -0.00000
    1.00103
   -1.14785
   -0.10678
    0.25359
    0.00000
    0.00000
   -0.00000
    0.00000
    0.00000
   -0.00000
    1.00103
   -1.14785
   -0.10678
    0.25359
    0.00000
    0.00000
   -0.00000
    0.00000
    0.00000
   -0.00000
    1.00103
   -1.14785
   -0.10678
    0.25359
    0.00000
    0.00000
   -0.00000
    0.00000
    0.00000
   -0.00000
    1.00103
   -1.14785
   -0.10678
    0.25359
    0.00000
    0.00000
   -0.00000
    0.00000
    0.00000
   -0.00000
    1.00103
   -1.14785
   -0.10678
    0.25359
    0.00000
    0.00000
   -0.00000
    0.00000
    0.00000
   -0.00000
    1.00103
   -1.14785
   -0.10678
    0.25359
    0.00000
    0.00000
   -0.00000
    0.00000
    0.00000
   -0.00000
    1.00103
   -1.14785
   -0.10678
    0.25359
    0.00000
    0.00000
   -0.00000
    0.00000
    0.00000
   -0.00000
    1.00103
   -1.14785
   -0.10678
    0.25359
    0.00000
    0.00000
   -0.00000
    0.00000
    0.00000
   -0.00000
    1.00103
   -1.14785
   -0.10678
    0.25359
    0.00000
    0.00000
   -0.00000
    0.00000
    0.00000
   -0.00000
    1.00103
   -1.14785
   -0.10678
    0.25359
    0.00000
    0.00000
   -0.00000
    0.00000
    0.00000
   -0.00000
    1.00103
   -1.14785
   -0.10678
    0.25359
    0.00000
    0.00000
   -0.00000
    0.00000
    0.00000
   -0.00000
    1.00103
   -1.14785
   -0.10678
    0.25359
    0.00000
    0.00000
   -0.00000
    0.00000
    0.00000
   -0.00000
    1.00103
   -1.14785
   -0.10678
    0.25359
    0.00000
    0.00000
   -0.00000
    0.00000
    0.00000
   -0.00000
    1.00103
   -1.14785
   -0.10678
    0.25359
    0.00000
    0.00000
   -0.00000
    0.00000
    0.00000
   -0.00000
    1.00103
   -1.14785
   -0.10678
    0.25359
    0.00000
    0.00000
   -0.00000
    0.00000
    0.00000
   -0.00000
    1.00103
   -1.14785
   -0.10678
    0.25359
    0.00000
    0.00000
   -0.00000
    0.00000
    0.00000
   -0.00000
    1.00103
   -1.14785
   -0.10678
    0.25359
    0.00000
    0.00000
   -0.00000
    0.00000
    0.00000
   -0.00000
    1.00103
   -1.14785
   -0.10678
    0.25359
    0.00000
    0.00000
   -0.00000
    0.00000
    0.00000
   -0.00000
    1.00103
   -1.14785
   -0.10678
    0.25359
    0.00000
    0.00000
   -0.00000
    0.00000
    0.00000
   -0.00000
    1.00103
   -1.14785
   -0.10678
    0.25359
    0.00000
    0.00000
   -0.00000
    0.00000
    0.00000
   -0.00000
    1.00103
   -1.14785
   -0.10678
    0.25359
    0.00000
    0.00000
   -0.00000
    0.00000
    0.00000
   -0.00000
    1.00103
   -1.14785
   -0.10678
    0.25359
    0.00000
    0.00000
   -0.00000
    0.00000
    0.00000
   -0.00000
    1.00103
   -1.14785
   -0.10678
    0.25359
    0.00000
    0.00000
   -0.00000
    0.00000
    0.00000
   -0.00000
    1.00103
   -1.14785
   -0.10678
    0.25359
    0.00000
    0.00000
   -0.00000
    0.00000
    0.00000
   -0.00000
    1.00103
   -1.14785
   -0.10678
    0.25359
    0.00000
    0.00000
   -0.00000
    0.00000
    0.00000
   -0.00000
    1.00103
   -1.14785
   -0.10678
    0.25359
    0.00000
    0.00000
   -0.00000
    0.00000
    0.00000
   -0.00000
    1.00103
   -1.14785
   -0.10678
    0.25359
    0.00000
    0.00000
   -0.00000
    0.00000
    0.00000
   -0.00000
    1.00103
   -1.14785
   -0.10678
    0.25359
    0.00000
    0.00000
   -0.00000
    0.00000
    0.00000
   -0.00000
    0.00000
    0.00000
    0.00000
    0.00000
    0.00000
    0.00000
    0.00000
    0.00000
    0.00000
    0.00000
    0.00000
    0.00000
    0.00000
    0.00000
    0.00000
    0.00000
    0.00000
    0.00000
    0.00000
    0.00000
    0.00000
    0.00000
    0.00000
    0.00000
    0.00000
    0.00000
    0.00000
    0.00000
    0.00000
    0.00000
    0.00000
    0.00000
    0.00000
    0.00000
    0.00000
    0.00000
    0.00000
    0.00000
    0.00000
    0.00000
    0.00000
    0.00000
    0.00000
    0.00000
    0.00000
    0.00000
    0.00000
    0.00000
    0.00000
    0.00000
    0.00000
    0.00000
    0.00000
    0.00000
    0.00000
    0.00000
    0.00000
    0.00000
    0.00000
    0.00000
    0.00000
    0.00000
    0.00000
    0.00000
    0.00000
    0.00000
    0.00000
    0.00000
    0.00000
    0.00000
    0.00000
    0.00000
    0.00000
    0.00000
    0.00000
    0.00000
    0.00000
    0.00000
    0.00000
    0.00000
    0.00000
    0.00000
    0.00000
    0.00000
    0.00000
    0.00000
    0.00000
    0.00000
    0.00000
    0.00000
    0.00000
    0.00000
    0.00000
    0.00000
    0.00000
    0.00000
    0.00000
    0.00000
    0.00000
    0.00000
    0.00000
    0.00000
    0.00000
    0.00000
    0.00000
    0.00000
    0.00000
    0.00000
    0.00000
    0.00000
    0.00000
    0.00000
    0.00000
    0.00000
    0.00000
    0.00000
    0.00000
    0.00000
    0.00000
    0.00000
    0.00000
    0.00000
    0.00000
    0.00000
    0.00000
    0.00000
    0.00000
    0.00000
    0.00000
    0.00000
    0.00000
    0.00000
    0.00000
    0.00000
    0.00000
    0.00000
    0.00000
    0.00000
    0.00000
    0.00000
    0.00000
    0.00000
    0.00000
    0.00000
    0.00000
    0.00000
    0.00000
    0.00000
    0.00000
    0.00000
</charge>
<bond>
DMPC.CG:1 0 1
DMPC.CG:1 10 11
DMPC.CG:1 20 21
DMPC.CG:1 30 31
DMPC.CG:1 40 41
DMPC.CG:1 50 51
DMPC.CG:1 60 61
DMPC.CG:1 70 71
DMPC.CG:1 80 81
DMPC.CG:1 90 91
DMPC.CG:1 100 101
DMPC.CG:1 110 111
DMPC.CG:1 120 121
DMPC.CG:1 130 131
DMPC.CG:1 140 141
DMPC.CG:1 150 151
DMPC.CG:1 160 161
DMPC.CG:1 170 171
DMPC.CG:1 180 181
DMPC.CG:1 190 191
DMPC.CG:1 200 201
DMPC.CG:1 210 211
DMPC.CG:1 220 221
DMPC.CG:1 230 231
DMPC.CG:1 240 241
DMPC.CG:1 250 251
DMPC.CG:1 260 261
DMPC.CG:1 270 271
DMPC.CG:1 280 281
DMPC.CG:1 290 291
DMPC.CG:2 1 2
DMPC.CG:2 1 3
DMPC.CG:2 11 12
DMPC.CG:2 11 13
DMPC.CG:2 21 22
DMPC.CG:2 21 23
DMPC.CG:2 31 32
DMPC.CG:2 31 33
DMPC.CG:2 41 42
DMPC.CG:2 41 43
DMPC.CG:2 51 52
DMPC.CG:2 51 53
DMPC.CG:2 61 62
DMPC.CG:2 61 63
DMPC.CG:2 71 72
DMPC.CG:2 71 73
DMPC.CG:2 81 82
DMPC.CG:2 81 83
DMPC.CG:2 91 92
DMPC.CG:2 91 93
DMPC.CG:2 101 102
DMPC.CG:2 101 103
DMPC.CG:2 111 112
DMPC.CG:2 111 113
DMPC.CG:2 121 122
DMPC.CG:2 121 123
DMPC.CG:2 131 132
DMPC.CG:2 131 133
DMPC.CG:2 141 142
DMPC.CG:2 141 143
DMPC.CG:2 151 152
DMPC.CG:2 151 153
DMPC.CG:2 161 162
DMPC.CG:2 161 163
DMPC.CG:2 171 172
DMPC.CG:2 171 173
DMPC.CG:2 181 182
DMPC.CG:2 181 183
DMPC.CG:2 191 192
DMPC.CG:2 191 193
DMPC.CG:2 201 202
DMPC.CG:2 201 203
DMPC.CG:2 211 212
DMPC.CG:2 211 213
DMPC.CG:2 221 222
DMPC.CG:2 221 223
DMPC.CG:2 231 232
DMPC.CG:2 231 233
DMPC.CG:2 241 242
DMPC.CG:2 241 243
DMPC.CG:2 251 252
DMPC.CG:2 251 253
DMPC.CG:2 261 262
DMPC.CG:2 261 263
DMPC.CG:2 271 272
DMPC.CG:2 271 273
DMPC.CG:2 281 282
DMPC.CG:2 281 283
DMPC.CG:2 291 292
DMPC.CG:2 291 293
DMPC.CG:3 2 3
DMPC.CG:3 12 13
DMPC.CG:3 22 23
DMPC.CG:3 32 33
DMPC.CG:3 42 43
DMPC.CG:3 52 53
DMPC.CG:3 62 63
DMPC.CG:3 72 73
DMPC.CG:3 82 83
DMPC.CG:3 92 93
DMPC.CG:3 102 103
DMPC.CG:3 112 113
DMPC.CG:3 122 123
DMPC.CG:3 132 133
DMPC.CG:3 142 143
DMPC.CG:3 152 153
DMPC.CG:3 162 163
DMPC.CG:3 172 173
DMPC.CG:3 182 183
DMPC.CG:3 192 193
DMPC.CG:3 202 203
DMPC.CG:3 212 213
DMPC.CG:3 222 223
DMPC.CG:3 232 233
DMPC.CG:3 242 243
DMPC.CG:3 252 253
DMPC.CG:3 262 263
DMPC.CG:3 272 273
DMPC.CG:3 282 283
DMPC.CG:3 292 293
DMPC.CG:4 2 4
DMPC.CG:4 3 7
DMPC.CG:4 12 14
DMPC.CG:4 13 17
DMPC.CG:4 22 24
DMPC.CG:4 23 27
DMPC.CG:4 32 34
DMPC.CG:4 33 37
DMPC.CG:4 42 44
DMPC.CG:4 43 47
DMPC.CG:4 52 54
DMPC.CG:4 53 57
DMPC.CG:4 62 64
DMPC.CG:4 63 67
DMPC.CG:4 72 74
DMPC.CG:4 73 77
DMPC.CG:4 82 84
DMPC.CG:4 83 87
DMPC.CG:4 92 94
DMPC.CG:4 93 97
DMPC.CG:4 102 104
DMPC.CG:4 103 107
DMPC.CG:4 112 114
DMPC.CG:4 113 117
DMPC.CG:4 122 124
DMPC.CG:4 123 127
DMPC.CG:4 132 134
DMPC.CG:4 133 137
DMPC.CG:4 142 144
DMPC.CG:4 143 147
DMPC.CG:4 152 154
DMPC.CG:4 153 157
DMPC.CG:4 162 164
DMPC.CG:4 163 167
DMPC.CG:4 172 174
DMPC.CG:4 173 177
DMPC.CG:4 182 184
DMPC.CG:4 183 187
DMPC.CG:4 192 194
DMPC.CG:4 193 197
DMPC.CG:4 202 204
DMPC.CG:4 203 207
DMPC.CG:4 212 214
DMPC.CG:4 213 217
DMPC.CG:4 222 224
DMPC.CG:4 223 227
DMPC.CG:4 232 234
DMPC.CG:4 233 237
DMPC.CG:4 242 244
DMPC.CG:4 243 247
DMPC.CG:4 252 254
DMPC.CG:4 253 257
DMPC.CG:4 262 264
DMPC.CG:4 263 267
DMPC.CG:4 272 274
DMPC.CG:4 273 277
DMPC.CG:4 282 284
DMPC.CG:4 283 287
DMPC.CG:4 292 294
DMPC.CG:4 293 297
DMPC.CG:5 4 5
DMPC.CG:5 5 6
DMPC.CG:5 7 8
DMPC.CG:5 8 9
DMPC.CG:5 14 15
DMPC.CG:5 15 16
DMPC.CG:5 17 18
DMPC.CG:5 18 19
DMPC.CG:5 24 25
DMPC.CG:5 25 26
DMPC.CG:5 27 28
DMPC.CG:5 28 29
DMPC.CG:5 34 35
DMPC.CG:5 35 36
DMPC.CG:5 37 38
DMPC.CG:5 38 39
DMPC.CG:5 44 45
DMPC.CG:5 45 46
DMPC.CG:5 47 48
DMPC.CG:5 48 49
DMPC.CG:5 54 55
DMPC.CG:5 55 56
DMPC.CG:5 57 58
DMPC.CG:5 58 59
DMPC.CG:5 64 65
DMPC.CG:5 65 66
DMPC.CG:5 67 68
DMPC.CG:5 68 69
DMPC.CG:5 74 75
DMPC.CG:5 75 76
DMPC.CG:5 77 78
DMPC.CG:5 78 79
DMPC.CG:5 84 85
DMPC.CG:5 85 86
DMPC.CG:5 87 88
DMPC.CG:5 88 89
DMPC.CG:5 94 95
DMPC.CG:5 95 96
DMPC.CG:5 97 98
DMPC.CG:5 98 99
DMPC.CG:5 104 105
DMPC.CG:5 105 106
DMPC.CG:5 107 108
DMPC.CG:5 108 109
DMPC.CG:5 114 115
DMPC.CG:5 115 116
DMPC.CG:5 117 118
DMPC.CG:5 118 119
DMPC.CG:5 124 125
DMPC.CG:5 125 126
DMPC.CG:5 127 128
DMPC.CG:5 128 129
DMPC.CG:5 134 135
DMPC.CG:5 135 136
DMPC.CG:5 137 138
DMPC.CG:5 138 139
DMPC.CG:5 144 145
DMPC.CG:5 145 146
DMPC.CG:5 147 148
DMPC.CG:5 148 149
DMPC.CG:5 154 155
DMPC.CG:5 155 156
DMPC.CG:5 157 158
DMPC.CG:5 158 159
DMPC.CG:5 164 165
DMPC.CG:5 165 166
DMPC.CG:5 167 168
DMPC.CG:5 168 169
DMPC.CG:5 174 175
DMPC.CG:5 175 176
DMPC.CG:5 177 178
DMPC.CG:5 178 179
DMPC.CG:5 184 185
DMPC.CG:5 185 186
DMPC.CG:5 187 188
DMPC.CG:5 188 189
DMPC.CG:5 194 195
DMPC.CG:5 195 196
DMPC.CG:5 197 198
DMPC.CG:5 198 199
DMPC.CG:5 204 205
DMPC.CG:5 205 206
DMPC.CG:5 207 208
DMPC.CG:5 208 209
DMPC.CG:5 214 215
DMPC.CG:5 215 216
DMPC.CG:5 217 218
DMPC.CG:5 218 219
DMPC.CG:5 224 225
DMPC.CG:5 225 226
DMPC.CG:5 227 228
DMPC.CG:5 228 229
DMPC.CG:5 234 235
DMPC.CG:5 235 236
DMPC.CG:5 237 238
DMPC.CG:5 238 239
DMPC.CG:5 244 245
DMPC.CG:5 245 246
DMPC.CG:5 247 248
DMPC.CG:5 248 249
DMPC.CG:5 254 255
DMPC.CG:5 255 256
DMPC.CG:5 257 258
DMPC.CG:5 258 259
DMPC.CG:5 264 265
DMPC.CG:5 265 266
DMPC.CG:5 267 268
DMPC.CG:5 268 269
DMPC.CG:5 274 275
DMPC.CG:5 275 276
DMPC.CG:5 277 278
DMPC.CG:5 278 279
DMPC.CG:5 284 285
DMPC.CG:5 285 286
DMPC.CG:5 287 288
DMPC.CG:5 288 289
DMPC.CG:5 294 295
DMPC.CG:5 295 296
DMPC.CG:5 297 298
DMPC.CG:5 298 299
Chol.CG:1 300 301
Chol.CG:1 305 306
Chol.CG:1 310 311
Chol.CG:1 315 316
Chol.CG:1 320 321
Chol.CG:1 325 326
Chol.CG:1 330 331
Chol.CG:1 335 336
Chol.CG:1 340 341
Chol.CG:1 345 346
Chol.CG:1 350 351
Chol.CG:1 355 356
Chol.CG:1 360 361
Chol.CG:1 365 366
Chol.CG:1 370 371
Chol.CG:1 375 376
Chol.CG:1 380 381
Chol.CG:1 385 386
Chol.CG:1 390 391
Chol.CG:1 395 396
Chol.CG:1 400 401
Chol.CG:1 405 406
Chol.CG:1 410 411
Chol.CG:1 415 416
Chol.CG:1 420 421
Chol.CG:1 425 426
Chol.CG:1 430 431
Chol.CG:1 435 436
Chol.CG:1 440 441
Chol.CG:1 445 446
Chol.CG:2 301 302
Chol.CG:2 306 307
Chol.CG:2 311 312
Chol.CG:2 316 317
Chol.CG:2 321 322
Chol.CG:2 326 327
Chol.CG:2 331 332
Chol.CG:2 336 337
Chol.CG:2 341 342
Chol.CG:2 346 347
Chol.CG:2 351 352
Chol.CG:2 356 357
Chol.CG:2 361 362
Chol.CG:2 366 367
Chol.CG:2 371 372
Chol.CG:2 376 377
Chol.CG:2 381 382
Chol.CG:2 386 387
Chol.CG:2 391 392
Chol.CG:2 396 397
Chol.CG:2 401 402
Chol.CG:2 406 407
Chol.CG:2 411 412
Chol.CG:2 416 417
Chol.CG:2 421 422
Chol.CG:2 426 427
Chol.CG:2 431 432
Chol.CG:2 436 437
Chol.CG:2 441 442
Chol.CG:2 446 447
Chol.CG:3 302 303
Chol.CG:3 307 308
Chol.CG:3 312 313
Chol.CG:3 317 318
Chol.CG:3 322 323
Chol.CG:3 327 328
Chol.CG:3 332 333
Chol.CG:3 337 338
Chol.CG:3 342 343
Chol.CG:3 347 348
Chol.CG:3 352 353
Chol.CG:3 357 358
Chol.CG:3 362 363
Chol.CG:3 367 368
Chol.CG:3 372 373
Chol.CG:3 377 378
Chol.CG:3 382 383
Chol.CG:3 387 388
Chol.CG:3 392 393
Chol.CG:3 397 398
Chol.CG:3 402 403
Chol.CG:3 407 408
Chol.CG:3 412 413
Chol.CG:3 417 418
Chol.CG:3 422 423
Chol.CG:3 427 428
Chol.CG:3 432 433
Chol.CG:3 437 438
Chol.CG:3 442 443
Chol.CG:3 447 448
Chol.CG:4 303 304
Chol.CG:4 308 309
Chol.CG:4 313 314
Chol.CG:4 318 319
Chol.CG:4 323 324
Chol.CG:4 328 329
Chol.CG:4 333 334
Chol.CG:4 338 339
Chol.CG:4 343 344
Chol.CG:4 348 349
Chol.CG:4 353 354
Chol.CG:4 358 359
Chol.CG:4 363 364
Chol.CG:4 368 369
Chol.CG:4 373 374
Chol.CG:4 378 379
Chol.CG:4 383 384
Chol.CG:4 388 389
Chol.CG:4 393 394
Chol.CG:4 398 399
Chol.CG:4 403 404
Chol.CG:4 408 409
Chol.CG:4 413 414
Chol.CG:4 418 419
Chol.CG:4 423 424
Chol.CG:4 428 429
Chol.CG:4 433 434
Chol.CG:4 438 439
Chol.CG:4 443 444
Chol.CG:4 448 449
</bond>
<angle>
DMPC.CG:6 0 1 2
DMPC.CG:6 0 1 3
DMPC.CG:6 10 11 12
DMPC.CG:6 10 11 13
DMPC.CG:6 20 21 22
DMPC.CG:6 20 21 23
DMPC.CG:6 30 31 32
DMPC.CG:6 30 31 33
DMPC.CG:6 40 41 42
DMPC.CG:6 40 41 43
DMPC.CG:6 50 51 52
DMPC.CG:6 50 51 53
DMPC.CG:6 60 61 62
DMPC.CG:6 60 61 63
DMPC.CG:6 70 71 72
DMPC.CG:6 70 71 73
DMPC.CG:6 80 81 82
DMPC.CG:6 80 81 83
DMPC.CG:6 90 91 92
DMPC.CG:6 90 91 93
DMPC.CG:6 100 101 102
DMPC.CG:6 100 101 103
DMPC.CG:6 110 111 112
DMPC.CG:6 110 111 113
DMPC.CG:6 120 121 122
DMPC.CG:6 120 121 123
DMPC.CG:6 130 131 132
DMPC.CG:6 130 131 133
DMPC.CG:6 140 141 142
DMPC.CG:6 140 141 143
DMPC.CG:6 150 151 152
DMPC.CG:6 150 151 153
DMPC.CG:6 160 161 162
DMPC.CG:6 160 161 163
DMPC.CG:6 170 171 172
DMPC.CG:6 170 171 173
DMPC.CG:6 180 181 182
DMPC.CG:6 180 181 183
DMPC.CG:6 190 191 192
DMPC.CG:6 190 191 193
DMPC.CG:6 200 201 202
DMPC.CG:6 200 201 203
DMPC.CG:6 210 211 212
DMPC.CG:6 210 211 213
DMPC.CG:6 220 221 222
DMPC.CG:6 220 221 223
DMPC.CG:6 230 231 232
DMPC.CG:6 230 231 233
DMPC.CG:6 240 241 242
DMPC.CG:6 240 241 243
DMPC.CG:6 250 251 252
DMPC.CG:6 250 251 253
DMPC.CG:6 260 261 262
DMPC.CG:6 260 261 263
DMPC.CG:6 270 271 272
DMPC.CG:6 270 271 273
DMPC.CG:6 280 281 282
DMPC.CG:6 280 281 283
DMPC.CG:6 290 291 292
DMPC.CG:6 290 291 293
DMPC.CG:7 1 2 4
DMPC.CG:7 1 3 7
DMPC.CG:7 11 12 14
DMPC.CG:7 11 13 17
DMPC.CG:7 21 22 24
DMPC.CG:7 21 23 27
DMPC.CG:7 31 32 34
DMPC.CG:7 31 33 37
DMPC.CG:7 41 42 44
DMPC.CG:7 41 43 47
DMPC.CG:7 51 52 54
DMPC.CG:7 51 53 57
DMPC.CG:7 61 62 64
DMPC.CG:7 61 63 67
DMPC.CG:7 71 72 74
DMPC.CG:7 71 73 77
DMPC.CG:7 81 82 84
DMPC.CG:7 81 83 87
DMPC.CG:7 91 92 94
DMPC.CG:7 91 93 97
DMPC.CG:7 101 102 104
DMPC.CG:7 101 103 107
DMPC.CG:7 111 112 114
DMPC.CG:7 111 113 117
DMPC.CG:7 121 122 124
DMPC.CG:7 121 123 127
DMPC.CG:7 131 132 134
DMPC.CG:7 131 133 137
DMPC.CG:7 141 142 144
DMPC.CG:7 141 143 147
DMPC.CG:7 151 152 154
DMPC.CG:7 151 153 157
DMPC.CG:7 161 162 164
DMPC.CG:7 161 163 167
DMPC.CG:7 171 172 174
DMPC.CG:7 171 173 177
DMPC.CG:7 181 182 184
DMPC.CG:7 181 183 187
DMPC.CG:7 191 192 194
DMPC.CG:7 191 193 197
DMPC.CG:7 201 202 204
DMPC.CG:7 201 203 207
DMPC.CG:7 211 212 214
DMPC.CG:7 211 213 217
DMPC.CG:7 221 222 224
DMPC.CG:7 221 223 227
DMPC.CG:7 231 232 234
DMPC.CG:7 231 233 237
DMPC.CG:7 241 242 244
DMPC.CG:7 241 243 247
DMPC.CG:7 251 252 254
DMPC.CG:7 251 253 257
DMPC.CG:7 261 262 264
DMPC.CG:7 261 263 267
DMPC.CG:7 271 272 274
DMPC.CG:7 271 273 277
DMPC.CG:7 281 282 284
DMPC.CG:7 281 283 287
DMPC.CG:7 291 292 294
DMPC.CG:7 291 293 297
DMPC.CG:8 3 2 4
DMPC.CG:8 2 3 7
DMPC.CG:8 13 12 14
DMPC.CG:8 12 13 17
DMPC.CG:8 23 22 24
DMPC.CG:8 22 23 27
DMPC.CG:8 33 32 34
DMPC.CG:8 32 33 37
DMPC.CG:8 43 42 44
DMPC.CG:8 42 43 47
DMPC.CG:8 53 52 54
DMPC.CG:8 52 53 57
DMPC.CG:8 63 62 64
DMPC.CG:8 62 63 67
DMPC.CG:8 73 72 74
DMPC.CG:8 72 73 77
DMPC.CG:8 83 82 84
DMPC.CG:8 82 83 87
DMPC.CG:8 93 92 94
DMPC.CG:8 92 93 97
DMPC.CG:8 103 102 104
DMPC.CG:8 102 103 107
DMPC.CG:8 113 112 114
DMPC.CG:8 112 113 117
DMPC.CG:8 123 122 124
DMPC.CG:8 122 123 127
DMPC.CG:8 133 132 134
DMPC.CG:8 132 133 137
DMPC.CG:8 143 142 144
DMPC.CG:8 142 143 147
DMPC.CG:8 153 152 154
DMPC.CG:8 152 153 157
DMPC.CG:8 163 162 164
DMPC.CG:8 162 163 167
DMPC.CG:8 173 172 174
DMPC.CG:8 172 173 177
DMPC.CG:8 183 182 184
DMPC.CG:8 182 183 187
DMPC.CG:8 193 192 194
DMPC.CG:8 192 193 197
DMPC.CG:8 203 202 204
DMPC.CG:8 202 203 207
DMPC.CG:8 213 212 214
DMPC.CG:8 212 213 217
DMPC.CG:8 223 222 224
DMPC.CG:8 222 223 227
DMPC.CG:8 233 232 234
DMPC.CG:8 232 233 237
DMPC.CG:8 243 242 244
DMPC.CG:8 242 243 247
DMPC.CG:8 253 252 254
DMPC.CG:8 252 253 257
DMPC.CG:8 263 262 264
DMPC.CG:8 262 263 267
DMPC.CG:8 273 272 274
DMPC.CG:8 272 273 277
DMPC.CG:8 283 282 284
DMPC.CG:8 282 283 287
DMPC.CG:8 293 292 294
DMPC.CG:8 292 293 297
DMPC.CG:9 2 4 5
DMPC.CG:9 3 7 8
DMPC.CG:9 12 14 15
DMPC.CG:9 13 17 18
DMPC.CG:9 22 24 25
DMPC.CG:9 23 27 28
DMPC.CG:9 32 34 35
DMPC.CG:9 33 37 38
DMPC.CG:9 42 44 45
DMPC.CG:9 43 47 48
DMPC.CG:9 52 54 55
DMPC.CG:9 53 57 58
DMPC.CG:9 62 64 65
DMPC.CG:9 63 67 68
DMPC.CG:9 72 74 75
DMPC.CG:9 73 77 78
DMPC.CG:9 82 84 85
DMPC.CG:9 83 87 88
DMPC.CG:9 92 94 95
DMPC.CG:9 93 97 98
DMPC.CG:9 102 104 105
DMPC.CG:9 103 107 108
DMPC.CG:9 112 114 115
DMPC.CG:9 113 117 118
DMPC.CG:9 122 124 125
DMPC.CG:9 123 127 128
DMPC.CG:9 132 134 135
DMPC.CG:9 133 137 138
DMPC.CG:9 142 144 145
DMPC.CG:9 143 147 148
DMPC.CG:9 152 154 155
DMPC.CG:9 153 157 158
DMPC.CG:9 162 164 165
DMPC.CG:9 163 167 168
DMPC.CG:9 172 174 175
DMPC.CG:9 173 177 178
DMPC.CG:9 182 184 185
DMPC.CG:9 183 187 188
DMPC.CG:9 192 194 195
DMPC.CG:9 193 197 198
DMPC.CG:9 202 204 205
DMPC.CG:9 203 207 208
DMPC.CG:9 212 214 215
DMPC.CG:9 213 217 218
DMPC.CG:9 222 224 225
DMPC.CG:9 223 227 228
DMPC.CG:9 232 234 235
DMPC.CG:9 233 237 238
DMPC.CG:9 242 244 245
DMPC.CG:9 243 247 248
DMPC.CG:9 252 254 255
DMPC.CG:9 253 257 258
DMPC.CG:9 262 264 265
DMPC.CG:9 263 267 268
DMPC.CG:9 272 274 275
DMPC.CG:9 273 277 278
DMPC.CG:9 282 284 285
DMPC.CG:9 283 287 288
DMPC.CG:9 292 294 295
DMPC.CG:9 293 297 298
DMPC.CG:10 4 5 6
DMPC.CG:10 7 8 9
DMPC.CG:10 14 15 16
DMPC.CG:10 17 18 19
DMPC.CG:10 24 25 26
DMPC.CG:10 27 28 29
DMPC.CG:10 34 35 36
DMPC.CG:10 37 38 39
DMPC.CG:10 44 45 46
DMPC.CG:10 47 48 49
DMPC.CG:10 54 55 56
DMPC.CG:10 57 58 59
DMPC.CG:10 64 65 66
DMPC.CG:10 67 68 69
DMPC.CG:10 74 75 76
DMPC.CG:10 77 78 79
DMPC.CG:10 84 85 86
DMPC.CG:10 87 88 89
DMPC.CG:10 94 95 96
DMPC.CG:10 97 98 99
DMPC.CG:10 104 105 106
DMPC.CG:10 107 108 109
DMPC.CG:10 114 115 116
DMPC.CG:10 117 118 119
DMPC.CG:10 124 125 126
DMPC.CG:10 127 128 129
DMPC.CG:10 134 135 136
DMPC.CG:10 137 138 139
DMPC.CG:10 144 145 146
DMPC.CG:10 147 148 149
DMPC.CG:10 154 155 156
DMPC.CG:10 157 158 159
DMPC.CG:10 164 165 166
DMPC.CG:10 167 168 169
DMPC.CG:10 174 175 176
DMPC.CG:10 177 178 179
DMPC.CG:10 184 185 186
DMPC.CG:10 187 188 189
DMPC.CG:10 194 195 196
DMPC.CG:10 197 198 199
DMPC.CG:10 204 205 206
DMPC.CG:10 207 208 209
DMPC.CG:10 214 215 216
DMPC.CG:10 217 218 219
DMPC.CG:10 224 225 226
DMPC.CG:10 227 228 229
DMPC.CG:10 234 235 236
DMPC.CG:10 237 238 239
DMPC.CG:10 244 245 246
DMPC.CG:10 247 248 249
DMPC.CG:10 254 255 256
DMPC.CG:10 257 258 259
DMPC.CG:10 264 265 266
DMPC.CG:10 267 268 269
DMPC.CG:10 274 275 276
DMPC.CG:10 277 278 279
DMPC.CG:10 284 285 286
DMPC.CG:10 287 288 289
DMPC.CG:10 294 295 296
DMPC.CG:10 297 298 299
Chol.CG:5 300 301 302
Chol.CG:5 305 306 307
Chol.CG:5 310 311 312
Chol.CG:5 315 316 317
Chol.CG:5 320 321 322
Chol.CG:5 325 326 327
Chol.CG:5 330 331 332
Chol.CG:5 335 336 337
Chol.CG:5 340 341 342
Chol.CG:5 345 346 347
Chol.CG:5 350 351 352
Chol.CG:5 355 356 357
Chol.CG:5 360 361 362
Chol.CG:5 365 366 367
Chol.CG:5 370 371 372
Chol.CG:5 375 376 377
Chol.CG:5 380 381 382
Chol.CG:5 385 386 387
Chol.CG:5 390 391 392
Chol.CG:5 395 396 397
Chol.CG:5 400 401 402
Chol.CG:5 405 406 407
Chol.CG:5 410 411 412
Chol.CG:5 415 416 417
Chol.CG:5 420 421 422
Chol.CG:5 425 426 427
Chol.CG:5 430 431 432
Chol.CG:5 435 436 437
Chol.CG:5 440 441 442
Chol.CG:5 445 446 447
Chol.CG:6 301 302 303
Chol.CG:6 306 307 308
Chol.CG:6 311 312 313
Chol.CG:6 316 317 318
Chol.CG:6 321 322 323
Chol.CG:6 326 327 328
Chol.CG:6 331 332 333
Chol.CG:6 336 337 338
Chol.CG:6 341 342 343
Chol.CG:6 346 347 348
Chol.CG:6 351 352 353
Chol.CG:6 356 357 358
Chol.CG:6 361 362 363
Chol.CG:6 366 367 368
Chol.CG:6 371 372 373
Chol.CG:6 376 377 378
Chol.CG:6 381 382 383
Chol.CG:6 386 387 388
Chol.CG:6 391 392 393
Chol.CG:6 396 397 398
Chol.CG:6 401 402 403
Chol.CG:6 406 407 408
Chol.CG:6 411 412 413
Chol.CG:6 416 417 418
Chol.CG:6 421 422 423
Chol.CG:6 426 427 428
Chol.CG:6 431 432 433
Chol.CG:6 436 437 438
Chol.CG:6 441 442 443
Chol.CG:6 446 447 448
Chol.CG:7 302 303 304
Chol.CG:7 307 308 309
Chol.CG:7 312 313 314
Chol.CG:7 317 318 319
Chol.CG:7 322 323 324
Chol.CG:7 327 328 329
Chol.CG:7 332 333 334
Chol.CG:7 337 338 339
Chol.CG:7 342 343 344
Chol.CG:7 347 348 349
Chol.CG:7 352 353 354
Chol.CG:7 357 358 359
Chol.CG:7 362 363 364
Chol.CG:7 367 368 369
Chol.CG:7 372 373 374
Chol.CG:7 377 378 379
Chol.CG:7 382 383 384
Chol.CG:7 387 388 389
Chol.CG:7 392 393 394
Chol.CG:7 397 398 399
Chol.CG:7 402 403 404
Chol.CG:7 407 408 409
Chol.CG:7 412 413 414
Chol.CG:7 417 418 419
Chol.CG:7 422 423 424
Chol.CG:7 427 428 429
Chol.CG:7 432 433 434
Chol.CG:7 437 438 439
Chol.CG:7 442 443 444
Chol.CG:7 447 448 449
</angle>
</configuration>
</galamost_xml>
