LAMMPS $NAME_OF_YOUR_SYSTEM

40  atoms
0  bonds
0  angles
0  dihedrals
0  impropers

2  atom types
0  bond types
0  angle types
0  dihedral types
0  improper types

  -15.71350    15.71350 xlo xhi
  -15.71350    15.71350 ylo yhi
  -15.71350    15.71350 zlo zhi

 Masses

1  22.98980
2  35.45300

 Atoms

1 1 1     1.00000    -3.03300   -13.71700   -15.58200
2 2 1     1.00000     6.04600    -8.98300    -5.13300
3 3 1     1.00000   -10.31400    -8.47300    -8.75500
4 4 1     1.00000    -7.12700    11.44500    -0.09000
5 5 1     1.00000    -1.79700   -14.53600     7.21800
6 6 1     1.00000     2.48800    -7.56200    -9.72800
7 7 1     1.00000    15.68700    14.10200    14.62500
8 8 1     1.00000    14.73600    -5.24100     4.40100
9 9 1     1.00000    10.02000    14.03500    -2.70200
10 10 1     1.00000   -13.35300    -5.43100    13.78400
11 11 1     1.00000    -5.50000     6.21000   -12.36300
12 12 1     1.00000     4.81500     1.74700    -1.85400
13 13 1     1.00000     7.69700    -2.73900   -14.04400
14 14 1     1.00000    10.03900     9.73100     9.15100
15 15 1     1.00000     9.31900    -5.10000    -8.90800
16 16 1     1.00000     3.00000     4.79200    -1.19300
17 17 1     1.00000    -8.31700    10.06700     6.29300
18 18 1     1.00000   -12.78800     9.33100    14.13900
19 19 1     1.00000   -15.00100     1.30900    -2.83600
20 20 1     1.00000     1.78300    13.75300   -13.61000
21 21 2    -1.00000    -0.66200     5.40300   -12.34200
22 22 2    -1.00000   -15.59700    -9.42500    -2.79700
23 23 2    -1.00000    -0.15300   -14.28900     2.48200
24 24 2    -1.00000    -9.91900     3.86100     2.17700
25 25 2    -1.00000    14.77400    -2.83100    15.58100
26 26 2    -1.00000    -8.18000    -6.74500    14.52800
27 27 2    -1.00000    -8.89800    12.87100   -10.07100
28 28 2    -1.00000    -7.30500   -15.36000    -1.93400
29 29 2    -1.00000     1.36800     5.30300     6.17900
30 30 2    -1.00000    15.63900   -14.44500    14.26300
31 31 2    -1.00000     6.29100    14.24600    12.56300
32 32 2    -1.00000    -2.62700     9.60600   -14.67300
33 33 2    -1.00000     0.34700   -15.37100    -3.72200
34 34 2    -1.00000     5.97400    -0.20200   -14.70800
35 35 2    -1.00000     5.12300    -6.11300     5.68300
36 36 2    -1.00000    13.88800     3.35100   -11.75900
37 37 2    -1.00000     8.18600    -9.65900    -9.11300
38 38 2    -1.00000     6.15300    -6.03400    -0.36900
39 39 2    -1.00000     8.05700     9.54100    -2.24500
40 40 2    -1.00000     9.77600     4.87100    -2.27600
