LAMMPS $NAME_OF_YOUR_SYSTEM

829  atoms
336  bonds
288  angles
0  dihedrals
0  impropers

9  atom types
1  bond types
3  angle types
0  dihedral types
0  improper types

  -75.90000    75.90000 xlo xhi
  -75.90000    75.90000 ylo yhi
  -75.90000    75.90000 zlo zhi

 Masses

2 136.43722
3 106.92245
1  87.74939
4  57.02146
5 121.03365
6 132.39500
7  22.98980
8  39.10200
9  35.45000

 Atoms

1 1 1     0.00000    17.61000    10.39000     5.34000
2 1 2     1.00000    18.12000     6.84000     6.65000
3 1 2     1.00000    16.44000     4.83000     3.99000
4 1 3     0.00000    18.32000     2.94000     1.34000
5 1 2     1.00000    18.55000     5.33000    -1.57000
6 1 2     1.00000    18.15000     8.38000     0.66000
7 1 1     0.00000    16.17000    11.44000    -0.19000
8 1 1     0.00000    17.77000    14.10000    -2.35000
9 2 1     0.00000   127.72000    64.08000    79.88000
10 2 2     1.00000   124.57000    65.23000    78.29000
11 2 3     0.00000   120.97000    65.12000    79.53000
12 2 1     0.00000   122.18000    64.95000    83.08000
13 2 1     0.00000   123.19000    67.29000    85.82000
14 2 1     0.00000   126.80000    66.29000    86.26000
15 2 1     0.00000   128.89000    63.57000    84.65000
16 2 2     1.00000   128.39000    61.21000    87.53000
17 3 1     0.00000    75.72000    17.71000    72.96000
18 3 1     0.00000    74.17000    14.35000    72.22000
19 3 2     1.00000    76.23000    12.01000    74.42000
20 3 2     1.00000    75.65000    14.37000    77.33000
21 3 4     0.00000    71.91000    14.03000    76.86000
22 3 3     0.00000    71.20000    17.29000    75.10000
23 3 2     1.00000    69.66000    17.46000    71.68000
24 3 2     1.00000    69.41000    13.75000    71.16000
25 4 1     0.00000    90.42000   107.55000    89.25000
26 4 2     1.00000    92.86000   109.33000    86.95000
27 4 3     0.00000    95.72000   109.95000    89.31000
28 4 2     1.00000    98.04000   107.58000    87.50000
29 4 3     0.00000    98.60000   106.99000    83.75000
30 4 3     0.00000    97.07000   103.55000    83.38000
31 4 1     0.00000    93.78000   104.48000    85.07000
32 4 2     1.00000    93.61000   107.77000    83.25000
33 5 1     0.00000     1.10000     3.94000   107.93000
34 5 3     0.00000    -0.60000     1.52000   110.27000
35 5 4     0.00000     2.21000     1.23000   112.79000
36 5 4     0.00000     2.59000     4.90000   113.13000
37 5 1     0.00000    -0.99000     5.34000   114.34000
38 5 2     1.00000    -3.00000     3.53000   116.95000
39 5 2     1.00000    -6.42000     2.40000   115.94000
40 5 1     0.00000    -9.11000     0.50000   117.82000
41 6 5    -1.00000    99.31000   142.69000   114.66000
42 6 3     0.00000    99.43000   139.84000   112.28000
43 6 3     0.00000    99.55000   140.19000   108.52000
44 6 2     1.00000    99.78000   138.06000   105.33000
45 6 1     0.00000    98.91000   138.80000   101.70000
46 6 2     1.00000    96.51000   136.05000   100.75000
47 6 2     1.00000    94.35000   137.13000   103.64000
48 6 3     0.00000    94.70000   140.88000   103.44000
49 7 4     0.00000    94.51000     3.69000    71.88000
50 7 1     0.00000    97.28000     1.93000    69.92000
51 7 2     1.00000    99.91000     4.59000    70.39000
52 7 2     1.00000   101.51000     2.79000    73.31000
53 7 3     0.00000   104.22000     0.22000    73.18000
54 7 2     1.00000   103.72000    -3.40000    72.18000
55 7 5    -1.00000   105.45000    -6.65000    71.55000
56 7 1     0.00000   104.72000    -6.72000    67.83000
57 8 4     0.00000    54.32000    44.10000   116.19000
58 8 1     0.00000    53.87000    42.70000   112.72000
59 8 2     1.00000    53.43000    39.07000   113.60000
60 8 2     1.00000    52.60000    37.54000   116.97000
61 8 3     0.00000    52.91000    33.80000   116.39000
62 8 2     1.00000    56.37000    33.58000   114.87000
63 8 2     1.00000    56.64000    29.89000   115.80000
64 8 1     0.00000    53.39000    29.11000   114.11000
65 9 4     0.00000   144.59000   136.19000    81.26000
66 9 4     0.00000   142.19000   136.90000    78.41000
67 9 1     0.00000   138.63000   135.67000    78.38000
68 9 2     1.00000   137.46000   133.51000    81.25000
69 9 2     1.00000   140.96000   133.02000    82.57000
70 9 3     0.00000   141.94000   134.83000    85.75000
71 9 2     1.00000   143.14000   138.41000    85.63000
72 9 2     1.00000   144.70000   138.50000    89.05000
73 10 4     0.00000    36.86000    18.55000     0.53000
74 10 4     0.00000    33.14000    18.77000     1.26000
75 10 2     1.00000    33.58000    21.59000     3.76000
76 10 1     0.00000    36.35000    23.43000     1.87000
77 10 1     0.00000    35.58000    27.11000     2.09000
78 10 2     1.00000    33.91000    27.75000    -1.27000
79 10 2     1.00000    31.76000    24.69000    -0.52000
80 10 3     0.00000    30.74000    25.49000     3.03000
81 11 4     0.00000   145.86000   116.48000    28.57000
82 11 4     0.00000   144.00000   119.02000    30.74000
83 11 2     1.00000   143.15000   116.33000    33.22000
84 11 3     0.00000   144.79000   117.48000    36.48000
85 11 2     1.00000   145.84000   114.25000    38.08000
86 11 1     0.00000   146.62000   112.30000    34.93000
87 11 2     1.00000   150.30000   113.17000    34.98000
88 11 1     0.00000   152.47000   112.73000    31.78000
89 12 4     0.00000   102.02000    66.91000    44.19000
90 12 2     1.00000   103.15000    64.61000    41.50000
91 12 4     0.00000   105.48000    66.82000    39.50000
92 12 1     0.00000   107.46000    67.83000    42.55000
93 12 4     0.00000   111.22000    67.47000    42.50000
94 12 2     1.00000   112.42000    64.76000    40.18000
95 12 4     0.00000   108.98000    63.23000    40.17000
96 12 4     0.00000   106.54000    62.05000    37.56000
97 13 3     0.00000    88.75000   115.58000    25.32000
98 13 2     1.00000    90.90000   117.67000    23.06000
99 13 2     1.00000    93.85000   119.98000    23.04000
100 13 1     0.00000    91.35000   122.89000    22.63000
101 13 1     0.00000    87.70000   123.03000    23.35000
102 13 2     1.00000    85.41000   123.47000    20.38000
103 13 5    -1.00000    81.94000   124.68000    19.56000
104 13 3     0.00000    78.71000   122.74000    20.00000
105 14 2     1.00000    22.40000    39.78000    60.97000
106 14 1     0.00000    20.38000    42.42000    59.22000
107 14 1     0.00000    22.95000    44.01000    56.98000
108 14 2     1.00000    22.07000    42.28000    53.79000
109 14 2     1.00000    19.28000    39.99000    52.45000
110 14 3     0.00000    20.96000    36.73000    51.73000
111 14 1     0.00000    22.74000    34.65000    54.31000
112 14 1     0.00000    26.48000    34.39000    54.30000
113 15 2     1.00000     3.38000     7.50000   138.71000
114 15 1     0.00000     3.14000     8.86000   142.23000
115 15 2     1.00000    -0.23000     9.29000   143.86000
116 15 3     0.00000    -0.12000    13.05000   143.78000
117 15 2     1.00000     0.67000    13.22000   140.13000
118 15 3     0.00000    -1.97000    13.27000   137.45000
119 15 3     0.00000     0.57000    12.89000   134.67000
120 15 2     1.00000     4.01000    11.37000   134.93000
121 16 2     1.00000    81.34000     3.52000    99.99000
122 16 1     0.00000    84.40000     4.63000    98.06000
123 16 1     0.00000    82.75000     4.94000    94.71000
124 16 3     0.00000    83.04000     8.73000    94.22000
125 16 2     1.00000    86.49000     8.81000    95.86000
126 16 3     0.00000    88.28000     6.10000    93.89000
127 16 3     0.00000    90.10000     7.04000    90.69000
128 16 2     1.00000    89.38000     5.07000    87.57000
129 17 2     1.00000    52.44000    79.53000    27.11000
130 17 4     0.00000    55.26000    77.90000    25.35000
131 17 4     0.00000    57.70000    75.96000    27.50000
132 17 5    -1.00000    55.11000    73.45000    28.64000
133 17 4     0.00000    51.98000    71.93000    27.02000
134 17 1     0.00000    49.79000    73.13000    29.82000
135 17 3     0.00000    48.27000    76.57000    30.23000
136 17 2     1.00000    48.44000    78.49000    33.43000
137 18 2     1.00000   105.89000   110.47000    46.52000
138 18 4     0.00000   102.92000   112.47000    47.64000
139 18 4     0.00000   104.49000   114.11000    50.62000
140 18 2     1.00000   107.65000   116.08000    50.80000
141 18 4     0.00000   110.75000   115.84000    52.99000
142 18 1     0.00000   111.51000   114.19000    56.29000
143 18 4     0.00000   108.18000   113.03000    57.84000
144 18 2     1.00000   104.54000   113.68000    57.61000
145 19 2     1.00000   146.96000   119.67000   121.72000
146 19 2     1.00000   144.09000   121.22000   123.54000
147 19 1     0.00000   145.73000   121.16000   126.98000
148 19 1     0.00000   148.56000   123.55000   126.03000
149 19 3     0.00000   147.74000   127.23000   126.47000
150 19 2     1.00000   149.47000   130.54000   127.04000
151 19 3     0.00000   146.64000   132.34000   128.93000
152 19 3     0.00000   147.34000   131.09000   132.39000
153 20 2     1.00000    98.83000     1.52000   141.66000
154 20 2     1.00000   102.36000     0.89000   140.90000
155 20 5    -1.00000   103.40000     4.48000   140.18000
156 20 4     0.00000   101.15000     7.53000   140.17000
157 20 2     1.00000   101.80000     8.66000   136.62000
158 20 5    -1.00000   103.12000     6.56000   133.70000
159 20 2     1.00000   106.55000     6.42000   132.03000
160 20 2     1.00000   107.08000     6.50000   128.25000
161 21 2     1.00000    22.60000   105.12000    10.20000
162 21 2     1.00000    25.74000   103.22000     9.19000
163 21 5    -1.00000    29.17000   104.43000    10.27000
164 21 4     0.00000    30.88000   101.74000     8.28000
165 21 2     1.00000    31.21000    98.27000     9.73000
166 21 2     1.00000    28.70000    99.24000    12.36000
167 21 2     1.00000    25.86000   101.59000    12.98000
168 21 2     1.00000    26.32000   104.94000    14.71000
169 22 2     1.00000     1.62000    24.87000    35.43000
170 22 3     0.00000     0.82000    21.25000    35.04000
171 22 1     0.00000     2.42000    19.31000    32.23000
172 22 1     0.00000     3.15000    15.57000    32.03000
173 22 1     0.00000     6.80000    16.35000    32.26000
174 22 3     0.00000     6.66000    18.61000    35.21000
175 22 4     0.00000     4.34000    20.57000    37.57000
176 22 2     1.00000     1.82000    17.79000    37.85000
177 23 2     1.00000    47.08000    91.96000    51.30000
178 23 3     0.00000    43.80000    91.12000    52.83000
179 23 3     0.00000    45.70000    88.70000    54.92000
180 23 5    -1.00000    49.18000    87.22000    55.17000
181 23 2     1.00000    50.06000    83.51000    55.00000
182 23 5    -1.00000    53.51000    82.65000    56.12000
183 23 4     0.00000    56.13000    81.03000    53.95000
184 23 2     1.00000    59.72000    80.26000    53.07000
185 24 2     1.00000    87.24000    10.97000    10.13000
186 24 3     0.00000    90.23000    13.09000    10.73000
187 24 3     0.00000    91.99000    11.88000     7.64000
188 24 2     1.00000    89.35000    11.58000     4.90000
189 24 2     1.00000    87.03000    14.41000     3.87000
190 24 5    -1.00000    83.85000    12.28000     3.75000
191 24 4     0.00000    84.28000    11.23000     7.30000
192 24 2     1.00000    84.30000    14.60000     8.73000
193 25 1     0.00000    18.35000    10.43000   126.19000
194 25 2     1.00000    19.59000     7.13000   124.68000
195 25 2     1.00000    16.32000     6.44000   123.01000
196 25 4     0.00000    16.52000     9.90000   121.41000
197 25 3     0.00000    13.84000    12.01000   119.86000
198 25 2     1.00000    11.70000    14.30000   121.99000
199 25 2     1.00000    12.34000    12.00000   124.91000
200 25 1     0.00000    15.72000    13.51000   124.93000
201 26 1     0.00000    99.68000    51.01000   115.35000
202 26 2     1.00000    97.75000    54.07000   116.58000
203 26 2     1.00000    97.65000    56.12000   113.43000
204 26 3     0.00000    94.29000    57.52000   112.27000
205 26 5    -1.00000    95.06000    58.67000   108.69000
206 26 3     0.00000    94.44000    55.75000   106.37000
207 26 3     0.00000    94.38000    53.11000   109.14000
208 26 2     1.00000    97.13000    50.62000   109.78000
209 27 1     0.00000   140.60000    40.38000   122.14000
210 27 2     1.00000   140.76000    38.36000   118.95000
211 27 2     1.00000   144.27000    38.47000   117.60000
212 27 3     0.00000   143.87000    37.40000   113.99000
213 27 1     0.00000   141.26000    40.08000   113.45000
214 27 1     0.00000   142.20000    42.82000   111.02000
215 27 3     0.00000   140.76000    44.61000   108.09000
216 27 2     1.00000   140.25000    43.31000   104.65000
217 28 1     0.00000    85.91000   109.41000    50.66000
218 28 2     1.00000    85.50000   105.67000    50.40000
219 28 3     0.00000    86.90000   102.97000    48.09000
220 28 3     0.00000    85.56000   101.85000    44.70000
221 28 1     0.00000    84.45000    98.50000    45.94000
222 28 1     0.00000    81.13000    97.42000    47.43000
223 28 3     0.00000    82.07000    97.84000    51.06000
224 28 3     0.00000    84.87000   100.08000    52.39000
225 29 3     0.00000    26.73000    76.36000    99.84000
226 29 1     0.00000    27.70000    79.91000    98.96000
227 29 1     0.00000    24.41000    81.52000    99.68000
228 29 3     0.00000    23.88000    82.46000   103.24000
229 29 2     1.00000    20.11000    82.58000   103.28000
230 29 1     0.00000    19.05000    80.60000   100.22000
231 29 2     1.00000    15.36000    80.91000    99.46000
232 29 2     1.00000    15.26000    78.82000    96.32000
233 30 2     1.00000   115.24000   107.90000   138.37000
234 30 3     0.00000   119.02000   107.82000   138.92000
235 30 5    -1.00000   121.76000   107.61000   136.29000
236 30 2     1.00000   124.68000   106.70000   138.46000
237 30 1     0.00000   123.06000   104.20000   140.86000
238 30 1     0.00000   121.19000   101.25000   139.33000
239 30 2     1.00000   119.70000   100.13000   142.59000
240 30 5    -1.00000   119.45000   101.85000   145.89000
241 31 2     1.00000    88.21000    31.41000   145.62000
242 31 3     0.00000    85.82000    28.47000   145.87000
243 31 2     1.00000    85.86000    26.33000   149.06000
244 31 2     1.00000    83.47000    23.81000   150.52000
245 31 4     0.00000    83.49000    22.65000   154.13000
246 31 3     0.00000    86.13000    23.39000   156.68000
247 31 1     0.00000    88.68000    21.45000   154.65000
248 31 2     1.00000    91.04000    23.24000   152.33000
249 32 2     1.00000    98.86000    60.43000    85.02000
250 32 3     0.00000    99.41000    62.50000    88.16000
251 32 2     1.00000    98.14000    60.17000    90.86000
252 32 2     1.00000   100.29000    59.02000    93.75000
253 32 1     0.00000   100.96000    55.36000    94.03000
254 32 1     0.00000   100.62000    53.22000    97.21000
255 32 2     1.00000   103.33000    50.63000    97.40000
256 32 5    -1.00000   105.56000    49.64000   100.32000
257 33 2     1.00000   146.11000    20.98000   102.13000
258 33 2     1.00000   143.52000    23.41000   100.84000
259 33 3     0.00000   145.24000    26.75000   101.32000
260 33 1     0.00000   148.88000    26.74000   100.57000
261 33 1     0.00000   151.36000    29.57000    99.98000
262 33 2     1.00000   152.34000    27.46000    97.02000
263 33 1     0.00000   150.75000    24.40000    95.52000
264 33 1     0.00000   152.13000    20.94000    95.74000
265 34 2     1.00000    20.34000    95.46000    91.89000
266 34 2     1.00000    17.61000    96.36000    89.52000
267 34 3     0.00000    18.16000   100.07000    89.43000
268 34 3     0.00000    21.48000   101.94000    88.92000
269 34 4     0.00000    20.30000   104.95000    90.93000
270 34 4     0.00000    22.00000   108.21000    91.59000
271 34 2     1.00000    19.08000   110.01000    89.99000
272 34 1     0.00000    15.66000   110.69000    91.50000
273 35 3     0.00000    69.44000   104.66000   103.97000
274 35 1     0.00000    67.22000   105.46000   101.04000
275 35 1     0.00000    68.15000   108.89000    99.95000
276 35 1     0.00000    64.66000   109.91000    98.92000
277 35 1     0.00000    61.51000   107.85000    99.22000
278 35 2     1.00000    61.37000   106.02000    95.99000
279 35 2     1.00000    65.08000   105.49000    95.41000
280 35 4     0.00000    66.95000   102.30000    96.03000
281 36 3     0.00000    18.95000     2.57000    82.86000
282 36 1     0.00000    18.28000    -1.12000    83.17000
283 36 1     0.00000    21.37000    -3.14000    84.14000
284 36 1     0.00000    19.77000    -6.07000    82.34000
285 36 3     0.00000    21.32000    -7.44000    79.16000
286 36 4     0.00000    20.13000    -5.63000    76.03000
287 36 2     1.00000    18.13000    -3.08000    78.06000
288 36 1     0.00000    21.08000    -1.02000    79.11000
289 37 3     0.00000   134.74000    83.68000   112.00000
290 37 4     0.00000   131.07000    84.06000   112.59000
291 37 2     1.00000   131.12000    85.80000   115.87000
292 37 4     0.00000   133.91000    88.18000   114.78000
293 37 2     1.00000   136.13000    86.69000   117.37000
294 37 4     0.00000   135.29000    83.74000   119.64000
295 37 4     0.00000   133.19000    80.72000   119.02000
296 37 2     1.00000   133.77000    78.09000   116.31000
297 38 3     0.00000    39.87000    68.88000   122.58000
298 38 4     0.00000    38.96000    67.32000   125.89000
299 38 2     1.00000    39.29000    63.75000   124.61000
300 38 4     0.00000    38.94000    61.50000   127.73000
301 38 2     1.00000    39.43000    58.17000   125.91000
302 38 3     0.00000    42.65000    59.47000   124.37000
303 38 4     0.00000    43.93000    61.39000   127.34000
304 38 4     0.00000    42.63000    64.87000   126.70000
305 39 3     0.00000    25.36000   109.29000   126.61000
306 39 2     1.00000    27.90000   107.40000   124.74000
307 39 5    -1.00000    28.19000   104.67000   127.48000
308 39 1     0.00000    30.07000   101.34000   127.10000
309 39 1     0.00000    32.50000   100.43000   124.35000
310 39 2     1.00000    29.87000    98.03000   123.02000
311 39 3     0.00000    27.05000   100.61000   123.43000
312 39 4     0.00000    25.14000   101.32000   120.28000
313 40 3     0.00000   126.46000     2.98000    10.69000
314 40 2     1.00000   129.38000     4.69000     9.04000
315 40 2     1.00000   131.98000     2.15000     9.93000
316 40 1     0.00000   133.38000     1.03000     6.66000
317 40 1     0.00000   135.01000    -2.36000     6.09000
318 40 2     1.00000   137.99000    -0.68000     4.61000
319 40 2     1.00000   138.33000     1.30000     7.74000
320 40 4     0.00000   138.29000    -1.86000     9.84000
321 41 3     0.00000    97.83000    84.58000    37.49000
322 41 2     1.00000    99.66000    87.37000    39.18000
323 41 3     0.00000   102.75000    89.49000    38.92000
324 41 4     0.00000   105.66000    89.09000    41.29000
325 41 2     1.00000   104.59000    85.50000    42.00000
326 41 3     0.00000   106.48000    83.97000    39.11000
327 41 4     0.00000   109.41000    82.02000    40.19000
328 41 4     0.00000   108.55000    82.80000    43.81000
329 42 3     0.00000    55.26000   140.18000    52.54000
330 42 3     0.00000    54.90000   141.97000    49.20000
331 42 2     1.00000    57.82000   144.05000    48.06000
332 42 3     0.00000    55.73000   145.78000    45.46000
333 42 1     0.00000    52.74000   148.05000    44.78000
334 42 2     1.00000    49.86000   148.37000    42.35000
335 42 3     0.00000    49.96000   152.15000    42.64000
336 42 2     1.00000    53.19000   153.67000    43.90000
337 43 3     0.00000   112.52000    82.05000    72.06000
338 43 5    -1.00000   113.21000    84.85000    69.60000
339 43 3     0.00000   115.17000    87.02000    72.02000
340 43 3     0.00000   118.38000    85.54000    70.71000
341 43 2     1.00000   119.90000    83.27000    68.16000
342 43 3     0.00000   123.36000    83.58000    69.59000
343 43 1     0.00000   124.83000    81.94000    72.65000
344 43 2     1.00000   127.67000    84.43000    72.71000
345 44 3     0.00000   133.09000    25.14000     9.81000
346 44 5    -1.00000   136.28000    25.82000    11.79000
347 44 1     0.00000   138.47000    25.38000     8.76000
348 44 1     0.00000   141.82000    27.03000     8.09000
349 44 2     1.00000   141.01000    29.23000     5.08000
350 44 3     0.00000   143.22000    31.44000     2.99000
351 44 1     0.00000   142.76000    33.31000    -0.32000
352 44 1     0.00000   141.61000    31.99000    -3.57000
353 45 3     0.00000    84.16000   111.57000    29.30000
354 45 2     1.00000    84.07000   115.33000    29.52000
355 45 3     0.00000    87.49000   116.68000    30.44000
356 45 3     0.00000    89.42000   113.40000    30.42000
357 45 2     1.00000    89.84000   110.51000    27.97000
358 45 2     1.00000    88.72000   107.05000    28.77000
359 45 5    -1.00000    91.36000   105.37000    26.65000
360 45 4     0.00000    94.09000   107.30000    28.52000
361 46 1     0.00000   102.86000    73.21000   146.64000
362 46 2     1.00000   100.45000    75.65000   148.27000
363 46 2     1.00000    99.39000    79.04000   147.00000
364 46 1     0.00000    99.79000    82.52000   148.45000
365 46 1     0.00000    96.56000    82.60000   150.43000
366 46 3     0.00000    96.53000    78.95000   151.52000
367 46 4     0.00000    99.87000    79.23000   153.23000
368 46 4     0.00000   102.90000    79.58000   150.90000
369 47 1     0.00000    46.66000    98.54000    76.97000
370 47 1     0.00000    48.73000    95.58000    76.15000
371 47 2     1.00000    51.68000    95.17000    73.73000
372 47 5    -1.00000    53.07000    92.24000    71.84000
373 47 2     1.00000    54.76000    89.49000    73.77000
374 47 3     0.00000    58.44000    88.75000    74.12000
375 47 5    -1.00000    60.09000    85.93000    75.93000
376 47 2     1.00000    62.77000    83.33000    75.61000
377 48 1     0.00000    23.41000     1.05000    44.68000
378 48 1     0.00000    21.08000     3.61000    43.07000
379 48 2     1.00000    17.76000     3.80000    44.89000
380 48 5    -1.00000    16.60000     6.82000    43.00000
381 48 3     0.00000    13.90000     6.89000    40.39000
382 48 4     0.00000    15.24000     9.93000    38.68000
383 48 2     1.00000    16.43000     9.60000    35.15000
384 48 4     0.00000    18.03000    12.08000    32.86000
385 49 6     2.00000    97.17580    66.54980   108.16460
386 50 6     2.00000   121.03440   116.93070   106.37700
387 51 6     2.00000   144.83140    73.69270    14.09000
388 52 6     2.00000   144.39720    65.75840   116.67900
389 53 6     2.00000   119.67490   127.37400    68.97400
390 54 6     2.00000    51.08040    60.92400    90.80090
391 55 6     2.00000   115.92420    99.79930    20.40280
392 56 6     2.00000    58.60380    71.94390     4.37270
393 57 6     2.00000   104.20870    88.86590    65.35390
394 58 6     2.00000    55.54790   150.73770    25.97790
395 59 6     2.00000   126.85430    39.59490    82.42930
396 60 6     2.00000   136.70570    23.80940    19.75060
397 61 6     2.00000    69.39110   131.85970    59.26760
398 62 6     2.00000    62.39270    90.11010   135.09770
399 63 6     2.00000    48.39840   114.85710   109.75510
400 64 6     2.00000   106.16740    46.17500     3.26430
401 65 6     2.00000    31.72850   106.74370    73.82710
402 66 6     2.00000    46.16920   107.02800   132.73330
403 67 6     2.00000   119.39720   139.75530    22.74810
404 68 6     2.00000    46.10050    91.06450   151.48400
405 69 6     2.00000   144.13900    52.50140    41.68830
406 70 6     2.00000     3.04140   137.32940    16.19240
407 71 6     2.00000    17.86370    57.09440   108.41210
408 72 6     2.00000    33.00180    33.39970     4.54970
409 73 6     2.00000   150.41170    83.66640   132.35420
410 74 6     2.00000    31.49330   124.62730    15.81340
411 75 6     2.00000    70.97990     3.53850    12.85470
412 76 6     2.00000    99.41720    71.12520    53.04460
413 77 6     2.00000    31.35430    58.42120    18.17170
414 78 6     2.00000     8.41220    97.36450    15.42910
415 79 6     2.00000    82.13430    42.57310    81.89000
416 80 6     2.00000    19.37020    23.08070    42.31070
417 81 6     2.00000    63.66860    62.79180   131.66420
418 82 6     2.00000   113.37220    99.45760    73.28380
419 83 6     2.00000   113.55340    31.50910   151.09510
420 84 6     2.00000    36.04250    69.35060   102.82520
421 85 6     2.00000    38.74910   131.00900    65.63850
422 86 6     2.00000    54.15800    83.70360    62.81930
423 87 6     2.00000    62.17010    40.62360    74.88150
424 88 6     2.00000    80.14890    56.09240   143.30630
425 89 6     2.00000   123.34860    91.77720   113.37060
426 90 6     2.00000     6.10590   122.99770    54.68610
427 91 6     2.00000    71.73180    13.61920   119.22750
428 92 6     2.00000   105.23880    97.45660    61.47390
429 93 6     2.00000    24.87770   139.16610   124.22140
430 94 7     1.00000    27.06000    82.83000    38.88000
431 95 7     1.00000   120.48000    45.40000     7.16000
432 96 7     1.00000    94.05000   146.92000   131.93000
433 97 7     1.00000    86.23000    10.79000    54.18000
434 98 7     1.00000    63.62000   116.45000   116.54000
435 99 7     1.00000   129.16000   108.64000    89.64000
436 100 7     1.00000   132.77000   124.81000    81.66000
437 101 7     1.00000   123.57000    39.70000   133.04000
438 102 7     1.00000   106.42000    37.14000   129.19000
439 103 7     1.00000    63.64000    24.25000    46.62000
440 104 7     1.00000     4.16000   116.80000    24.35000
441 105 7     1.00000    86.24000    90.21000   122.76000
442 106 7     1.00000    57.15000    51.54000    17.44000
443 107 7     1.00000    19.17000   111.38000   121.87000
444 108 7     1.00000     8.76000   148.70000    95.81000
445 109 7     1.00000    68.48000     2.53000    97.97000
446 110 7     1.00000    35.39000   129.45000   117.12000
447 111 7     1.00000    38.14000   151.14000    69.40000
448 112 7     1.00000    98.89000    19.98000    72.40000
449 113 7     1.00000   146.42000   107.05000   106.23000
450 114 7     1.00000   138.70000    87.23000    44.34000
451 115 7     1.00000    96.75000    50.82000   134.54000
452 116 7     1.00000   106.38000   109.62000     9.20000
453 117 7     1.00000    42.15000   139.08000    34.76000
454 118 7     1.00000    70.80000    83.78000   131.77000
455 119 7     1.00000   136.65000    74.11000    32.60000
456 120 7     1.00000   136.43000     7.65000    54.35000
457 121 7     1.00000    26.05000    47.68000   143.34000
458 122 7     1.00000   113.16000   100.24000    49.69000
459 123 7     1.00000    72.49000    35.89000   118.29000
460 124 7     1.00000    42.55000   127.22000    88.14000
461 125 7     1.00000   129.02000    97.11000   116.41000
462 126 7     1.00000    58.81000   127.99000   124.27000
463 127 7     1.00000    66.83000   118.09000   100.94000
464 128 7     1.00000   150.12000   136.97000    30.74000
465 129 7     1.00000    42.06000    74.08000    39.37000
466 130 7     1.00000    73.10000    86.44000     6.33000
467 131 7     1.00000   149.33000   109.70000    33.31000
468 132 7     1.00000    83.89000    27.79000    67.80000
469 133 7     1.00000   128.11000    44.13000   120.42000
470 134 7     1.00000    11.00000    22.55000    53.20000
471 135 7     1.00000    93.83000    63.44000    65.15000
472 136 7     1.00000    11.27000    50.33000   119.02000
473 137 7     1.00000   114.77000    91.73000    15.72000
474 138 7     1.00000    49.36000    72.40000     9.39000
475 139 7     1.00000    81.63000    94.53000    94.31000
476 140 7     1.00000    15.54000    89.61000    52.43000
477 141 7     1.00000   146.78000    78.25000    47.02000
478 142 8     1.00000    26.11000    47.52000   127.43000
479 143 8     1.00000   151.39000    48.12000     1.05000
480 144 8     1.00000   110.37000    59.74000    21.13000
481 145 8     1.00000    52.08000    18.86000   127.24000
482 146 8     1.00000   112.30000    55.18000   107.90000
483 147 8     1.00000    71.95000   145.74000   147.50000
484 148 8     1.00000   116.40000   121.68000    84.56000
485 149 8     1.00000    68.78000    99.45000   112.90000
486 150 8     1.00000    10.85000    13.11000    33.01000
487 151 8     1.00000     1.30000     0.32000    57.92000
488 152 8     1.00000    11.43000    35.04000   123.84000
489 153 8     1.00000    89.81000    32.42000    91.35000
490 154 8     1.00000    34.74000   150.06000    88.14000
491 155 8     1.00000    49.78000   141.10000    78.44000
492 156 8     1.00000    32.31000   124.06000    77.13000
493 157 8     1.00000   101.03000    10.71000   105.95000
494 158 8     1.00000   134.67000    54.58000   151.47000
495 159 8     1.00000    94.17000    38.15000   114.18000
496 160 8     1.00000    14.30000    76.68000   147.77000
497 161 8     1.00000    51.05000   128.91000    98.81000
498 162 8     1.00000    10.39000    46.02000   147.43000
499 163 8     1.00000    44.10000     4.25000   112.19000
500 164 8     1.00000    21.71000   128.28000    55.30000
501 165 8     1.00000    25.75000   115.86000    73.88000
502 166 8     1.00000     1.85000   121.08000   109.95000
503 167 8     1.00000     1.03000   146.35000    81.34000
504 168 8     1.00000   129.93000    80.07000   142.48000
505 169 8     1.00000    96.30000    23.71000    84.03000
506 170 8     1.00000    60.48000    55.30000   119.61000
507 171 8     1.00000    78.97000    76.98000     9.02000
508 172 8     1.00000    91.79000    86.75000     8.96000
509 173 8     1.00000    82.47000    53.95000    40.34000
510 174 8     1.00000    21.67000    62.69000    85.11000
511 175 8     1.00000    85.09000    66.03000    32.80000
512 176 8     1.00000     2.99000   137.16000   135.52000
513 177 8     1.00000   126.93000   148.20000    60.21000
514 178 8     1.00000   105.52000    27.70000    12.81000
515 179 8     1.00000     5.63000   125.33000   139.21000
516 180 8     1.00000    70.26000   109.48000    68.29000
517 181 8     1.00000    24.33000    93.07000    37.39000
518 182 8     1.00000    13.34000    16.02000   142.56000
519 183 8     1.00000    51.31000   101.34000   105.87000
520 184 8     1.00000    53.06000   135.43000    27.20000
521 185 8     1.00000    65.14000   111.68000    15.69000
522 186 8     1.00000    16.01000   131.75000    38.68000
523 187 8     1.00000    11.54000   136.86000    73.68000
524 188 8     1.00000    12.18000    52.97000     4.23000
525 189 9    -1.00000    14.43000    11.75000   144.79000
526 190 9    -1.00000   107.86000    87.25000    22.33000
527 191 9    -1.00000    18.57000    98.62000     8.68000
528 192 9    -1.00000   128.18000    61.29000   118.99000
529 193 9    -1.00000   127.63000    86.38000    67.79000
530 194 9    -1.00000    66.58000   140.38000    43.27000
531 195 9    -1.00000    21.23000   125.17000    18.80000
532 196 9    -1.00000   137.40000   121.64000    45.97000
533 197 9    -1.00000    15.59000    47.50000     4.84000
534 198 9    -1.00000   149.95000     2.97000    74.07000
535 199 9    -1.00000    34.26000    29.06000    97.32000
536 200 9    -1.00000    34.45000   141.14000   124.27000
537 201 9    -1.00000    72.18000    64.95000   148.46000
538 202 9    -1.00000    47.69000   137.18000    30.78000
539 203 9    -1.00000    79.58000    27.66000    73.46000
540 204 9    -1.00000   149.71000   129.73000    74.95000
541 205 9    -1.00000   140.10000    82.42000    49.56000
542 206 9    -1.00000   130.72000   142.17000   132.66000
543 207 9    -1.00000    55.13000   111.42000    10.97000
544 208 9    -1.00000    90.18000   106.23000     6.43000
545 209 9    -1.00000    85.51000    81.69000   115.51000
546 210 9    -1.00000   103.50000   125.32000    16.79000
547 211 9    -1.00000    31.24000    95.24000    26.63000
548 212 9    -1.00000   126.71000   139.94000    94.94000
549 213 9    -1.00000    20.39000    13.16000   108.41000
550 214 9    -1.00000    56.48000    54.34000   116.57000
551 215 9    -1.00000    63.28000    18.24000    85.98000
552 216 9    -1.00000    52.26000    17.56000   129.98000
553 217 9    -1.00000   115.58000    81.37000     9.28000
554 218 9    -1.00000    33.74000    79.14000    62.88000
555 219 9    -1.00000    25.54000    81.33000    85.19000
556 220 9    -1.00000     1.18000    57.80000   110.00000
557 221 9    -1.00000    38.94000    27.48000    10.45000
558 222 9    -1.00000     0.65000    90.66000   132.61000
559 223 9    -1.00000    29.38000    11.05000    53.68000
560 224 9    -1.00000    56.76000     8.26000    59.90000
561 225 9    -1.00000    49.91000    84.24000    65.29000
562 226 9    -1.00000     9.12000     5.97000   143.89000
563 227 9    -1.00000    89.46000    45.11000   128.83000
564 228 9    -1.00000   108.73000    47.53000    31.66000
565 229 9    -1.00000    84.74000    59.64000    58.09000
566 230 9    -1.00000    17.77000    49.18000   132.21000
567 231 9    -1.00000    44.71000   112.91000    85.41000
568 232 9    -1.00000    68.17000    79.24000    89.09000
569 233 9    -1.00000   111.21000     2.57000    46.68000
570 234 9    -1.00000    74.15000    85.72000    10.16000
571 235 9    -1.00000   145.19000   121.17000    17.45000
572 236 9    -1.00000    62.25000    73.76000    31.73000
573 237 9    -1.00000    99.94000    82.06000    51.86000
574 238 9    -1.00000    45.95000    50.89000    40.30000
575 239 9    -1.00000    22.87000    15.64000     5.46000
576 240 9    -1.00000    49.18000   103.63000   125.73000
577 241 9    -1.00000    75.74000    17.77000   122.38000
578 242 9    -1.00000    84.61000    73.92000    52.10000
579 243 9    -1.00000    77.43000    28.25000     8.47000
580 244 9    -1.00000   133.04000    51.82000   102.03000
581 245 9    -1.00000     9.08000    82.55000   150.66000
582 246 9    -1.00000     2.36000   121.81000    41.55000
583 247 9    -1.00000   133.41000   117.64000    50.34000
584 248 9    -1.00000    27.56000     7.64000    67.49000
585 249 9    -1.00000   136.61000    54.37000    96.26000
586 250 9    -1.00000    38.39000    40.88000    72.42000
587 251 9    -1.00000   125.73000    56.08000    18.62000
588 252 9    -1.00000    85.76000     5.74000    11.41000
589 253 9    -1.00000   110.45000    12.06000    72.30000
590 254 9    -1.00000    51.47000   135.15000    74.50000
591 255 9    -1.00000    31.73000   132.44000   100.07000
592 256 9    -1.00000    49.22000    39.28000   144.18000
593 257 9    -1.00000    98.93000   149.67000   136.45000
594 258 9    -1.00000   102.44000   116.36000    93.61000
595 259 9    -1.00000    12.50000    43.96000   148.37000
596 260 9    -1.00000   149.89000    65.67000    86.38000
597 261 9    -1.00000    29.51000   150.93000    13.21000
598 262 9    -1.00000    79.41000   125.40000    28.35000
599 263 9    -1.00000    40.33000   122.80000    66.82000
600 264 9    -1.00000    62.62000    94.01000   129.36000
601 265 9    -1.00000    43.33000    98.94000    47.99000
602 266 9    -1.00000    46.03000    61.12000   150.92000
603 267 9    -1.00000    93.77000    54.67000    84.13000
604 268 9    -1.00000    15.43000   133.34000   125.25000
605 269 9    -1.00000    82.31000   107.03000    84.91000
606 270 9    -1.00000   146.15000    43.60000     0.98000
607 271 9    -1.00000   104.16000    50.81000     0.98000
608 272 9    -1.00000    63.20000   131.95000   132.92000
609 273 9    -1.00000    77.60000     0.75000    78.46000
610 274 9    -1.00000    51.93000    88.37000   105.88000
611 275 9    -1.00000    73.74000    89.95000    45.45000
612 276 9    -1.00000    99.80000    91.19000    89.40000
613 277 9    -1.00000    88.20000    61.41000     7.97000
614 278 9    -1.00000    62.54000    29.69000   113.52000
615 279 9    -1.00000    30.29000   150.04000    52.06000
616 280 9    -1.00000   129.92000   126.72000    78.96000
617 281 9    -1.00000   101.94000    33.24000    22.89000
618 282 9    -1.00000    50.49000    41.86000    50.86000
619 283 9    -1.00000    80.73000    47.55000   116.38000
620 284 9    -1.00000    93.10000    66.32000    89.67000
621 285 9    -1.00000   135.10000    51.70000    37.86000
622 286 9    -1.00000     9.24000   120.54000    55.15000
623 287 9    -1.00000    25.29000   135.04000    28.17000
624 288 9    -1.00000   107.20000   119.59000    77.97000
625 289 9    -1.00000    50.23000    11.40000    22.66000
626 290 9    -1.00000    40.06000    94.61000    59.81000
627 291 9    -1.00000    80.99000   133.45000    56.41000
628 292 9    -1.00000   105.27000    13.35000    18.14000
629 293 9    -1.00000   141.93000     4.46000     4.66000
630 294 9    -1.00000   126.42000    89.17000   111.18000
631 295 9    -1.00000   138.57000    85.59000   124.68000
632 296 9    -1.00000   130.85000    33.59000   106.18000
633 297 9    -1.00000   104.80000   102.60000    38.57000
634 298 9    -1.00000    26.99000   143.96000    20.11000
635 299 9    -1.00000    12.05000   130.95000    46.63000
636 300 9    -1.00000   124.09000   140.99000   142.70000
637 301 9    -1.00000    43.42000   133.23000    27.93000
638 302 9    -1.00000   143.48000   150.43000    20.98000
639 303 9    -1.00000    63.50000   112.31000    47.78000
640 304 9    -1.00000   119.54000    94.35000   123.90000
641 305 9    -1.00000   140.83000   137.15000   124.29000
642 306 9    -1.00000    10.86000    57.77000    15.05000
643 307 9    -1.00000    40.77000     6.72000   119.26000
644 308 9    -1.00000    99.50000    82.85000   109.41000
645 309 9    -1.00000   120.38000    81.52000   123.77000
646 310 9    -1.00000    79.17000    48.83000    72.22000
647 311 9    -1.00000    13.52000    55.62000    68.10000
648 312 9    -1.00000    33.73000    33.57000    54.64000
649 313 9    -1.00000     7.26000   121.68000   101.53000
650 314 9    -1.00000   120.49000    74.01000    50.41000
651 315 9    -1.00000    30.49000   128.50000    88.67000
652 316 9    -1.00000   126.41000    78.82000    68.42000
653 317 9    -1.00000   149.54000    15.58000   115.29000
654 318 9    -1.00000   101.85000    57.57000   125.61000
655 319 9    -1.00000     0.79000   146.17000    95.55000
656 320 9    -1.00000    68.78000    87.61000     1.21000
657 321 9    -1.00000    92.87000    27.25000     4.14000
658 322 9    -1.00000   108.53000   143.73000   130.14000
659 323 9    -1.00000    11.74000    21.32000    30.23000
660 324 9    -1.00000     8.77000    84.82000    86.57000
661 325 9    -1.00000    47.95000    73.33000    18.56000
662 326 9    -1.00000   137.52000   120.04000    80.44000
663 327 9    -1.00000   126.09000    20.29000   149.13000
664 328 9    -1.00000    71.96000     0.17000   127.97000
665 329 9    -1.00000    44.92000    81.57000   111.10000
666 330 9    -1.00000    96.40000    20.49000    71.67000
667 331 9    -1.00000    67.15000    21.40000    55.24000
668 332 9    -1.00000    54.61000   104.25000   142.37000
669 333 9    -1.00000    78.14000     7.28000   128.57000
670 334 9    -1.00000   138.49000    53.93000   121.34000
671 335 9    -1.00000   138.93000    94.90000   109.43000
672 336 9    -1.00000    24.29000     2.03000   141.68000
673 337 9    -1.00000   138.95000    92.49000   117.67000
674 338 9    -1.00000    28.41000    26.15000   131.34000
675 339 9    -1.00000     6.72000    89.40000    51.92000
676 340 9    -1.00000    71.51000     4.79000    69.66000
677 341 9    -1.00000    84.23000    29.62000   140.65000
678 342 9    -1.00000   148.45000   117.47000    69.87000
679 343 9    -1.00000    66.82000   114.38000    67.72000
680 344 9    -1.00000   114.60000    59.40000    75.48000
681 345 9    -1.00000    31.44000   119.63000   142.09000
682 346 9    -1.00000    58.28000    11.98000   103.94000
683 347 9    -1.00000    55.40000   121.84000    70.29000
684 348 9    -1.00000    94.92000    17.88000   149.45000
685 349 9    -1.00000    86.69000    66.24000    18.21000
686 350 9    -1.00000   109.97000    25.46000    82.61000
687 351 9    -1.00000   111.96000   120.37000   124.31000
688 352 9    -1.00000     4.53000    21.96000   106.75000
689 353 9    -1.00000    81.67000    95.33000    20.84000
690 354 9    -1.00000    50.06000    58.57000   116.70000
691 355 9    -1.00000   150.79000   129.04000    45.18000
692 356 9    -1.00000    31.47000   124.43000    61.60000
693 357 9    -1.00000     5.69000    38.30000    65.73000
694 358 9    -1.00000    59.35000   120.28000    81.89000
695 359 9    -1.00000     6.42000     1.17000     9.58000
696 360 9    -1.00000   129.49000    71.76000   142.19000
697 361 9    -1.00000   107.84000   144.91000    83.56000
698 362 9    -1.00000    15.74000    47.19000   144.77000
699 363 9    -1.00000    71.52000   145.23000    24.48000
700 364 9    -1.00000   101.11000   151.51000    29.50000
701 365 9    -1.00000    74.00000    29.44000    62.35000
702 366 9    -1.00000     1.93000    76.65000   149.67000
703 367 9    -1.00000    77.29000    12.24000   103.44000
704 368 9    -1.00000   126.74000    19.67000   102.84000
705 369 9    -1.00000    17.40000    60.87000   131.19000
706 370 9    -1.00000   118.40000    27.73000   129.94000
707 371 9    -1.00000    87.66000    60.24000   121.44000
708 372 9    -1.00000    79.34000   110.18000   145.11000
709 373 9    -1.00000    17.81000    94.20000   109.46000
710 374 9    -1.00000     5.73000   110.94000    35.39000
711 375 9    -1.00000   101.81000    42.72000     6.92000
712 376 9    -1.00000    16.94000   130.52000    91.69000
713 377 9    -1.00000   104.18000    58.46000    95.42000
714 378 9    -1.00000   127.56000    53.72000   125.73000
715 379 9    -1.00000    17.18000    35.31000   134.93000
716 380 9    -1.00000    15.53000    44.67000   111.95000
717 381 9    -1.00000     1.74000   141.29000    44.31000
718 382 9    -1.00000    33.78000    74.85000   104.50000
719 383 9    -1.00000   121.55000    30.42000    57.61000
720 384 9    -1.00000   114.74000    29.35000     6.17000
721 385 9    -1.00000    39.24000    93.77000     6.74000
722 386 9    -1.00000    63.42000    71.29000    84.61000
723 387 9    -1.00000    87.90000   136.39000    11.60000
724 388 9    -1.00000   129.30000    53.63000   147.38000
725 389 9    -1.00000    34.89000   115.66000   116.94000
726 390 9    -1.00000    21.74000    69.75000   138.19000
727 391 9    -1.00000   133.04000    84.77000    99.72000
728 392 9    -1.00000    87.22000    39.87000    29.20000
729 393 9    -1.00000    92.56000    71.52000   101.52000
730 394 9    -1.00000   120.09000   137.75000   105.68000
731 395 9    -1.00000    18.58000    34.85000    99.87000
732 396 9    -1.00000   104.50000     5.58000    67.36000
733 397 9    -1.00000    57.91000    84.01000   140.24000
734 398 9    -1.00000    73.88000    63.41000    51.72000
735 399 9    -1.00000    32.07000    93.15000   120.97000
736 400 9    -1.00000    58.70000   146.79000     4.53000
737 401 9    -1.00000   107.61000    55.81000    91.67000
738 402 9    -1.00000   135.28000   134.21000     3.08000
739 403 9    -1.00000   103.89000    98.67000   130.22000
740 404 9    -1.00000     6.44000    55.49000    14.48000
741 405 9    -1.00000    94.92000    10.45000    67.41000
742 406 9    -1.00000     9.96000    18.93000   118.35000
743 407 9    -1.00000     3.63000    95.50000    94.35000
744 408 9    -1.00000     2.77000   120.83000   121.61000
745 409 9    -1.00000   128.01000    37.39000    58.20000
746 410 9    -1.00000   143.70000    98.84000    34.01000
747 411 9    -1.00000   151.32000     5.23000   135.70000
748 412 9    -1.00000   149.64000   114.17000    20.86000
749 413 9    -1.00000    42.10000   114.13000   136.15000
750 414 9    -1.00000    88.75000    73.56000   145.41000
751 415 9    -1.00000   107.87000    69.67000    92.76000
752 416 9    -1.00000   127.06000    88.62000    25.56000
753 417 9    -1.00000   142.86000    12.43000   139.00000
754 418 9    -1.00000   151.54000    94.11000    19.11000
755 419 9    -1.00000    49.75000    37.84000    68.05000
756 420 9    -1.00000    75.73000    52.35000   113.97000
757 421 9    -1.00000   136.07000   105.94000    32.19000
758 422 9    -1.00000    60.70000   137.45000   124.48000
759 423 9    -1.00000    57.30000    65.16000    11.73000
760 424 9    -1.00000    33.04000    24.65000   142.83000
761 425 9    -1.00000    51.16000   147.98000    31.07000
762 426 9    -1.00000   118.23000   137.47000    18.95000
763 427 9    -1.00000   119.61000   112.80000    59.41000
764 428 9    -1.00000   133.12000    24.62000    92.34000
765 429 9    -1.00000   133.51000    52.10000    61.51000
766 430 9    -1.00000    10.93000    21.64000    48.55000
767 431 9    -1.00000   135.64000    70.98000   109.90000
768 432 9    -1.00000   132.16000     3.90000   122.54000
769 433 9    -1.00000    43.21000    63.32000    94.72000
770 434 9    -1.00000    96.58000    86.08000    12.44000
771 435 9    -1.00000   150.09000    72.09000    11.87000
772 436 9    -1.00000   136.13000    61.34000    28.10000
773 437 9    -1.00000    24.60000    57.89000    17.18000
774 438 9    -1.00000    59.54000   119.27000   104.48000
775 439 9    -1.00000   128.71000   148.78000     7.78000
776 440 9    -1.00000     8.14000    74.28000    30.16000
777 441 9    -1.00000    67.86000    34.25000   111.78000
778 442 9    -1.00000   110.08000   114.68000    98.98000
779 443 9    -1.00000   104.28000    28.95000    94.19000
780 444 9    -1.00000    84.23000    67.09000    56.49000
781 445 9    -1.00000   141.56000    16.74000   103.79000
782 446 9    -1.00000    33.68000    37.08000   147.60000
783 447 9    -1.00000   116.29000    95.67000    90.10000
784 448 9    -1.00000    72.53000    95.36000    63.69000
785 449 9    -1.00000    66.55000    88.92000    66.41000
786 450 9    -1.00000     3.99000   101.46000     3.15000
787 451 9    -1.00000    42.64000    40.74000   113.28000
788 452 9    -1.00000   144.27000   132.70000    26.99000
789 453 9    -1.00000   105.31000    90.43000    47.21000
790 454 9    -1.00000    49.55000   107.23000   108.83000
791 455 9    -1.00000   105.20000    19.23000   122.51000
792 456 9    -1.00000    20.07000    61.74000    42.09000
793 457 9    -1.00000    92.64000   116.80000    18.59000
794 458 9    -1.00000     8.28000    28.73000   114.86000
795 459 9    -1.00000    10.90000    38.12000    49.40000
796 460 9    -1.00000    69.45000    57.97000   142.98000
797 461 9    -1.00000     7.27000   107.80000    53.09000
798 462 9    -1.00000   109.34000    14.08000   140.05000
799 463 9    -1.00000    34.57000   109.73000    47.72000
800 464 9    -1.00000   108.14000    17.06000   131.61000
801 465 9    -1.00000    23.12000   140.59000   143.81000
802 466 9    -1.00000   136.93000     4.37000    26.21000
803 467 9    -1.00000    78.66000   145.05000    48.18000
804 468 9    -1.00000    91.25000   103.54000    68.20000
805 469 9    -1.00000    96.24000   124.59000   149.48000
806 470 9    -1.00000   118.22000   109.71000    20.02000
807 471 9    -1.00000    65.88000    35.93000    58.10000
808 472 9    -1.00000    68.46000    48.34000   126.33000
809 473 9    -1.00000   117.33000    34.75000    33.76000
810 474 9    -1.00000    69.92000    10.55000   102.11000
811 475 9    -1.00000    53.57000    83.69000     8.04000
812 476 9    -1.00000     4.93000   109.74000   115.21000
813 477 9    -1.00000    38.71000    42.25000    93.88000
814 478 9    -1.00000     4.28000     1.68000    84.70000
815 479 9    -1.00000    16.12000     4.77000   137.41000
816 480 9    -1.00000    58.58000   117.98000   115.99000
817 481 9    -1.00000   105.54000    36.38000     3.41000
818 482 9    -1.00000   101.05000   151.64000   131.83000
819 483 9    -1.00000    64.99000    72.44000    55.81000
820 484 9    -1.00000   100.78000   136.13000    64.67000
821 485 9    -1.00000    94.80000    80.53000    21.63000
822 486 9    -1.00000    59.95000   142.66000    41.23000
823 487 9    -1.00000    65.47000   112.28000    18.68000
824 488 9    -1.00000    23.55000     9.34000   108.07000
825 489 9    -1.00000    24.83000    70.77000   133.57000
826 490 9    -1.00000    17.91000   115.94000   142.79000
827 491 9    -1.00000     7.63000    15.18000   136.88000
828 492 9    -1.00000   117.00000    90.36000   134.17000
829 493 9    -1.00000   127.57000   147.36000    26.68000

 Bonds

1 1 1 2
2 1 2 3
3 1 3 4
4 1 4 5
5 1 5 6
6 1 6 7
7 1 7 8
8 1 9 10
9 1 10 11
10 1 11 12
11 1 12 13
12 1 13 14
13 1 14 15
14 1 15 16
15 1 17 18
16 1 18 19
17 1 19 20
18 1 20 21
19 1 21 22
20 1 22 23
21 1 23 24
22 1 25 26
23 1 26 27
24 1 27 28
25 1 28 29
26 1 29 30
27 1 30 31
28 1 31 32
29 1 33 34
30 1 34 35
31 1 35 36
32 1 36 37
33 1 37 38
34 1 38 39
35 1 39 40
36 1 41 42
37 1 42 43
38 1 43 44
39 1 44 45
40 1 45 46
41 1 46 47
42 1 47 48
43 1 49 50
44 1 50 51
45 1 51 52
46 1 52 53
47 1 53 54
48 1 54 55
49 1 55 56
50 1 57 58
51 1 58 59
52 1 59 60
53 1 60 61
54 1 61 62
55 1 62 63
56 1 63 64
57 1 65 66
58 1 66 67
59 1 67 68
60 1 68 69
61 1 69 70
62 1 70 71
63 1 71 72
64 1 73 74
65 1 74 75
66 1 75 76
67 1 76 77
68 1 77 78
69 1 78 79
70 1 79 80
71 1 81 82
72 1 82 83
73 1 83 84
74 1 84 85
75 1 85 86
76 1 86 87
77 1 87 88
78 1 89 90
79 1 90 91
80 1 91 92
81 1 92 93
82 1 93 94
83 1 94 95
84 1 95 96
85 1 97 98
86 1 98 99
87 1 99 100
88 1 100 101
89 1 101 102
90 1 102 103
91 1 103 104
92 1 105 106
93 1 106 107
94 1 107 108
95 1 108 109
96 1 109 110
97 1 110 111
98 1 111 112
99 1 113 114
100 1 114 115
101 1 115 116
102 1 116 117
103 1 117 118
104 1 118 119
105 1 119 120
106 1 121 122
107 1 122 123
108 1 123 124
109 1 124 125
110 1 125 126
111 1 126 127
112 1 127 128
113 1 129 130
114 1 130 131
115 1 131 132
116 1 132 133
117 1 133 134
118 1 134 135
119 1 135 136
120 1 137 138
121 1 138 139
122 1 139 140
123 1 140 141
124 1 141 142
125 1 142 143
126 1 143 144
127 1 145 146
128 1 146 147
129 1 147 148
130 1 148 149
131 1 149 150
132 1 150 151
133 1 151 152
134 1 153 154
135 1 154 155
136 1 155 156
137 1 156 157
138 1 157 158
139 1 158 159
140 1 159 160
141 1 161 162
142 1 162 163
143 1 163 164
144 1 164 165
145 1 165 166
146 1 166 167
147 1 167 168
148 1 169 170
149 1 170 171
150 1 171 172
151 1 172 173
152 1 173 174
153 1 174 175
154 1 175 176
155 1 177 178
156 1 178 179
157 1 179 180
158 1 180 181
159 1 181 182
160 1 182 183
161 1 183 184
162 1 185 186
163 1 186 187
164 1 187 188
165 1 188 189
166 1 189 190
167 1 190 191
168 1 191 192
169 1 193 194
170 1 194 195
171 1 195 196
172 1 196 197
173 1 197 198
174 1 198 199
175 1 199 200
176 1 201 202
177 1 202 203
178 1 203 204
179 1 204 205
180 1 205 206
181 1 206 207
182 1 207 208
183 1 209 210
184 1 210 211
185 1 211 212
186 1 212 213
187 1 213 214
188 1 214 215
189 1 215 216
190 1 217 218
191 1 218 219
192 1 219 220
193 1 220 221
194 1 221 222
195 1 222 223
196 1 223 224
197 1 225 226
198 1 226 227
199 1 227 228
200 1 228 229
201 1 229 230
202 1 230 231
203 1 231 232
204 1 233 234
205 1 234 235
206 1 235 236
207 1 236 237
208 1 237 238
209 1 238 239
210 1 239 240
211 1 241 242
212 1 242 243
213 1 243 244
214 1 244 245
215 1 245 246
216 1 246 247
217 1 247 248
218 1 249 250
219 1 250 251
220 1 251 252
221 1 252 253
222 1 253 254
223 1 254 255
224 1 255 256
225 1 257 258
226 1 258 259
227 1 259 260
228 1 260 261
229 1 261 262
230 1 262 263
231 1 263 264
232 1 265 266
233 1 266 267
234 1 267 268
235 1 268 269
236 1 269 270
237 1 270 271
238 1 271 272
239 1 273 274
240 1 274 275
241 1 275 276
242 1 276 277
243 1 277 278
244 1 278 279
245 1 279 280
246 1 281 282
247 1 282 283
248 1 283 284
249 1 284 285
250 1 285 286
251 1 286 287
252 1 287 288
253 1 289 290
254 1 290 291
255 1 291 292
256 1 292 293
257 1 293 294
258 1 294 295
259 1 295 296
260 1 297 298
261 1 298 299
262 1 299 300
263 1 300 301
264 1 301 302
265 1 302 303
266 1 303 304
267 1 305 306
268 1 306 307
269 1 307 308
270 1 308 309
271 1 309 310
272 1 310 311
273 1 311 312
274 1 313 314
275 1 314 315
276 1 315 316
277 1 316 317
278 1 317 318
279 1 318 319
280 1 319 320
281 1 321 322
282 1 322 323
283 1 323 324
284 1 324 325
285 1 325 326
286 1 326 327
287 1 327 328
288 1 329 330
289 1 330 331
290 1 331 332
291 1 332 333
292 1 333 334
293 1 334 335
294 1 335 336
295 1 337 338
296 1 338 339
297 1 339 340
298 1 340 341
299 1 341 342
300 1 342 343
301 1 343 344
302 1 345 346
303 1 346 347
304 1 347 348
305 1 348 349
306 1 349 350
307 1 350 351
308 1 351 352
309 1 353 354
310 1 354 355
311 1 355 356
312 1 356 357
313 1 357 358
314 1 358 359
315 1 359 360
316 1 361 362
317 1 362 363
318 1 363 364
319 1 364 365
320 1 365 366
321 1 366 367
322 1 367 368
323 1 369 370
324 1 370 371
325 1 371 372
326 1 372 373
327 1 373 374
328 1 374 375
329 1 375 376
330 1 377 378
331 1 378 379
332 1 379 380
333 1 380 381
334 1 381 382
335 1 382 383
336 1 383 384

 Angles

1 3 1 2 3
2 3 2 3 4
3 3 3 4 5
4 3 4 5 6
5 3 5 6 7
6 3 6 7 8
7 1 12 13 14
8 1 14 15 16
9 3 9 10 11
10 3 10 11 12
11 3 11 12 13
12 3 13 14 15
13 1 17 18 19
14 2 20 21 22
15 3 18 19 20
16 3 19 20 21
17 3 21 22 23
18 3 22 23 24
19 3 25 26 27
20 3 26 27 28
21 3 27 28 29
22 3 28 29 30
23 3 29 30 31
24 3 30 31 32
25 2 34 35 36
26 2 35 36 37
27 3 33 34 35
28 3 36 37 38
29 3 37 38 39
30 3 38 39 40
31 1 44 45 46
32 3 41 42 43
33 3 42 43 44
34 3 43 44 45
35 3 45 46 47
36 3 46 47 48
37 3 49 50 51
38 3 50 51 52
39 3 51 52 53
40 3 52 53 54
41 3 53 54 55
42 3 54 55 56
43 3 57 58 59
44 3 58 59 60
45 3 59 60 61
46 3 60 61 62
47 3 61 62 63
48 3 62 63 64
49 2 65 66 67
50 3 66 67 68
51 3 67 68 69
52 3 68 69 70
53 3 69 70 71
54 3 70 71 72
55 1 76 77 78
56 2 73 74 75
57 3 74 75 76
58 3 75 76 77
59 3 77 78 79
60 3 78 79 80
61 2 81 82 83
62 3 82 83 84
63 3 83 84 85
64 3 84 85 86
65 3 85 86 87
66 3 86 87 88
67 2 90 91 92
68 2 92 93 94
69 2 94 95 96
70 3 89 90 91
71 3 91 92 93
72 3 93 94 95
73 3 97 98 99
74 3 98 99 100
75 3 99 100 101
76 3 100 101 102
77 3 101 102 103
78 3 102 103 104
79 3 105 106 107
80 3 106 107 108
81 3 107 108 109
82 3 108 109 110
83 3 109 110 111
84 3 110 111 112
85 3 113 114 115
86 3 114 115 116
87 3 115 116 117
88 3 116 117 118
89 3 117 118 119
90 3 118 119 120
91 3 121 122 123
92 3 122 123 124
93 3 123 124 125
94 3 124 125 126
95 3 125 126 127
96 3 126 127 128
97 2 129 130 131
98 2 130 131 132
99 2 132 133 134
100 3 131 132 133
101 3 133 134 135
102 3 134 135 136
103 2 137 138 139
104 2 138 139 140
105 2 140 141 142
106 2 142 143 144
107 3 139 140 141
108 3 141 142 143
109 3 145 146 147
110 3 146 147 148
111 3 147 148 149
112 3 148 149 150
113 3 149 150 151
114 3 150 151 152
115 2 155 156 157
116 3 153 154 155
117 3 154 155 156
118 3 156 157 158
119 3 157 158 159
120 3 158 159 160
121 2 163 164 165
122 3 161 162 163
123 3 162 163 164
124 3 164 165 166
125 3 165 166 167
126 3 166 167 168
127 1 171 172 173
128 2 174 175 176
129 3 169 170 171
130 3 170 171 172
131 3 172 173 174
132 3 173 174 175
133 2 182 183 184
134 3 177 178 179
135 3 178 179 180
136 3 179 180 181
137 3 180 181 182
138 3 181 182 183
139 2 190 191 192
140 3 185 186 187
141 3 186 187 188
142 3 187 188 189
143 3 188 189 190
144 3 189 190 191
145 2 195 196 197
146 3 193 194 195
147 3 194 195 196
148 3 196 197 198
149 3 197 198 199
150 3 198 199 200
151 3 201 202 203
152 3 202 203 204
153 3 203 204 205
154 3 204 205 206
155 3 205 206 207
156 3 206 207 208
157 3 209 210 211
158 3 210 211 212
159 3 211 212 213
160 3 212 213 214
161 3 213 214 215
162 3 214 215 216
163 3 217 218 219
164 3 218 219 220
165 3 219 220 221
166 3 220 221 222
167 3 221 222 223
168 3 222 223 224
169 1 229 230 231
170 3 225 226 227
171 3 226 227 228
172 3 227 228 229
173 3 228 229 230
174 3 230 231 232
175 3 233 234 235
176 3 234 235 236
177 3 235 236 237
178 3 236 237 238
179 3 237 238 239
180 3 238 239 240
181 2 244 245 246
182 3 241 242 243
183 3 242 243 244
184 3 243 244 245
185 3 245 246 247
186 3 246 247 248
187 3 249 250 251
188 3 250 251 252
189 3 251 252 253
190 3 252 253 254
191 3 253 254 255
192 3 254 255 256
193 1 260 261 262
194 3 257 258 259
195 3 258 259 260
196 3 259 260 261
197 3 261 262 263
198 3 262 263 264
199 2 268 269 270
200 2 269 270 271
201 3 265 266 267
202 3 266 267 268
203 3 267 268 269
204 3 270 271 272
205 1 274 275 276
206 1 276 277 278
207 3 273 274 275
208 3 275 276 277
209 3 277 278 279
210 3 278 279 280
211 1 282 283 284
212 2 285 286 287
213 3 281 282 283
214 3 283 284 285
215 3 284 285 286
216 3 286 287 288
217 2 289 290 291
218 2 291 292 293
219 2 293 294 295
220 2 294 295 296
221 3 290 291 292
222 3 292 293 294
223 2 297 298 299
224 2 299 300 301
225 2 302 303 304
226 3 298 299 300
227 3 300 301 302
228 3 301 302 303
229 1 308 309 310
230 3 305 306 307
231 3 306 307 308
232 3 307 308 309
233 3 309 310 311
234 3 310 311 312
235 1 316 317 318
236 3 313 314 315
237 3 314 315 316
238 3 315 316 317
239 3 317 318 319
240 3 318 319 320
241 2 323 324 325
242 2 326 327 328
243 3 321 322 323
244 3 322 323 324
245 3 324 325 326
246 3 325 326 327
247 3 329 330 331
248 3 330 331 332
249 3 331 332 333
250 3 332 333 334
251 3 333 334 335
252 3 334 335 336
253 3 337 338 339
254 3 338 339 340
255 3 339 340 341
256 3 340 341 342
257 3 341 342 343
258 3 342 343 344
259 3 345 346 347
260 3 346 347 348
261 3 347 348 349
262 3 348 349 350
263 3 349 350 351
264 3 350 351 352
265 3 353 354 355
266 3 354 355 356
267 3 355 356 357
268 3 356 357 358
269 3 357 358 359
270 3 358 359 360
271 1 363 364 365
272 2 366 367 368
273 3 361 362 363
274 3 362 363 364
275 3 364 365 366
276 3 365 366 367
277 3 369 370 371
278 3 370 371 372
279 3 371 372 373
280 3 372 373 374
281 3 373 374 375
282 3 374 375 376
283 2 381 382 383
284 3 377 378 379
285 3 378 379 380
286 3 379 380 381
287 3 380 381 382
288 3 382 383 384
