 &TRAJ
 NFORM='XMOL',
 FNAME='../1-HighResolutionMD/nacl-1M',
 PATHDB='../1-HighResolutionMD',
 NTYPES=2,
 NAMOL='Na+_SD','Cl-_SD',
 NSPEC=20,20,
 NFBEG=3,
 NFEND=12,
 ISTEP=1,
 IPRINT=5,
 &END
 BeadMapping
 CGTrajectoryOutputFile:cgtraj.NaCl.001
#  include lines commented by #C if water is included into the
#  atomistic trajectory
#C  CGMolecularType:H2O.CG
#C    ParentType: H2O
# No beads assigned to this type, so the water will be excluded
#C   EndCGMolecularType 
  CGMolecularType:Na+.CG
    ParentType: Na+_SD
    Na:1:1
  EndCGMolecularType 
  CGMolecularType:Cl-.CG
    ParentType: Cl-_SD
    Cl:1:1
  EndCGMolecularType 
EndBeadMapping
