# <AnglePotential>
   0.00000  5976.94443
   0.00126  5974.74712
   0.00251  5972.31435
   0.00377  5969.60044
   0.00503  5966.54925
   0.00628  5963.09411
   0.00754  5959.15930
   0.00880  5954.66386
   0.01005  5949.52861
   0.01131  5943.68674
   0.01257  5937.09760
   0.01382  5929.76170
   0.01508  5921.73328
   0.01634  5913.12567
   0.01759  5904.10486
   0.01885  5894.86993
   0.02011  5885.62356
   0.02136  5876.53978
   0.02262  5867.73815
   0.02388  5859.27048
   0.02513  5851.12234
   0.02639  5843.22684
   0.02765  5835.48596
   0.02890  5827.79453
   0.03016  5820.06245
   0.03142  5812.23200
   0.03267  5804.28769
   0.03393  5796.25703
   0.03519  5788.20194
   0.03644  5780.20269
   0.03770  5772.33801
   0.03896  5764.66617
   0.04021  5757.21150
   0.04147  5749.95890
   0.04273  5742.85682
   0.04398  5735.82725
   0.04524  5728.78046
   0.04650  5721.63176
   0.04775  5714.31747
   0.04901  5706.80760
   0.05027  5699.11244
   0.05152  5691.28133
   0.05278  5683.39300
   0.05404  5675.53928
   0.05529  5667.80556
   0.05655  5660.25296
   0.05781  5652.90614
   0.05906  5645.74922
   0.06032  5638.72991
   0.06158  5631.77037
   0.06283  5624.78241
   0.06409  5617.68429
   0.06535  5610.41647
   0.06660  5602.95371
   0.06786  5595.31083
   0.06912  5587.54066
   0.07037  5579.72360
   0.07163  5571.95089
   0.07288  5564.30531
   0.07414  5556.84388
   0.07540  5549.58662
   0.07665  5542.51345
   0.07791  5535.56911
   0.07917  5528.67454
   0.08042  5521.74225
   0.08168  5514.69296
   0.08294  5507.47097
   0.08419  5500.05549
   0.08545  5492.46567
   0.08671  5484.75753
   0.08796  5477.01282
   0.08922  5469.32197
   0.09048  5461.76491
   0.09173  5454.39449
   0.09299  5447.22613
   0.09425  5440.23569
   0.09550  5433.36514
   0.09676  5426.53445
   0.09802  5419.65702
   0.09927  5412.65618
   0.10053  5405.48014
   0.10179  5398.11259
   0.10304  5390.57686
   0.10430  5382.93195
   0.10556  5375.26072
   0.10681  5367.65253
   0.10807  5360.18433
   0.10933  5352.90470
   0.11058  5345.82454
   0.11184  5338.91579
   0.11310  5332.11789
   0.11435  5325.35001
   0.11561  5318.52666
   0.11687  5311.57396
   0.11812  5304.44407
   0.11938  5297.12514
   0.12064  5289.64454
   0.12189  5282.06405
   0.12315  5274.46739
   0.12441  5266.94263
   0.12566  5259.56354
   0.12692  5252.37444
   0.12818  5245.38174
   0.12943  5238.55363
   0.13069  5231.82721
   0.13195  5225.12111
   0.13320  5218.35113
   0.13446  5211.44631
   0.13572  5204.36283
   0.13697  5197.09325
   0.13823  5189.66886
   0.13949  5182.15398
   0.14074  5174.63295
   0.14200  5167.19230
   0.14326  5159.90253
   0.14451  5152.80362
   0.14577  5145.89759
   0.14703  5139.14905
   0.14828  5132.49298
   0.14954  5125.84766
   0.15080  5119.13039
   0.15205  5112.27325
   0.15331  5105.23651
   0.15457  5098.01706
   0.15582  5090.64995
   0.15708  5083.20186
   0.15834  5075.75746
   0.15959  5068.40158
   0.16085  5061.20126
   0.16211  5054.19215
   0.16336  5047.37198
   0.16462  5040.70193
   0.16588  5034.11508
   0.16713  5027.52958
   0.16839  5020.86442
   0.16965  5014.05483
   0.17090  5007.06518
   0.17216  4999.89668
   0.17342  4992.58796
   0.17467  4985.20781
   0.17593  4977.84103
   0.17719  4970.57048
   0.17844  4963.45968
   0.17970  4956.53994
   0.18096  4949.80477
   0.18221  4943.21213
   0.18347  4936.69338
   0.18473  4930.16680
   0.18598  4923.55319
   0.18724  4916.79108
   0.18850  4909.84896
   0.18975  4902.73225
   0.19101  4895.48303
   0.19227  4888.17196
   0.19352  4880.88372
   0.19478  4873.69903
   0.19604  4866.67775
   0.19729  4859.84688
   0.19855  4853.19583
   0.19981  4846.67951
   0.20106  4840.22779
   0.20232  4833.75925
   0.20358  4827.19670
   0.20483  4820.48204
   0.20609  4813.58792
   0.20735  4806.52389
   0.20860  4799.33529
   0.20986  4792.09442
   0.21112  4784.88560
   0.21237  4777.78722
   0.21363  4770.85542
   0.21488  4764.11288
   0.21614  4757.54504
   0.21740  4751.10394
   0.21865  4744.71818
   0.21991  4738.30685
   0.22117  4731.79492
   0.22242  4725.12777
   0.22368  4718.28219
   0.22494  4711.27175
   0.22619  4704.14488
   0.22745  4696.97531
   0.22871  4689.84673
   0.22996  4682.83506
   0.23122  4675.99263
   0.23248  4669.33783
   0.23373  4662.85226
   0.23499  4656.48529
   0.23625  4650.16446
   0.23750  4643.80955
   0.23876  4637.34787
   0.24002  4630.72833
   0.24127  4623.93185
   0.24253  4616.97595
   0.24379  4609.91193
   0.24504  4602.81471
   0.24630  4595.76716
   0.24756  4588.84255
   0.24881  4582.08931
   0.25007  4575.52161
   0.25133  4569.11736
   0.25258  4562.82344
   0.25384  4556.56653
   0.25510  4550.26731
   0.25635  4543.85555
   0.25761  4537.28378
   0.25887  4530.53703
   0.26012  4523.63663
   0.26138  4516.63658
   0.26264  4509.61275
   0.26389  4502.64695
   0.26515  4495.80966
   0.26641  4489.14538
   0.26766  4482.66411
   0.26892  4476.34021
   0.27018  4470.11826
   0.27143  4463.92430
   0.27269  4457.68008
   0.27395  4451.31798
   0.27520  4444.79419
   0.27646  4438.09783
   0.27772  4431.25392
   0.27897  4424.31894
   0.28023  4417.36949
   0.28149  4410.48613
   0.28274  4403.73637
   0.28400  4397.16077
   0.28526  4390.76522
   0.28651  4384.52067
   0.28777  4378.36962
   0.28903  4372.23767
   0.29028  4366.04782
   0.29154  4359.73517
   0.29280  4353.25964
   0.29405  4346.61438
   0.29531  4339.82795
   0.29657  4332.95915
   0.29782  4326.08504
   0.29908  4319.28473
   0.30034  4312.62266
   0.30159  4306.13539
   0.30285  4299.82482
   0.30411  4293.65863
   0.30536  4287.57743
   0.30662  4281.50658
   0.30788  4275.37051
   0.30913  4269.10716
   0.31039  4262.68021
   0.31165  4256.08678
   0.31290  4249.35887
   0.31416  4242.55732
   0.31542  4235.75948
   0.31667  4229.04278
   0.31793  4222.46848
   0.31919  4216.06917
   0.32044  4209.84279
   0.32170  4203.75395
   0.32296  4197.74155
   0.32421  4191.73094
   0.32547  4185.64812
   0.32673  4179.43398
   0.32798  4173.05598
   0.32924  4166.51518
   0.33050  4159.84679
   0.33175  4153.11357
   0.33301  4146.39286
   0.33427  4139.76029
   0.33552  4133.27380
   0.33678  4126.96200
   0.33804  4120.81900
   0.33929  4114.80649
   0.34055  4108.86189
   0.34181  4102.91068
   0.34306  4096.88064
   0.34432  4090.71568
   0.34558  4084.38706
   0.34683  4077.89967
   0.34809  4071.29185
   0.34935  4064.62800
   0.35060  4057.98527
   0.35186  4051.43726
   0.35312  4045.03856
   0.35437  4038.81379
   0.35563  4032.75334
   0.35688  4026.81615
   0.35814  4020.93835
   0.35940  4015.04576
   0.36065  4009.06806
   0.36191  4002.95229
   0.36317  3996.67352
   0.36442  3990.24040
   0.36568  3983.69418
   0.36694  3977.10072
   0.36819  3970.53676
   0.36945  3964.07371
   0.37071  3957.76271
   0.37196  3951.62444
   0.37322  3945.64567
   0.37448  3939.78279
   0.37573  3933.97082
   0.37699  3928.13610
   0.37825  3922.21038
   0.37950  3916.14388
   0.38076  3909.91548
   0.38202  3903.53748
   0.38327  3897.05391
   0.38453  3890.53183
   0.38579  3884.04738
   0.38704  3877.66963
   0.38830  3871.44619
   0.38956  3865.39384
   0.39081  3859.49588
   0.39207  3853.70630
   0.39333  3847.95920
   0.39458  3842.18167
   0.39584  3836.30760
   0.39710  3830.29051
   0.39835  3824.11303
   0.39961  3817.79104
   0.40087  3811.37115
   0.40212  3804.92142
   0.40338  3798.51718
   0.40464  3792.22500
   0.40589  3786.08894
   0.40715  3780.12190
   0.40841  3774.30385
   0.40966  3768.58655
   0.41092  3762.90343
   0.41218  3757.18242
   0.41343  3751.35974
   0.41469  3745.39223
   0.41595  3739.26628
   0.41720  3733.00121
   0.41846  3726.64602
   0.41972  3720.26959
   0.42097  3713.94619
   0.42223  3707.73980
   0.42349  3701.69087
   0.42474  3695.80849
   0.42600  3690.06944
   0.42726  3684.42344
   0.42851  3678.80340
   0.42977  3673.13832
   0.43103  3667.36682
   0.43228  3661.44912
   0.43354  3655.37534
   0.43480  3649.16811
   0.43605  3642.87865
   0.43731  3636.57641
   0.43857  3630.33445
   0.43982  3624.21401
   0.44108  3618.25191
   0.44234  3612.45352
   0.44359  3606.79254
   0.44485  3601.21686
   0.44611  3595.65905
   0.44736  3590.04933
   0.44862  3584.32885
   0.44988  3578.46126
   0.45113  3572.44031
   0.45239  3566.29186
   0.45365  3560.06914
   0.45490  3553.84196
   0.45616  3547.68198
   0.45742  3541.64760
   0.45867  3535.77198
   0.45993  3530.05686
   0.46119  3524.47302
   0.46244  3518.96669
   0.46370  3513.47031
   0.46496  3507.91544
   0.46621  3502.24589
   0.46747  3496.42872
   0.46873  3490.46133
   0.46998  3484.37260
   0.47124  3478.21760
   0.47250  3472.06630
   0.47375  3465.98879
   0.47501  3460.04052
   0.47627  3454.25100
   0.47752  3448.61841
   0.47878  3443.11077
   0.48004  3437.67284
   0.48129  3432.23710
   0.48255  3426.73663
   0.48381  3421.11795
   0.48506  3415.35160
   0.48632  3409.43849
   0.48758  3403.41043
   0.48883  3397.32414
   0.49009  3391.24951
   0.49135  3385.25491
   0.49260  3379.39273
   0.49386  3373.68887
   0.49512  3368.13805
   0.49637  3362.70567
   0.49763  3357.33522
   0.49888  3351.95938
   0.50014  3346.51290
   0.50140  3340.94509
   0.50265  3335.22997
   0.50391  3329.37191
   0.50517  3323.40550
   0.50642  3317.38885
   0.50768  3311.39164
   0.50894  3305.48032
   0.51019  3299.70419
   0.51145  3294.08551
   0.51271  3288.61565
   0.51396  3283.25760
   0.51522  3277.95372
   0.51648  3272.63708
   0.51773  3267.24423
   0.51899  3261.72736
   0.52025  3256.06393
   0.52150  3250.26172
   0.52276  3244.35790
   0.52402  3238.41183
   0.52527  3232.49274
   0.52653  3226.66502
   0.52779  3220.97482
   0.52904  3215.44081
   0.53030  3210.05112
   0.53156  3204.76645
   0.53281  3199.52826
   0.53407  3194.27017
   0.53533  3188.93064
   0.53658  3183.46481
   0.53784  3177.85358
   0.53910  3172.10802
   0.54035  3166.26775
   0.54161  3160.39317
   0.54287  3154.55285
   0.54412  3148.80901
   0.54538  3143.20457
   0.54664  3137.75467
   0.54789  3132.44432
   0.54915  3127.23211
   0.55041  3122.05876
   0.55166  3116.85860
   0.55292  3111.57214
   0.55418  3106.15750
   0.55543  3100.59902
   0.55669  3094.91094
   0.55795  3089.13518
   0.55920  3083.33295
   0.56046  3077.57200
   0.56172  3071.91227
   0.56297  3066.39338
   0.56423  3061.02700
   0.56549  3055.79515
   0.56674  3050.65448
   0.56800  3045.54514
   0.56926  3040.40235
   0.57051  3035.16874
   0.57177  3029.80550
   0.57303  3024.30034
   0.57428  3018.67060
   0.57554  3012.96028
   0.57680  3007.23125
   0.57805  3001.55024
   0.57931  2995.97476
   0.58057  2990.54117
   0.58182  2985.25769
   0.58308  2980.10348
   0.58434  2975.03344
   0.58559  2969.98732
   0.58685  2964.90137
   0.58811  2959.72047
   0.58936  2954.40887
   0.59062  2948.95765
   0.59188  2943.38711
   0.59313  2937.74317
   0.59439  2932.08814
   0.59565  2926.48758
   0.59690  2920.99647
   0.59816  2915.64786
   0.59942  2910.44663
   0.60067  2905.36921
   0.60193  2900.36890
   0.60319  2895.38525
   0.60444  2890.35566
   0.60570  2885.22735
   0.60696  2879.96770
   0.60821  2874.57107
   0.60947  2869.06058
   0.61073  2863.48394
   0.61198  2857.90368
   0.61324  2852.38404
   0.61450  2846.97736
   0.61575  2841.71339
   0.61701  2836.59372
   0.61827  2831.59223
   0.61952  2826.66077
   0.62078  2821.73885
   0.62204  2816.76519
   0.62329  2811.68943
   0.62455  2806.48205
   0.62581  2801.14068
   0.62706  2795.69114
   0.62832  2790.18269
   0.62958  2784.67794
   0.63083  2779.23962
   0.63209  2773.91738
   0.63335  2768.73765
   0.63460  2763.69885
   0.63586  2758.77241
   0.63711  2753.90895
   0.63837  2749.04808
   0.63963  2744.12996
   0.64088  2739.10674
   0.64214  2733.95202
   0.64340  2728.66661
   0.64465  2723.27889
   0.64591  2717.83952
   0.64717  2712.41097
   0.64842  2707.05434
   0.64968  2701.81648
   0.65094  2696.72056
   0.65219  2691.76191
   0.65345  2686.90966
   0.65471  2682.11336
   0.65596  2677.31289
   0.65722  2672.44997
   0.65848  2667.47932
   0.65973  2662.37770
   0.66099  2657.14896
   0.66225  2651.82395
   0.66350  2646.45452
   0.66476  2641.10282
   0.66602  2635.82818
   0.66727  2630.67462
   0.66853  2625.66204
   0.66979  2620.78279
   0.67104  2616.00387
   0.67230  2611.27391
   0.67356  2606.53323
   0.67481  2601.72522
   0.67607  2596.80724
   0.67733  2591.75916
   0.67858  2586.58785
   0.67984  2581.32642
   0.68110  2576.02776
   0.68235  2570.75353
   0.68361  2565.56114
   0.68487  2560.49174
   0.68612  2555.56199
   0.68738  2550.76138
   0.68864  2546.05493
   0.68989  2541.39052
   0.69115  2536.70906
   0.69241  2531.95572
   0.69366  2527.09055
   0.69492  2522.09650
   0.69618  2516.98338
   0.69743  2511.78641
   0.69869  2506.55932
   0.69995  2501.36313
   0.70120  2496.25320
   0.70246  2491.26777
   0.70372  2486.42032
   0.70497  2481.69757
   0.70623  2477.06274
   0.70749  2472.46313
   0.70874  2467.84035
   0.71000  2463.14149
   0.71126  2458.32931
   0.71251  2453.38982
   0.71377  2448.33566
   0.71503  2443.20402
   0.71628  2438.04929
   0.71754  2432.93165
   0.71880  2427.90435
   0.72005  2423.00264
   0.72131  2418.23692
   0.72257  2413.59126
   0.72382  2409.02722
   0.72508  2404.49166
   0.72634  2399.92709
   0.72759  2395.28255
   0.72885  2390.52358
   0.73011  2385.63922
   0.73136  2380.64481
   0.73262  2375.57936
   0.73388  2370.49772
   0.73513  2365.45911
   0.73639  2360.51454
   0.73765  2355.69629
   0.73890  2351.01170
   0.74016  2346.44234
   0.74142  2341.94825
   0.74267  2337.47606
   0.74393  2332.96924
   0.74519  2328.37893
   0.74644  2323.67343
   0.74770  2318.84479
   0.74896  2313.91093
   0.75021  2308.91250
   0.75147  2303.90468
   0.75273  2298.94553
   0.75398  2294.08374
   0.75524  2289.34864
   0.75650  2284.74456
   0.75775  2280.25070
   0.75901  2275.82576
   0.76027  2271.41626
   0.76152  2266.96679
   0.76278  2262.43066
   0.76404  2257.77895
   0.76529  2253.00663
   0.76655  2248.13412
   0.76781  2243.20355
   0.76906  2238.27022
   0.77032  2233.39091
   0.77158  2228.61193
   0.77283  2223.95960
   0.77409  2219.43539
   0.77535  2215.01624
   0.77660  2210.65966
   0.77786  2206.31221
   0.77911  2201.91975
   0.78037  2197.43778
   0.78163  2192.84020
   0.78288  2188.12485
   0.78414  2183.31450
   0.78540  2178.45260
   0.78665  2173.59440
   0.78791  2168.79527
   0.78917  2164.09905
   0.79042  2159.52911
   0.79168  2155.08410
   0.79294  2150.73886
   0.79419  2146.44987
   0.79545  2142.16388
   0.79671  2137.82810
   0.79796  2133.40033
   0.79922  2128.85727
   0.80048  2124.19955
   0.80173  2119.45217
   0.80299  2114.65972
   0.80425  2109.87725
   0.80550  2105.15859
   0.80676  2100.54505
   0.80802  2096.05707
   0.80927  2091.69058
   0.81053  2087.41846
   0.81179  2083.19631
   0.81304  2078.97121
   0.81430  2074.69186
   0.81556  2070.31837
   0.81681  2065.83024
   0.81807  2061.23083
   0.81933  2056.54722
   0.82058  2051.82500
   0.82184  2047.11882
   0.82310  2042.48086
   0.82435  2037.94987
   0.82561  2033.54339
   0.82687  2029.25473
   0.82812  2025.05495
   0.82938  2020.89891
   0.83064  2016.73418
   0.83189  2012.51102
   0.83315  2008.19194
   0.83441  2003.75920
   0.83566  1999.21880
   0.83692  1994.59976
   0.83818  1989.94850
   0.83943  1985.31913
   0.84069  1980.76208
   0.84195  1976.31347
   0.84320  1971.98799
   0.84446  1967.77645
   0.84572  1963.64822
   0.84697  1959.55760
   0.84823  1955.45276
   0.84949  1951.28562
   0.85074  1947.02111
   0.85200  1942.64424
   0.85326  1938.16355
   0.85451  1933.60989
   0.85577  1929.03029
   0.85703  1924.47822
   0.85828  1920.00221
   0.85954  1915.63577
   0.86080  1911.39078
   0.86205  1907.25564
   0.86331  1903.19819
   0.86457  1899.17231
   0.86582  1895.12691
   0.86708  1891.01566
   0.86834  1886.80593
   0.86959  1882.48544
   0.87085  1878.06520
   0.87211  1873.57768
   0.87336  1869.07044
   0.87462  1864.59610
   0.87588  1860.20124
   0.87713  1855.91671
   0.87839  1851.75165
   0.87965  1847.69219
   0.88090  1843.70477
   0.88216  1839.74300
   0.88342  1835.75664
   0.88467  1831.70118
   0.88593  1827.54647
   0.88719  1823.28291
   0.88844  1818.92383
   0.88970  1814.50324
   0.89096  1810.06901
   0.89221  1805.67279
   0.89347  1801.35912
   0.89473  1797.15622
   0.89598  1793.07053
   0.89724  1789.08601
   0.89850  1785.16788
   0.89975  1781.26960
   0.90101  1777.34192
   0.90227  1773.34221
   0.90352  1769.24281
   0.90478  1765.03673
   0.90604  1760.73956
   0.90729  1756.38665
   0.90855  1752.02604
   0.90981  1747.70829
   0.91106  1743.47583
   0.91232  1739.35422
   0.91358  1735.34730
   0.91483  1731.43701
   0.91609  1727.58744
   0.91735  1723.75208
   0.91860  1719.88275
   0.91986  1715.93879
   0.92111  1711.89501
   0.92237  1707.74701
   0.92363  1703.51247
   0.92488  1699.22798
   0.92614  1694.94158
   0.92740  1690.70260
   0.92865  1686.55132
   0.92991  1682.51063
   0.93117  1678.58188
   0.93242  1674.74508
   0.93368  1670.96337
   0.93494  1667.19039
   0.93619  1663.37913
   0.93745  1659.49095
   0.93871  1655.50316
   0.93996  1651.41384
   0.94122  1647.24268
   0.94248  1643.02732
   0.94373  1638.81567
   0.94499  1634.65573
   0.94625  1630.58553
   0.94750  1626.62538
   0.94876  1622.77417
   0.95002  1619.01013
   0.95127  1615.29561
   0.95253  1611.58449
   0.95379  1607.83106
   0.95504  1603.99874
   0.95630  1600.06733
   0.95756  1596.03730
   0.95881  1591.93026
   0.96007  1587.78474
   0.96133  1583.64834
   0.96258  1579.56765
   0.96384  1575.57842
   0.96510  1571.69839
   0.96635  1567.92407
   0.96761  1564.23208
   0.96887  1560.58408
   0.97012  1556.93435
   0.97138  1553.23856
   0.97264  1549.46223
   0.97389  1545.58760
   0.97515  1541.61751
   0.97641  1537.57531
   0.97766  1533.50029
   0.97892  1529.43963
   0.98018  1525.43836
   0.98143  1521.52994
   0.98269  1517.72956
   0.98395  1514.03150
   0.98520  1510.41084
   0.98646  1506.82872
   0.98772  1503.23995
   0.98897  1499.60164
   0.99023  1495.88145
   0.99149  1492.06405
   0.99274  1488.15456
   0.99400  1484.17792
   0.99526  1480.17405
   0.99651  1476.18955
   0.99777  1472.26783
   0.99903  1468.44002
   1.00028  1464.71881
   1.00154  1461.09634
   1.00280  1457.54632
   1.00405  1454.02948
   1.00531  1450.50127
   1.00657  1446.92033
   1.00782  1443.25648
   1.00908  1439.49678
   1.01034  1435.64854
   1.01159  1431.73818
   1.01285  1427.80608
   1.01411  1423.89813
   1.01536  1420.05604
   1.01662  1416.30859
   1.01788  1412.66605
   1.01913  1409.11852
   1.02039  1405.63845
   1.02165  1402.18631
   1.02290  1398.71829
   1.02416  1395.19465
   1.02542  1391.58736
   1.02667  1387.88588
   1.02793  1384.09954
   1.02919  1380.25616
   1.03044  1376.39641
   1.03170  1372.56537
   1.03296  1368.80295
   1.03421  1365.13560
   1.03547  1361.57120
   1.03673  1358.09794
   1.03798  1354.68714
   1.03924  1351.29915
   1.04050  1347.89101
   1.04175  1344.42463
   1.04301  1340.87418
   1.04427  1337.23142
   1.04552  1333.50767
   1.04678  1329.73195
   1.04804  1325.94511
   1.04929  1322.19128
   1.05055  1318.50853
   1.05181  1314.92097
   1.05306  1311.43417
   1.05432  1308.03450
   1.05558  1304.69232
   1.05683  1301.36797
   1.05809  1298.01942
   1.05935  1294.61030
   1.06060  1291.11700
   1.06186  1287.53350
   1.06311  1283.87300
   1.06437  1280.16561
   1.06563  1276.45221
   1.06688  1272.77586
   1.06814  1269.17273
   1.06940  1265.66462
   1.07065  1262.25486
   1.07191  1258.92813
   1.07317  1255.65393
   1.07442  1252.39272
   1.07568  1249.10352
   1.07694  1245.75172
   1.07819  1242.31589
   1.07945  1238.79221
   1.08071  1235.19564
   1.08196  1231.55723
   1.08322  1227.91775
   1.08448  1224.31911
   1.08573  1220.79552
   1.08699  1217.36648
   1.08825  1214.03318
   1.08950  1210.77873
   1.09076  1207.57189
   1.09202  1204.37338
   1.09327  1201.14332
   1.09453  1197.84893
   1.09579  1194.47093
   1.09704  1191.00763
   1.09830  1187.47566
   1.09956  1183.90686
   1.10081  1180.34175
   1.10207  1176.82100
   1.10333  1173.37683
   1.10458  1170.02647
   1.10584  1166.76905
   1.10710  1163.58622
   1.10835  1160.44616
   1.10961  1157.30991
   1.11087  1154.13883
   1.11212  1150.90197
   1.11338  1147.58220
   1.11464  1144.17987
   1.11589  1140.71316
   1.11715  1137.21456
   1.11841  1133.72425
   1.11966  1130.28153
   1.12092  1126.91662
   1.12218  1123.64452
   1.12343  1120.46238
   1.12469  1117.35052
   1.12595  1114.27666
   1.12720  1111.20230
   1.12846  1108.09008
   1.12972  1104.91090
   1.13097  1101.64977
   1.13223  1098.30901
   1.13349  1094.90821
   1.13474  1091.48040
   1.13600  1088.06526
   1.13726  1084.70067
   1.13851  1081.41482
   1.13977  1078.22053
   1.14103  1075.11307
   1.14228  1072.07155
   1.14354  1069.06335
   1.14480  1066.05054
   1.14605  1062.99707
   1.14731  1059.87578
   1.14857  1056.67372
   1.14982  1053.39514
   1.15108  1050.06089
   1.15234  1046.70442
   1.15359  1043.36479
   1.15485  1040.07840
   1.15611  1036.87138
   1.15736  1033.75444
   1.15862  1030.72105
   1.15988  1027.74924
   1.16113  1024.80619
   1.16239  1021.85460
   1.16365  1018.85985
   1.16490  1015.79666
   1.16616  1012.65415
   1.16742  1009.43834
   1.16867  1006.17128
   1.16993  1002.88667
   1.17119   999.62286
   1.17244   996.41468
   1.17370   993.28623
   1.17496   990.24614
   1.17621   987.28622
   1.17747   984.38352
   1.17873   981.50512
   1.17998   978.61448
   1.18124   975.67844
   1.18250   972.67361
   1.18375   969.59112
   1.18501   966.43871
   1.18627   963.23945
   1.18752   960.02720
   1.18878   956.83946
   1.19004   953.70947
   1.19129   950.65930
   1.19255   947.69556
   1.19381   944.80850
   1.19506   941.97432
   1.19632   939.16012
   1.19758   936.33019
   1.19883   933.45288
   1.20009   930.50671
   1.20135   927.48474
   1.20260   924.39632
   1.20386   921.26546
   1.20511   918.12603
   1.20637   915.01459
   1.20763   911.96275
   1.20888   908.99053
   1.21014   906.10262
   1.21140   903.28780
   1.21265   900.52158
   1.21391   897.77114
   1.21517   895.00173
   1.21642   892.18321
   1.21768   889.29601
   1.21894   886.33507
   1.22019   883.31126
   1.22145   880.24939
   1.22271   877.18320
   1.22396   874.14825
   1.22522   871.17445
   1.22648   868.27983
   1.22773   865.46723
   1.22899   862.72406
   1.23025   860.02523
   1.23150   857.33817
   1.23276   854.62910
   1.23402   851.86948
   1.23527   849.04159
   1.23653   846.14222
   1.23779   843.18362
   1.23904   840.19129
   1.24030   837.19873
   1.24156   834.24042
   1.24281   831.34453
   1.24407   828.52714
   1.24533   825.78930
   1.24658   823.11719
   1.24784   820.48523
   1.24910   817.86118
   1.25035   815.21232
   1.25161   812.51173
   1.25287   809.74352
   1.25412   806.90625
   1.25538   804.01347
   1.25664   801.09121
   1.25789   798.17265
   1.25915   795.29109
   1.26041   792.47294
   1.26166   789.73238
   1.26292   787.06875
   1.26418   784.46712
   1.26543   781.90152
   1.26669   779.34015
   1.26795   776.75142
   1.26920   774.11001
   1.27046   771.40188
   1.27172   768.62726
   1.27297   765.80088
   1.27423   762.94921
   1.27549   760.10497
   1.27674   757.30022
   1.27800   754.55962
   1.27926   751.89547
   1.28051   749.30550
   1.28177   746.77377
   1.28303   744.27406
   1.28428   741.77507
   1.28554   739.24641
   1.28680   736.66439
   1.28805   734.01675
   1.28931   731.30532
   1.29057   728.54592
   1.29182   725.76533
   1.29308   722.99570
   1.29434   720.26779
   1.29559   717.60452
   1.29685   715.01633
   1.29811   712.49946
   1.29936   710.03708
   1.30062   707.60280
   1.30188   705.16593
   1.30313   702.69732
   1.30439   700.17492
   1.30565   697.58821
   1.30690   694.94053
   1.30816   692.24868
   1.30942   689.53961
   1.31067   686.84484
   1.31193   684.19378
   1.31319   681.60756
   1.31444   679.09488
   1.31570   676.65057
   1.31696   674.25698
   1.31821   671.88771
   1.31947   669.51274
   1.32073   667.10419
   1.32198   664.64166
   1.32324   662.11633
   1.32450   659.53296
   1.32575   656.90920
   1.32701   654.27209
   1.32827   651.65240
   1.32952   649.07813
   1.33078   646.56868
   1.33204   644.13104
   1.33329   641.75873
   1.33455   639.43341
   1.33581   637.12875
   1.33706   634.81549
   1.33832   632.46706
   1.33958   630.06468
   1.34083   627.60119
   1.34209   625.08268
   1.34335   622.52755
   1.34460   619.96279
   1.34586   617.41836
   1.34711   614.92081
   1.34837   612.48782
   1.34963   610.12474
   1.35088   607.82387
   1.35214   605.56632
   1.35340   603.32590
   1.35465   601.07419
   1.35591   598.78596
   1.35717   596.44405
   1.35842   594.04287
   1.35968   591.58979
   1.36094   589.10380
   1.36219   586.61176
   1.36345   584.14272
   1.36471   581.72178
   1.36596   579.36490
   1.36722   577.07589
   1.36848   574.84592
   1.36973   572.65565
   1.37099   570.47914
   1.37225   568.28885
   1.37350   566.06094
   1.37476   563.77983
   1.37602   561.44147
   1.37727   559.05434
   1.37853   556.63798
   1.37979   554.21900
   1.38104   551.82546
   1.38230   549.48098
   1.38356   547.19986
   1.38481   544.98441
   1.38607   542.82481
   1.38733   540.70135
   1.38858   538.58844
   1.38984   536.45950
   1.39110   534.29205
   1.39235   532.07210
   1.39361   529.79704
   1.39487   527.47642
   1.39612   525.13016
   1.39738   522.78453
   1.39864   520.46656
   1.39989   518.19836
   1.40115   515.99262
   1.40241   513.85023
   1.40366   511.76047
   1.40492   509.70338
   1.40618   507.65380
   1.40743   505.58614
   1.40869   503.47934
   1.40995   501.32092
   1.41120   499.10968
   1.41246   496.85608
   1.41372   494.58037
   1.41497   492.30836
   1.41623   490.06599
   1.41749   487.87387
   1.41874   485.74310
   1.42000   483.67326
   1.42126   481.65283
   1.42251   479.66170
   1.42377   477.67520
   1.42503   475.66882
   1.42628   473.62287
   1.42754   471.52638
   1.42880   469.37945
   1.43005   467.19341
   1.43131   464.98866
   1.43257   462.79050
   1.43382   460.62373
   1.43508   458.50745
   1.43634   456.45123
   1.43759   454.45343
   1.43885   452.50183
   1.44011   450.57627
   1.44136   448.65265
   1.44262   446.70755
   1.44388   444.72269
   1.44513   442.68855
   1.44639   440.60645
   1.44765   438.48845
   1.44890   436.35506
   1.45016   434.23095
   1.45142   432.13973
   1.45267   430.09903
   1.45393   428.11693
   1.45519   426.19067
   1.45644   424.30741
   1.45770   422.44706
   1.45896   420.58615
   1.46021   418.70238
   1.46147   416.77887
   1.46273   414.80751
   1.46398   412.79074
   1.46524   410.74128
   1.46650   408.67960
   1.46775   406.62970
   1.46901   404.61397
   1.47027   402.64855
   1.47152   400.74014
   1.47278   398.88490
   1.47404   397.06953
   1.47529   395.27404
   1.47655   393.47570
   1.47781   391.65335
   1.47906   389.79147
   1.48032   387.88332
   1.48158   385.93239
   1.48283   383.95193
   1.48409   381.96231
   1.48535   379.98675
   1.48660   378.04640
   1.48786   376.15595
   1.48911   374.32076
   1.49037   372.53605
   1.49163   370.78812
   1.49288   369.05719
   1.49414   367.32131
   1.49540   365.56048
   1.49665   363.76056
   1.49791   361.91607
   1.49917   360.03148
   1.50042   358.12047
   1.50168   356.20321
   1.50294   354.30207
   1.50419   352.43696
   1.50545   350.62115
   1.50671   348.85873
   1.50796   347.14406
   1.50922   345.46313
   1.51048   343.79650
   1.51173   342.12300
   1.51299   340.42384
   1.51425   338.68620
   1.51550   336.90582
   1.51676   335.08807
   1.51802   333.24694
   1.51927   331.40230
   1.52053   329.57566
   1.52179   327.78562
   1.52304   326.04409
   1.52430   324.35397
   1.52556   322.70885
   1.52681   321.09454
   1.52807   319.49194
   1.52933   317.88079
   1.53058   316.24347
   1.53184   314.56846
   1.53310   312.85267
   1.53435   311.10223
   1.53561   309.33139
   1.53687   307.55961
   1.53812   305.80748
   1.53938   304.09232
   1.54064   302.42470
   1.54189   300.80641
   1.54315   299.23037
   1.54441   297.68229
   1.54566   296.14352
   1.54692   294.59471
   1.54818   293.01943
   1.54943   291.40742
   1.55069   289.75668
   1.55195   288.07403
   1.55320   286.37385
   1.55446   284.67514
   1.55572   282.99750
   1.55697   281.35700
   1.55823   279.76291
   1.55949   278.21597
   1.56074   276.70856
   1.56200   275.22635
   1.56326   273.75123
   1.56451   272.26478
   1.56577   270.75176
   1.56703   269.20314
   1.56828   267.61792
   1.56954   266.00352
   1.57080   264.37435
   1.57205   262.74889
   1.57331   261.14571
   1.57457   259.57961
   1.57582   258.05863
   1.57708   256.58258
   1.57834   255.14335
   1.57959   253.72669
   1.58085   252.31507
   1.58211   250.89103
   1.58336   249.44054
   1.58462   247.95570
   1.58588   246.43647
   1.58713   244.89076
   1.58839   243.33294
   1.58965   241.78085
   1.59090   240.25205
   1.59216   238.76008
   1.59342   237.31181
   1.59467   235.90618
   1.59593   234.53471
   1.59719   233.18330
   1.59844   231.83505
   1.59970   230.47351
   1.60096   229.08581
   1.60221   227.66517
   1.60347   226.21239
   1.60473   224.73580
   1.60598   223.24962
   1.60724   221.77102
   1.60850   220.31649
   1.60975   218.89835
   1.61101   217.52236
   1.61227   216.18669
   1.61352   214.88257
   1.61478   213.59613
   1.61604   212.31118
   1.61729   211.01226
   1.61855   209.68764
   1.61981   208.33162
   1.62106   206.94576
   1.62232   205.53869
   1.62358   204.12442
   1.62483   202.71938
   1.62609   201.33898
   1.62734   199.99436
   1.62860   198.69021
   1.62986   197.42405
   1.63111   196.18689
   1.63237   194.96519
   1.63363   193.74347
   1.63488   192.50731
   1.63614   191.24610
   1.63740   189.95512
   1.63865   188.63663
   1.63991   187.29948
   1.64117   185.95735
   1.64242   184.62592
   1.64368   183.31948
   1.64494   182.04803
   1.64619   180.81529
   1.64745   179.61819
   1.64871   178.44763
   1.64996   177.29045
   1.65122   176.13194
   1.65248   174.95873
   1.65373   173.76125
   1.65499   172.53576
   1.65625   171.28508
   1.65750   170.01820
   1.65876   168.74843
   1.66002   167.49060
   1.66127   166.25793
   1.66253   165.05930
   1.66379   163.89754
   1.66504   162.76906
   1.66630   161.66476
   1.66756   160.57191
   1.66881   159.47663
   1.67007   158.36655
   1.67133   157.23317
   1.67258   156.07359
   1.67384   154.89116
   1.67510   153.69490
   1.67635   152.49766
   1.67761   151.31341
   1.67887   150.15428
   1.68012   149.02810
   1.68138   147.93687
   1.68264   146.87660
   1.68389   145.83824
   1.68515   144.80956
   1.68641   143.77755
   1.68766   142.73083
   1.68892   141.66191
   1.69018   140.56869
   1.69143   139.45494
   1.69269   138.32961
   1.69395   137.20504
   1.69520   136.09431
   1.69646   135.00848
   1.69772   133.95436
   1.69897   132.93322
   1.70023   131.94075
   1.70149   130.96804
   1.70274   130.00342
   1.70400   129.03473
   1.70526   128.05163
   1.70651   127.04756
   1.70777   126.02113
   1.70903   124.97645
   1.71028   123.92235
   1.71154   122.87057
   1.71280   121.83327
   1.71405   120.82046
   1.71531   119.83801
   1.71657   118.88653
   1.71782   117.96147
   1.71908   117.05413
   1.72034   116.15348
   1.72159   115.24823
   1.72285   114.32900
   1.72411   113.39017
   1.72536   112.43098
   1.72662   111.45576
   1.72788   110.47315
   1.72913   109.49423
   1.73039   108.53024
   1.73165   107.59017
   1.73290   106.67898
   1.73416   105.79672
   1.73542   104.93870
   1.73667   104.09650
   1.73793   103.25975
   1.73919   102.41806
   1.74044   101.56302
   1.74170   100.68983
   1.74296    99.79829
   1.74421    98.89292
   1.74547    97.98202
   1.74673    97.07602
   1.74798    96.18518
   1.74924    95.31753
   1.75050    94.47720
   1.75175    93.66374
   1.75301    92.87240
   1.75427    92.09514
   1.75552    91.32226
   1.75678    90.54429
   1.75804    89.75374
   1.75929    88.94660
   1.76055    88.12314
   1.76181    87.28795
   1.76306    86.44898
   1.76432    85.61591
   1.76558    84.79806
   1.76683    84.00249
   1.76809    83.23259
   1.76934    82.48752
   1.77060    81.76254
   1.77186    81.05002
   1.77311    80.34102
   1.77437    79.62695
   1.77563    78.90122
   1.77688    78.16055
   1.77814    77.40559
   1.77940    76.64092
   1.78065    75.87405
   1.78191    75.11388
   1.78317    74.36880
   1.78442    73.64498
   1.78568    72.94510
   1.78694    72.26801
   1.78819    71.60907
   1.78945    70.96115
   1.79071    70.31605
   1.79196    69.66610
   1.79322    69.00554
   1.79448    68.33175
   1.79573    67.64569
   1.79699    66.95184
   1.79825    66.25721
   1.79950    65.56990
   1.80076    64.89737
   1.80202    64.24492
   1.80327    63.61464
   1.80453    63.00515
   1.80579    62.41197
   1.80704    61.82852
   1.80830    61.24739
   1.80956    60.66178
   1.81081    60.06676
   1.81207    59.46026
   1.81333    58.84350
   1.81458    58.22075
   1.81584    57.59848
   1.81710    56.98395
   1.81835    56.38371
   1.81961    55.80226
   1.82087    55.24116
   1.82212    54.69888
   1.82338    54.17120
   1.82464    53.65213
   1.82589    53.13507
   1.82715    52.61406
   1.82841    52.08495
   1.82966    51.54617
   1.83092    50.99907
   1.83218    50.44768
   1.83343    49.89784
   1.83469    49.35598
   1.83595    48.82776
   1.83720    48.31692
   1.83846    47.82458
   1.83972    47.34916
   1.84097    46.88675
   1.84223    46.43200
   1.84349    45.97911
   1.84474    45.52299
   1.84600    45.06018
   1.84726    44.58953
   1.84851    44.11245
   1.84977    43.63265
   1.85103    43.15529
   1.85228    42.68596
   1.85354    42.22946
   1.85480    41.78883
   1.85605    41.36485
   1.85731    40.95594
   1.85857    40.55860
   1.85982    40.16813
   1.86108    39.77957
   1.86234    39.38864
   1.86359    38.99251
   1.86485    38.59040
   1.86611    38.18369
   1.86736    37.77567
   1.86862    37.37081
   1.86988    36.97384
   1.87113    36.58874
   1.87239    36.21793
   1.87365    35.86190
   1.87490    35.51919
   1.87616    35.18673
   1.87742    34.86054
   1.87867    34.53649
   1.87993    34.21106
   1.88119    33.88202
   1.88244    33.54885
   1.88370    33.21282
   1.88496    32.87676
   1.88621    32.54439
   1.88747    32.21959
   1.88873    31.90554
   1.88998    31.60414
   1.89124    31.31568
   1.89250    31.03885
   1.89375    30.77112
   1.89501    30.50925
   1.89627    30.24991
   1.89752    29.99032
   1.89878    29.72877
   1.90004    29.46493
   1.90129    29.19989
   1.90255    28.93591
   1.90381    28.67597
   1.90506    28.42310
   1.90632    28.17973
   1.90758    27.94729
   1.90883    27.72593
   1.91009    27.51460
   1.91134    27.31130
   1.91260    27.11350
   1.91386    26.91864
   1.91511    26.72458
   1.91637    26.52996
   1.91763    26.33443
   1.91888    26.13866
   1.92014    25.94417
   1.92140    25.75293
   1.92265    25.56689
   1.92391    25.38758
   1.92517    25.21576
   1.92642    25.05129
   1.92768    24.89323
   1.92894    24.74001
   1.93019    24.58986
   1.93145    24.44108
   1.93271    24.29251
   1.93396    24.14375
   1.93522    23.99537
   1.93648    23.84887
   1.93773    23.70656
   1.93899    23.57119
   1.94025    23.44558
   1.94150    23.33225
   1.94276    23.23314
   1.94402    23.14948
   1.94527    23.08174
   1.94653    23.02973
   1.94779    22.99270
   1.94904    22.96945
   1.95030    22.95839
   1.95156    22.95761
   1.95281    22.96492
   1.95407    22.97793
   1.95533    22.99412
   1.95658    23.01097
   1.95784    23.02608
   1.95910    23.03725
   1.96035    23.04262
   1.96161    23.04063
   1.96287    23.03011
   1.96412    23.01022
   1.96538    22.98052
   1.96664    22.94090
   1.96789    22.89171
   1.96915    22.83371
   1.97041    22.76811
   1.97166    22.69643
   1.97292    22.62040
   1.97418    22.54172
   1.97543    22.46185
   1.97669    22.38184
   1.97795    22.30223
   1.97920    22.22299
   1.98046    22.14367
   1.98172    22.06353
   1.98297    21.98173
   1.98423    21.89756
   1.98549    21.81064
   1.98674    21.72105
   1.98800    21.62939
   1.98926    21.53674
   1.99051    21.44450
   1.99177    21.35419
   1.99303    21.26720
   1.99428    21.18454
   1.99554    21.10681
   1.99680    21.03406
   1.99805    20.96591
   1.99931    20.90167
   2.00057    20.84045
   2.00182    20.78136
   2.00308    20.72358
   2.00434    20.66654
   2.00559    20.60987
   2.00685    20.55342
   2.00811    20.49719
   2.00936    20.44121
   2.01062    20.38543
   2.01188    20.32963
   2.01313    20.27336
   2.01439    20.21596
   2.01565    20.15664
   2.01690    20.09454
   2.01816    20.02891
   2.01942    19.95925
   2.02067    19.88542
   2.02193    19.80774
   2.02319    19.72698
   2.02444    19.64433
   2.02570    19.56117
   2.02696    19.47893
   2.02821    19.39881
   2.02947    19.32166
   2.03073    19.24783
   2.03198    19.17721
   2.03324    19.10933
   2.03450    19.04345
   2.03575    18.97874
   2.03701    18.91445
   2.03827    18.85006
   2.03952    18.78532
   2.04078    18.72035
   2.04204    18.65550
   2.04329    18.59132
   2.04455    18.52836
   2.04581    18.46708
   2.04706    18.40765
   2.04832    18.34997
   2.04958    18.29365
   2.05083    18.23806
   2.05209    18.18247
   2.05334    18.12616
   2.05460    18.06854
   2.05586    18.00927
   2.05711    17.94830
   2.05837    17.88590
   2.05963    17.82257
   2.06088    17.75894
   2.06214    17.69561
   2.06340    17.63299
   2.06465    17.57123
   2.06591    17.51015
   2.06717    17.44925
   2.06842    17.38785
   2.06968    17.32516
   2.07094    17.26045
   2.07219    17.19320
   2.07345    17.12321
   2.07471    17.05067
   2.07596    16.97614
   2.07722    16.90050
   2.07848    16.82472
   2.07973    16.74975
   2.08099    16.67630
   2.08225    16.60471
   2.08350    16.53492
   2.08476    16.46651
   2.08602    16.39877
   2.08727    16.33087
   2.08853    16.26203
   2.08979    16.19168
   2.09104    16.11956
   2.09230    16.04584
   2.09356    15.97103
   2.09481    15.89598
   2.09607    15.82164
   2.09733    15.74894
   2.09858    15.67856
   2.09984    15.61086
   2.10110    15.54579
   2.10235    15.48296
   2.10361    15.42172
   2.10487    15.36129
   2.10612    15.30091
   2.10738    15.23998
   2.10864    15.17817
   2.10989    15.11546
   2.11115    15.05213
   2.11241    14.98867
   2.11366    14.92569
   2.11492    14.86372
   2.11618    14.80309
   2.11743    14.74385
   2.11869    14.68576
   2.11995    14.62828
   2.12120    14.57074
   2.12246    14.51238
   2.12372    14.45257
   2.12497    14.39086
   2.12623    14.32715
   2.12749    14.26167
   2.12874    14.19498
   2.13000    14.12786
   2.13126    14.06119
   2.13251    13.99573
   2.13377    13.93201
   2.13503    13.87021
   2.13628    13.81019
   2.13754    13.75148
   2.13880    13.69343
   2.14005    13.63531
   2.14131    13.57646
   2.14257    13.51643
   2.14382    13.45507
   2.14508    13.39256
   2.14634    13.32935
   2.14759    13.26614
   2.14885    13.20364
   2.15011    13.14251
   2.15136    13.08315
   2.15262    13.02567
   2.15388    12.96986
   2.15513    12.91525
   2.15639    12.86119
   2.15765    12.80699
   2.15890    12.75206
   2.16016    12.69599
   2.16142    12.63866
   2.16267    12.58027
   2.16393    12.52126
   2.16519    12.46228
   2.16644    12.40400
   2.16770    12.34698
   2.16896    12.29157
   2.17021    12.23782
   2.17147    12.18550
   2.17273    12.13412
   2.17398    12.08307
   2.17524    12.03171
   2.17650    11.97950
   2.17775    11.92608
   2.17901    11.87142
   2.18027    11.81573
   2.18152    11.75950
   2.18278    11.70337
   2.18404    11.64800
   2.18529    11.59394
   2.18655    11.54151
   2.18781    11.49075
   2.18906    11.44143
   2.19032    11.39308
   2.19158    11.34512
   2.19283    11.29694
   2.19409    11.24805
   2.19534    11.19813
   2.19660    11.14715
   2.19786    11.09531
   2.19911    11.04307
   2.20037    10.99101
   2.20163    10.93970
   2.20288    10.88961
   2.20414    10.84100
   2.20540    10.79384
   2.20665    10.74789
   2.20791    10.70268
   2.20917    10.65765
   2.21042    10.61226
   2.21168    10.56605
   2.21294    10.51877
   2.21419    10.47044
   2.21545    10.42132
   2.21671    10.37187
   2.21796    10.32268
   2.21922    10.27432
   2.22048    10.22726
   2.22173    10.18172
   2.22299    10.13769
   2.22425    10.09494
   2.22550    10.05302
   2.22676    10.01142
   2.22802     9.96963
   2.22927     9.92722
   2.23053     9.88397
   2.23179     9.83987
   2.23304     9.79515
   2.23430     9.75020
   2.23556     9.70551
   2.23681     9.66156
   2.23807     9.61868
   2.23933     9.57703
   2.24058     9.53654
   2.24184     9.49693
   2.24310     9.45777
   2.24435     9.41855
   2.24561     9.37882
   2.24687     9.33823
   2.24812     9.29662
   2.24938     9.25404
   2.25064     9.21079
   2.25189     9.16733
   2.25315     9.12418
   2.25441     9.08184
   2.25566     9.04068
   2.25692     9.00087
   2.25818     8.96235
   2.25943     8.92486
   2.26069     8.88801
   2.26195     8.85132
   2.26320     8.81437
   2.26446     8.77682
   2.26572     8.73851
   2.26697     8.69948
   2.26823     8.65999
   2.26949     8.62042
   2.27074     8.58120
   2.27200     8.54275
   2.27326     8.50535
   2.27451     8.46909
   2.27577     8.43388
   2.27703     8.39945
   2.27828     8.36540
   2.27954     8.33131
   2.28080     8.29677
   2.28205     8.26152
   2.28331     8.22543
   2.28457     8.18862
   2.28582     8.15133
   2.28708     8.11398
   2.28834     8.07702
   2.28959     8.04084
   2.29085     8.00571
   2.29211     7.97173
   2.29336     7.93881
   2.29462     7.90668
   2.29588     7.87497
   2.29713     7.84330
   2.29839     7.81128
   2.29965     7.77867
   2.30090     7.74538
   2.30216     7.71147
   2.30342     7.67720
   2.30467     7.64293
   2.30593     7.60903
   2.30719     7.57583
   2.30844     7.54357
   2.30970     7.51226
   2.31096     7.48181
   2.31221     7.45193
   2.31347     7.42228
   2.31473     7.39247
   2.31598     7.36219
   2.31724     7.33121
   2.31850     7.29950
   2.31975     7.26715
   2.32101     7.23444
   2.32227     7.20174
   2.32352     7.16942
   2.32478     7.13783
   2.32604     7.10715
   2.32729     7.07744
   2.32855     7.04857
   2.32981     7.02028
   2.33106     6.99223
   2.33232     6.96408
   2.33358     6.93551
   2.33483     6.90635
   2.33609     6.87654
   2.33734     6.84621
   2.33860     6.81561
   2.33986     6.78508
   2.34111     6.75496
   2.34237     6.72557
   2.34363     6.69705
   2.34488     6.66943
   2.34614     6.64257
   2.34740     6.61622
   2.34865     6.59007
   2.34991     6.56378
   2.35117     6.53707
   2.35242     6.50980
   2.35368     6.48192
   2.35494     6.45358
   2.35619     6.42501
   2.35745     6.39655
   2.35871     6.36851
   2.35996     6.34115
   2.36122     6.31463
   2.36248     6.28893
   2.36373     6.26392
   2.36499     6.23935
   2.36625     6.21492
   2.36750     6.19032
   2.36876     6.16531
   2.37002     6.13975
   2.37127     6.11364
   2.37253     6.08710
   2.37379     6.06037
   2.37504     6.03376
   2.37630     6.00758
   2.37756     5.98203
   2.37881     5.95726
   2.38007     5.93323
   2.38133     5.90980
   2.38258     5.88673
   2.38384     5.86373
   2.38510     5.84052
   2.38635     5.81688
   2.38761     5.79269
   2.38887     5.76796
   2.39012     5.74283
   2.39138     5.71754
   2.39264     5.69239
   2.39389     5.66764
   2.39515     5.64351
   2.39641     5.62009
   2.39766     5.59735
   2.39892     5.57514
   2.40018     5.55322
   2.40143     5.53131
   2.40269     5.50915
   2.40395     5.48653
   2.40520     5.46336
   2.40646     5.43966
   2.40772     5.41557
   2.40897     5.39133
   2.41023     5.36720
   2.41149     5.34345
   2.41274     5.32025
   2.41400     5.29768
   2.41526     5.27568
   2.41651     5.25409
   2.41777     5.23266
   2.41903     5.21112
   2.42028     5.18923
   2.42154     5.16679
   2.42280     5.14375
   2.42405     5.12013
   2.42531     5.09613
   2.42657     5.07197
   2.42782     5.04797
   2.42908     5.02437
   2.43034     5.00135
   2.43159     4.97899
   2.43285     4.95723
   2.43411     4.93589
   2.43536     4.91475
   2.43662     4.89352
   2.43788     4.87197
   2.43913     4.84993
   2.44039     4.82733
   2.44165     4.80421
   2.44290     4.78076
   2.44416     4.75721
   2.44542     4.73384
   2.44667     4.71089
   2.44793     4.68851
   2.44919     4.66676
   2.45044     4.64556
   2.45170     4.62473
   2.45296     4.60404
   2.45421     4.58321
   2.45547     4.56202
   2.45673     4.54031
   2.45798     4.51802
   2.45924     4.49525
   2.46050     4.47215
   2.46175     4.44898
   2.46301     4.42602
   2.46427     4.40349
   2.46552     4.38155
   2.46678     4.36024
   2.46804     4.33947
   2.46929     4.31906
   2.47055     4.29877
   2.47181     4.27835
   2.47306     4.25756
   2.47432     4.23627
   2.47558     4.21444
   2.47683     4.19214
   2.47809     4.16955
   2.47934     4.14693
   2.48060     4.12452
   2.48186     4.10255
   2.48311     4.08115
   2.48437     4.06034
   2.48563     4.04001
   2.48688     4.01999
   2.48814     4.00002
   2.48940     3.97985
   2.49065     3.95928
   2.49191     3.93817
   2.49317     3.91650
   2.49442     3.89437
   2.49568     3.87195
   2.49694     3.84950
   2.49819     3.82727
   2.49945     3.80548
   2.50071     3.78424
   2.50196     3.76355
   2.50322     3.74329
   2.50448     3.72328
   2.50573     3.70327
   2.50699     3.68300
   2.50825     3.66227
   2.50950     3.64097
   2.51076     3.61908
   2.51202     3.59672
   2.51327     3.57407
   2.51453     3.55141
   2.51579     3.52898
   2.51704     3.50697
   2.51830     3.48551
   2.51956     3.46457
   2.52081     3.44402
   2.52207     3.42367
   2.52333     3.40325
   2.52458     3.38252
   2.52584     3.36127
   2.52710     3.33942
   2.52835     3.31696
   2.52961     3.29403
   2.53087     3.27084
   2.53212     3.24769
   2.53338     3.22483
   2.53464     3.20246
   2.53589     3.18070
   2.53715     3.15952
   2.53841     3.13881
   2.53966     3.11833
   2.54092     3.09784
   2.54218     3.07710
   2.54343     3.05590
   2.54469     3.03415
   2.54595     3.01187
   2.54720     2.98918
   2.54846     2.96631
   2.54972     2.94353
   2.55097     2.92108
   2.55223     2.89916
   2.55349     2.87785
   2.55474     2.85712
   2.55600     2.83684
   2.55726     2.81678
   2.55851     2.79669
   2.55977     2.77633
   2.56103     2.75552
   2.56228     2.73417
   2.56354     2.71230
   2.56480     2.69006
   2.56605     2.66766
   2.56731     2.64536
   2.56857     2.62340
   2.56982     2.60195
   2.57108     2.58108
   2.57234     2.56074
   2.57359     2.54077
   2.57485     2.52096
   2.57611     2.50105
   2.57736     2.48081
   2.57862     2.46006
   2.57988     2.43874
   2.58113     2.41689
   2.58239     2.39464
   2.58365     2.37224
   2.58490     2.34993
   2.58616     2.32794
   2.58742     2.30644
   2.58867     2.28546
   2.58993     2.26495
   2.59119     2.24475
   2.59244     2.22461
   2.59370     2.20428
   2.59496     2.18354
   2.59621     2.16222
   2.59747     2.14029
   2.59873     2.11780
   2.59998     2.09494
   2.60124     2.07196
   2.60250     2.04915
   2.60375     2.02675
   2.60501     2.00493
   2.60627     1.98376
   2.60752     1.96316
   2.60878     1.94298
   2.61004     1.92298
   2.61129     1.90291
   2.61255     1.88255
   2.61381     1.86174
   2.61506     1.84043
   2.61632     1.81868
   2.61757     1.79664
   2.61883     1.77457
   2.62009     1.75271
   2.62134     1.73127
   2.62260     1.71040
   2.62386     1.69013
   2.62511     1.67038
   2.62637     1.65098
   2.62763     1.63169
   2.62888     1.61228
   2.63014     1.59252
   2.63140     1.57229
   2.63265     1.55156
   2.63391     1.53038
   2.63517     1.50896
   2.63642     1.48751
   2.63768     1.46631
   2.63894     1.44555
   2.64019     1.42537
   2.64145     1.40579
   2.64271     1.38674
   2.64396     1.36803
   2.64522     1.34944
   2.64648     1.33075
   2.64773     1.31174
   2.64899     1.29230
   2.65025     1.27240
   2.65150     1.25212
   2.65276     1.23164
   2.65402     1.21117
   2.65527     1.19095
   2.65653     1.17117
   2.65779     1.15195
   2.65904     1.13329
   2.66030     1.11510
   2.66156     1.09720
   2.66281     1.07937
   2.66407     1.06141
   2.66533     1.04311
   2.66658     1.02439
   2.66784     1.00523
   2.66910     0.98573
   2.67035     0.96607
   2.67161     0.94649
   2.67287     0.92722
   2.67412     0.90846
   2.67538     0.89031
   2.67664     0.87278
   2.67789     0.85579
   2.67915     0.83917
   2.68041     0.82273
   2.68166     0.80626
   2.68292     0.78960
   2.68418     0.77264
   2.68543     0.75538
   2.68669     0.73791
   2.68795     0.72037
   2.68920     0.70297
   2.69046     0.68592
   2.69172     0.66935
   2.69297     0.65337
   2.69423     0.63796
   2.69549     0.62304
   2.69674     0.60847
   2.69800     0.59406
   2.69926     0.57963
   2.70051     0.56504
   2.70177     0.55022
   2.70303     0.53516
   2.70428     0.51995
   2.70554     0.50473
   2.70680     0.48968
   2.70805     0.47497
   2.70931     0.46074
   2.71057     0.44705
   2.71182     0.43391
   2.71308     0.42122
   2.71434     0.40888
   2.71559     0.39671
   2.71685     0.38458
   2.71811     0.37236
   2.71936     0.35999
   2.72062     0.34748
   2.72188     0.33489
   2.72313     0.32235
   2.72439     0.30999
   2.72565     0.29797
   2.72690     0.28639
   2.72816     0.27529
   2.72942     0.26467
   2.73067     0.25447
   2.73193     0.24458
   2.73319     0.23487
   2.73444     0.22523
   2.73570     0.21557
   2.73696     0.20584
   2.73821     0.19605
   2.73947     0.18626
   2.74073     0.17657
   2.74198     0.16709
   2.74324     0.15795
   2.74450     0.14922
   2.74575     0.14096
   2.74701     0.13315
   2.74827     0.12576
   2.74952     0.11872
   2.75078     0.11192
   2.75204     0.10530
   2.75329     0.09878
   2.75455     0.09232
   2.75581     0.08592
   2.75706     0.07961
   2.75832     0.07346
   2.75957     0.06753
   2.76083     0.06190
   2.76209     0.05662
   2.76334     0.05173
   2.76460     0.04721
   2.76586     0.04306
   2.76711     0.03923
   2.76837     0.03567
   2.76963     0.03233
   2.77088     0.02917
   2.77214     0.02616
   2.77340     0.02328
   2.77465     0.02056
   2.77591     0.01799
   2.77717     0.01562
   2.77842     0.01347
   2.77968     0.01157
   2.78094     0.00994
   2.78219     0.00858
   2.78345     0.00750
   2.78471     0.00668
   2.78596     0.00613
   2.78722     0.00582
   2.78848     0.00575
   2.78973     0.00589
   2.79099     0.00623
   2.79225     0.00678
   2.79350     0.00752
   2.79476     0.00847
   2.79602     0.00962
   2.79727     0.01101
   2.79853     0.01266
   2.79979     0.01461
   2.80104     0.01689
   2.80230     0.01954
   2.80356     0.02258
   2.80481     0.02605
   2.80607     0.02993
   2.80733     0.03421
   2.80858     0.03883
   2.80984     0.04375
   2.81110     0.04890
   2.81235     0.05421
   2.81361     0.05965
   2.81487     0.06520
   2.81612     0.07089
   2.81738     0.07676
   2.81864     0.08288
   2.81989     0.08934
   2.82115     0.09621
   2.82241     0.10355
   2.82366     0.11138
   2.82492     0.11969
   2.82618     0.12842
   2.82743     0.13747
   2.82869     0.14675
   2.82995     0.15617
   2.83120     0.16566
   2.83246     0.17519
   2.83372     0.18481
   2.83497     0.19460
   2.83623     0.20467
   2.83749     0.21515
   2.83874     0.22617
   2.84000     0.23782
   2.84126     0.25012
   2.84251     0.26306
   2.84377     0.27653
   2.84503     0.29040
   2.84628     0.30449
   2.84754     0.31866
   2.84880     0.33281
   2.85005     0.34688
   2.85131     0.36093
   2.85257     0.37506
   2.85382     0.38944
   2.85508     0.40425
   2.85634     0.41966
   2.85759     0.43581
   2.85885     0.45274
   2.86011     0.47042
   2.86136     0.48873
   2.86262     0.50747
   2.86388     0.52644
   2.86513     0.54545
   2.86639     0.56436
   2.86765     0.58313
   2.86890     0.60183
   2.87016     0.62063
   2.87142     0.63973
   2.87267     0.65938
   2.87393     0.67980
   2.87519     0.70114
   2.87644     0.72345
   2.87770     0.74664
   2.87896     0.77053
   2.88021     0.79484
   2.88147     0.81927
   2.88273     0.84352
   2.88398     0.86740
   2.88524     0.89084
   2.88650     0.91389
   2.88775     0.93673
   2.88901     0.95962
   2.89027     0.98284
   2.89152     1.00667
   2.89278     1.03131
   2.89404     1.05684
   2.89529     1.08321
   2.89655     1.11025
   2.89781     1.13770
   2.89906     1.16527
   2.90032     1.19273
   2.90157     1.21992
   2.90283     1.24682
   2.90409     1.27357
   2.90534     1.30041
   2.90660     1.32768
   2.90786     1.35573
   2.90911     1.38485
   2.91037     1.41523
   2.91163     1.44691
   2.91288     1.47977
   2.91414     1.51350
   2.91540     1.54771
   2.91665     1.58199
   2.91791     1.61595
   2.91917     1.64938
   2.92042     1.68221
   2.92168     1.71457
   2.92294     1.74673
   2.92419     1.77909
   2.92545     1.81206
   2.92671     1.84599
   2.92796     1.88113
   2.92922     1.91754
   2.93048     1.95510
   2.93173     1.99354
   2.93299     2.03245
   2.93425     2.07142
   2.93550     2.11010
   2.93676     2.14832
   2.93802     2.18607
   2.93927     2.22356
   2.94053     2.26117
   2.94179     2.29936
   2.94304     2.33860
   2.94430     2.37926
   2.94556     2.42155
   2.94681     2.46547
   2.94807     2.51074
   2.94933     2.55691
   2.95058     2.60335
   2.95184     2.64946
   2.95310     2.69469
   2.95435     2.73871
   2.95561     2.78144
   2.95687     2.82301
   2.95812     2.86380
   2.95938     2.90428
   2.96064     2.94499
   2.96189     2.98638
   2.96315     3.02876
   2.96441     3.07225
   2.96566     3.11676
   2.96692     3.16200
   2.96818     3.20760
   2.96943     3.25317
   2.97069     3.29843
   2.97195     3.34329
   2.97320     3.38788
   2.97446     3.43255
   2.97572     3.47780
   2.97697     3.52423
   2.97823     3.57238
   2.97949     3.62265
   2.98074     3.67522
   2.98200     3.72994
   2.98326     3.78640
   2.98451     3.84390
   2.98577     3.90162
   2.98703     3.95876
   2.98828     4.01467
   2.98954     4.06893
   2.99080     4.12148
   2.99205     4.17253
   2.99331     4.22256
   2.99457     4.27217
   2.99582     4.32199
   2.99708     4.37256
   2.99834     4.42422
   2.99959     4.47706
   3.00085     4.53091
   3.00211     4.58543
   3.00336     4.64012
   3.00462     4.69456
   3.00588     4.74844
   3.00713     4.80169
   3.00839     4.85452
   3.00965     4.90738
   3.01090     4.96091
   3.01216     5.01579
   3.01342     5.07267
   3.01467     5.13197
   3.01593     5.19387
   3.01719     5.25815
   3.01844     5.32428
   3.01970     5.39147
   3.02096     5.45880
   3.02221     5.52540
   3.02347     5.59062
   3.02473     5.65413
   3.02598     5.71595
   3.02724     5.77646
   3.02850     5.83626
   3.02975     5.89607
   3.03101     5.95661
   3.03227     6.01837
   3.03352     6.08160
   3.03478     6.14618
   3.03604     6.21168
   3.03729     6.27740
   3.03855     6.34252
   3.03981     6.40627
   3.04106     6.46808
   3.04232     6.52769
   3.04357     6.58519
   3.04483     6.64096
   3.04609     6.69568
   3.04734     6.75010
   3.04860     6.80501
   3.04986     6.86111
   3.05111     6.91888
   3.05237     6.97862
   3.05363     7.04038
   3.05488     7.10413
   3.05614     7.16979
   3.05740     7.23743
   3.05865     7.30733
   3.05991     7.38009
   3.06117     7.45658
   3.06242     7.53790
   3.06368     7.62520
   3.06494     7.71950
   3.06619     7.82148
   3.06745     7.93123
   3.06871     8.04813
   3.06996     8.17078
   3.07122     8.29706
   3.07248     8.42438
   3.07373     8.54994
   3.07499     8.67117
   3.07625     8.78601
   3.07750     8.89308
   3.07876     8.99180
   3.08002     9.08229
   3.08127     9.16522
   3.08253     9.24158
   3.08379     9.31251
   3.08504     9.37906
   3.08630     9.44213
   3.08756     9.50230
   3.08881     9.55993
   3.09007     9.61513
   3.09133     9.66792
   3.09258     9.71830
   3.09384     9.76635
   3.09510     9.81234
   3.09635     9.85670
   3.09761     9.89998
   3.09887     9.94284
   3.10012     9.98590
   3.10138    10.02971
   3.10264    10.07462
   3.10389    10.12076
   3.10515    10.16800
   3.10641    10.21600
   3.10766    10.26431
   3.10892    10.31243
   3.11018    10.36001
   3.11143    10.40687
   3.11269    10.45310
   3.11395    10.49905
   3.11520    10.54526
   3.11646    10.59235
   3.11772    10.64089
   3.11897    10.69131
   3.12023    10.74367
   3.12149    10.79769
   3.12274    10.85265
   3.12400    10.90751
   3.12526    10.96109
   3.12651    11.01219
   3.12777    11.05985
   3.12903    11.10338
   3.13028    11.14246
   3.13154    11.17710
   3.13280    11.20755
   3.13405    11.23418
   3.13531    11.25749
   3.13657    11.27795
   3.13782    11.29601
   3.13908    11.31207
   3.14034    11.32646
# </ AnglePotential>
