<?xml version="1.0" encoding="UTF-8"?>
<galamost_xml version="1.3">
<configuration time_step="0" dimensions="3" natoms="40" >
<box lx="3.1427" ly="3.1427" lz="3.1427"/>
<position num="40">
   -1.87465    -2.94305    -3.12955
   -0.96675    -2.46965    -2.08465
   -2.60275    -2.41865    -2.44685
   -2.28405    -0.42685    -1.58035
   -1.75105    -3.02495    -0.84955
   -1.32255    -2.32755    -2.54415
   -0.00265    -0.16115    -0.10885
   -0.09775    -2.09545    -1.13125
   -0.56935    -0.16785    -1.84155
   -2.90665    -2.11445    -0.19295
   -2.12135    -0.95035    -2.80765
   -1.08985    -1.39665    -1.75675
   -0.80165    -1.84525    -2.97575
   -0.56745    -0.59825    -0.65625
   -0.63945    -2.08135    -2.46215
   -1.27135    -1.09215    -1.69065
   -2.40305    -0.56465    -0.94205
   -2.85015    -0.63825    -0.15745
   -3.07145    -1.44045    -1.85495
   -1.39305    -0.19605    -2.93235
   -1.63755    -1.03105    -2.80555
   -3.13105    -2.51385    -1.85105
   -1.58665    -3.00025    -1.32315
   -2.56325    -1.18525    -1.35365
   -0.09395    -1.85445    -0.01325
   -2.38935    -2.24585    -0.11855
   -2.46115    -0.28425    -2.57845
   -2.30185    -3.10735    -1.76475
   -1.43455    -1.04105    -0.95345
   -0.00745    -3.01585    -0.14505
   -0.94225    -0.14675    -0.31505
   -1.83405    -0.61075    -3.03865
   -1.53665    -3.10845    -1.94355
   -0.97395    -1.59155    -3.04215
   -1.05905    -2.18265    -1.00305
   -0.18255    -1.23625    -2.74725
   -0.75275    -2.53725    -2.48265
   -0.95605    -2.17475    -1.60825
   -0.76565    -0.61725    -1.79585
   -0.59375    -1.08425    -1.79895
</position>
<mass num="40">
   22.98980
   22.98980
   22.98980
   22.98980
   22.98980
   22.98980
   22.98980
   22.98980
   22.98980
   22.98980
   22.98980
   22.98980
   22.98980
   22.98980
   22.98980
   22.98980
   22.98980
   22.98980
   22.98980
   22.98980
   35.45300
   35.45300
   35.45300
   35.45300
   35.45300
   35.45300
   35.45300
   35.45300
   35.45300
   35.45300
   35.45300
   35.45300
   35.45300
   35.45300
   35.45300
   35.45300
   35.45300
   35.45300
   35.45300
   35.45300
</mass>
<type num="40">
Na
Na
Na
Na
Na
Na
Na
Na
Na
Na
Na
Na
Na
Na
Na
Na
Na
Na
Na
Na
Cl
Cl
Cl
Cl
Cl
Cl
Cl
Cl
Cl
Cl
Cl
Cl
Cl
Cl
Cl
Cl
Cl
Cl
Cl
Cl
</type>
<charge num="40">
    1.31792
    1.31792
    1.31792
    1.31792
    1.31792
    1.31792
    1.31792
    1.31792
    1.31792
    1.31792
    1.31792
    1.31792
    1.31792
    1.31792
    1.31792
    1.31792
    1.31792
    1.31792
    1.31792
    1.31792
   -1.31792
   -1.31792
   -1.31792
   -1.31792
   -1.31792
   -1.31792
   -1.31792
   -1.31792
   -1.31792
   -1.31792
   -1.31792
   -1.31792
   -1.31792
   -1.31792
   -1.31792
   -1.31792
   -1.31792
   -1.31792
   -1.31792
   -1.31792
</charge>
</configuration>
</galamost_xml>
