NMType = 52
NameMType  = frgm_1.CG, frgm_2.CG, frgm_3.CG, frgm_4.CG, frgm_5.CG, frgm_6.CG, frgm_7.CG, frgm_8.CG, frgm_9.CG, frgm_10.CG, frgm_11.CG, frgm_12.CG, frgm_13.CG, frgm_14.CG, frgm_15.CG, frgm_16.CG, frgm_17.CG, frgm_18.CG, frgm_19.CG, frgm_20.CG, frgm_21.CG, frgm_22.CG, frgm_23.CG, frgm_24.CG, frgm_25.CG, frgm_26.CG, frgm_27.CG, frgm_28.CG, frgm_29.CG, frgm_30.CG, frgm_31.CG, frgm_32.CG, frgm_33.CG, frgm_34.CG, frgm_35.CG, frgm_36.CG, frgm_37.CG, frgm_38.CG, frgm_39.CG, frgm_40.CG, frgm_41.CG, frgm_42.CG, frgm_43.CG, frgm_44.CG, frgm_45.CG, frgm_46.CG, frgm_47.CG, frgm_48.CG, MG.CG, NA.CG, K.CG, CL.CG
NMolMType  = 1, 1, 1, 1, 1, 1, 1, 1, 1, 1, 1, 1, 1, 1, 1, 1, 1, 1, 1, 1, 1, 1, 1, 1, 1, 1, 1, 1, 1, 1, 1, 1, 1, 1, 1, 1, 1, 1, 1, 1, 1, 1, 1, 1, 1, 1, 1, 1, 45, 48, 47, 305
LMoveMType = TRUE
Box = 151.80, 151.80, 151.80
Epsilon = 78.0
TEMP=303.

MCSteps =      100000000,
MCStepsEquil =  30000000,
MCStepAtom = 0.15,0.15,0.15,0.15,0.15,0.15,0.15,0.15,0.15,0.15,0.15,0.15,0.15,0.15,0.15,0.15,0.15,0.15,0.15,0.15,0.15,0.15,0.15,0.15,0.15,0.15,0.15,0.15,0.15,0.15,0.15,0.15,0.15,0.15,0.15,0.15,0.15,0.15,0.15,0.15,0.15,0.15,0.15,0.15,0.15,0.15,0.15,0.15, 10., 10., 10., 10.
MCStepTransMol = 1.0
MCStepRotMol = 0.01
#NMCAutoAdjust = 10
iMCStepTransMol =250
iMCStepRotMol = 300
iCalcEnergy = 100000
RCutEl= 40.
AF = 2.6
FQ = 8.0
RandomSeed=1281966

UseIMC = true
NIter=8
IAverage=500
REGP = 0.300
MaxPotCor=2.0
KeepStructure=False
MaxRelDif=1.0
ProhibPotLevel=1000.0
iPotCorCheck = 25000000
InputStartCoords = 00, 1000
#InputPot=01.Tails_MG_C27.i005.pot
VerboseLevel=5
InputRDF=Tails-Mg.500-2000ns.rdf
#ExclusionSR = exclusions.dat
Output = 01.Tails_MG_C27
DumpLastConf = .true.
#WriteTraj = 100000000

