&Parameters
  TrajFile   = trj.LAMMPS.xtc
  NFORM      = XTC
  STEP      = 1
  NMType     = 52
  NameMType  = frgm_1.CG, frgm_2.CG, frgm_3.CG, frgm_4.CG, frgm_5.CG, frgm_6.CG, frgm_7.CG, frgm_8.CG, frgm_9.CG, frgm_10.CG, frgm_11.CG, frgm_12.CG, frgm_13.CG, frgm_14.CG, frgm_15.CG, frgm_16.CG, frgm_17.CG, frgm_18.CG, frgm_19.CG, frgm_20.CG, frgm_21.CG, frgm_22.CG, frgm_23.CG, frgm_24.CG, frgm_25.CG, frgm_26.CG, frgm_27.CG, frgm_28.CG, frgm_29.CG, frgm_30.CG, frgm_31.CG, frgm_32.CG, frgm_33.CG, frgm_34.CG, frgm_35.CG, frgm_36.CG, frgm_37.CG, frgm_38.CG, frgm_39.CG, frgm_40.CG, frgm_41.CG, frgm_42.CG, frgm_43.CG, frgm_44.CG, frgm_45.CG, frgm_46.CG, frgm_47.CG, frgm_48.CG, MG.CG, NA.CG, K.CG, CL.CG, 
  NMolMType  = 1, 1, 1, 1, 1, 1, 1, 1, 1, 1, 1, 1, 1, 1, 1, 1, 1, 1, 1, 1, 1, 1, 1, 1, 1, 1, 1, 1, 1, 1, 1, 1, 1, 1, 1, 1, 1, 1, 1, 1, 1, 1, 1, 1, 1, 1, 1, 1, 45, 48, 47, 305
  OutputFile = Repro.LAMMPS.rdf
  RMaxNB     = 25.
  RMaxB      = 25.
  ResolNB    = 0.2
  ResolB     = 0.02
  ResolA     = 1
  NPairBondsExclude = 1
  NAngleBondsExclude = 1
&ENDParameters
&CGTypes
POL: HSE4_1 SER3_2 SER6_3 THR3_4 GLN5_4 THR6_4 THR2_5 SER2_6 SER3_6 THR8_6 HSE5_7 HSE5_8 HSE6_9 GLN8_10 THR4_11 HSE1_13 GLN8_13 SER6_14 THR4_15 SER6_15 SER7_15 THR4_16 THR6_16 GLN7_16 HSE7_17 THR5_19 THR7_19 GLN8_19 SER2_22 THR6_22 THR2_23 GLN3_23 THR2_24 GLN3_24 SER5_25 THR4_26 SER6_26 SER7_26 GLN4_27 THR7_27 GLN3_28 GLN4_28 THR7_28 HSE8_28 GLN1_29 THR4_29 HSE2_30 HSE2_31 HSE6_31 HSE2_32 SER3_33 SER3_34 THR4_34 SER1_35 SER1_36 THR5_36 SER1_37 SER1_38 GLN6_38 SER1_39 HSE7_39 SER1_40 SER1_41 HSE3_41 GLN6_41 SER1_42 SER2_42 SER4_42 SER7_42 THR1_43 SER3_43 SER4_43 SER6_43 THR1_44 SER6_44 THR1_45 THR3_45 GLN4_45 THR6_46 HSE6_47 SER5_48
NPL: ALA1_1 VAL7_1 LEU8_1 ALA1_2 ALA4_2 PRO5_2 ALA6_2 PRO7_2 ALA1_3 PRO2_3 ALA1_4 ALA7_4 ALA1_5 VAL5_5 PRO8_5 PRO5_6 ALA2_7 VAL8_7 ALA2_8 VAL8_8 ALA3_9 ALA4_10 PRO5_10 ALA6_11 ALA8_11 LEU4_12 VAL4_13 LEU5_13 ALA2_14 ALA3_14 ALA7_14 PRO8_14 ALA2_15 ALA2_16 VAL3_16 LEU6_17 LEU6_18 ALA3_19 VAL4_19 ALA3_22 PRO4_22 ALA5_22 PRO1_25 ALA8_25 PRO1_26 PRO1_27 LEU5_27 ALA6_27 PRO1_28 LEU5_28 ALA6_28 LEU2_29 ALA3_29 PRO6_29 VAL5_30 LEU6_30 ALA7_31 VAL5_32 LEU6_32 ALA4_33 PRO5_33 ALA7_33 ALA8_33 ALA8_34 ALA2_35 PRO3_35 ALA4_35 PRO5_35 ALA2_36 PRO3_36 ALA4_36 VAL8_36 ALA4_39 PRO5_39 ALA4_40 PRO5_40 ALA5_42 ALA7_43 VAL3_44 VAL4_44 ALA7_44 LEU8_44 VAL1_46 PRO4_46 ALA5_46 VAL1_47 LEU2_47 VAL1_48 LEU2_48
POS: LYS2_1 ARG3_1 ARG5_1 LYS6_1 LYS2_2 LYS8_2 LYS3_3 LYS4_3 LYS7_3 LYS8_3 ARG2_4 LYS4_4 ARG8_4 LYS6_5 LYS7_5 LYS4_6 LYS6_6 LYS7_6 LYS3_7 ARG4_7 ARG6_7 LYS3_8 ARG4_8 ARG6_8 LYS7_8 LYS4_9 ARG5_9 ARG7_9 LYS8_9 LYS3_10 ARG6_10 LYS7_10 LYS3_11 ARG5_11 LYS7_11 LYS2_12 LYS6_12 ARG2_13 LYS3_13 ARG6_13 LYS1_14 ARG4_14 LYS5_14 LYS1_15 LYS3_15 ARG5_15 ARG8_15 LYS1_16 LYS5_16 LYS8_16 LYS1_17 LYS8_17 LYS1_18 LYS4_18 LYS8_18 LYS1_19 LYS2_19 LYS6_19 LYS1_20 LYS2_20 LYS5_20 ARG7_20 ARG8_20 LYS1_21 LYS2_21 LYS5_21 LYS6_21 ARG7_21 ARG8_21 LYS1_22 ARG8_22 LYS1_23 LYS5_23 LYS8_23 LYS1_24 LYS4_24 LYS5_24 LYS8_24 LYS2_25 LYS3_25 LYS6_25 LYS7_25 LYS2_26 LYS3_26 LYS8_26 ARG2_27 LYS3_27 LYS8_27 ARG2_28 LYS5_29 ARG7_29 LYS8_29 ARG1_30 LYS4_30 ARG7_30 ARG1_31 ARG3_31 LYS4_31 LYS8_31 ARG1_32 ARG3_32 LYS4_32 ARG7_32 ARG1_33 LYS2_33 LYS6_33 ARG1_34 LYS2_34 LYS7_34 LYS6_35 LYS7_35 ARG7_36 ARG3_37 LYS5_37 LYS8_37 ARG3_38 LYS5_38 LYS2_39 LYS6_39 LYS2_40 LYS3_40 LYS6_40 LYS7_40 ARG2_41 LYS5_41 LYS3_42 LYS6_42 LYS8_42 LYS5_43 LYS8_43 LYS5_44 LYS2_45 LYS5_45 LYS6_45 LYS2_46 LYS3_46 ARG3_47 ARG5_47 LYS8_47 ARG3_48 ARG7_48
NEG: GLU1_6 ASP7_7 ASP7_13 GLU4_17 ASP3_20 GLU6_20 ASP3_21 GLU4_23 ASP6_23 ASP6_24 GLU5_26 GLU3_30 ASP8_30 ASP8_32 ASP3_39 GLU2_43 GLU2_44 ASP7_45 ASP4_47 GLU7_47 ASP4_48
GLY: GLY5_3 GLY3_5 GLY4_5 GLY1_7 GLY1_8 GLY1_9 GLY2_9 GLY1_10 GLY2_10 GLY1_11 GLY2_11 GLY1_12 GLY3_12 GLY5_12 GLY7_12 GLY8_12 GLY2_17 GLY3_17 GLY5_17 GLY2_18 GLY3_18 GLY5_18 GLY7_18 GLY4_20 GLY4_21 GLY7_22 GLY7_23 GLY7_24 GLY4_25 GLY5_31 GLY5_34 GLY6_34 GLY8_35 GLY6_36 GLY2_37 GLY4_37 GLY6_37 GLY7_37 GLY2_38 GLY4_38 GLY7_38 GLY8_38 GLY8_39 GLY8_40 GLY4_41 GLY7_41 GLY8_41 GLY8_45 GLY7_46 GLY8_46 GLY6_48 GLY8_48
MG:MG
NA:NA
K:K
CL:CL
&ENDCGTypes
&RDFsNB
Add: POL--POL
Add: POL--NPL
Add: POL--POS
Add: POL--NEG
Add: POL--GLY
Add: POL--MG
Add: POL--K
Add: POL--NA
Add: POL--CL
Add: NPL--NPL
Add: NPL--POS
Add: NPL--NEG
Add: NPL--GLY
Add: NPL--MG
Add: NPL--K
Add: NPL--NA
Add: NPL--CL
Add: POS--POS
Add: POS--NEG
Add: POS--GLY
Add: POS--MG
Add: POS--K
Add: POS--NA
Add: POS--CL
Add: NEG--NEG
Add: NEG--GLY
Add: NEG--MG
Add: NEG--K
Add: NEG--NA
Add: NEG--CL
Add: GLY--GLY
Add: GLY--K
Add: GLY--MG
Add: GLY--NA
Add: GLY--CL
Add: MG--MG
Add: MG--K
Add: MG--NA
Add: MG--CL
Add: K--K
Add: K--NA
Add: K--CL
Add: NA--NA
Add: NA--CL
Add: CL--CL
&EndRDFsNB
&RDFsB
add: frgm_1.CG: 1: ALA1_1 LYS2_1, LYS2_1 ARG3_1, ARG3_1 HSE4_1, HSE4_1 ARG5_1, ARG5_1 LYS6_1, LYS6_1 VAL7_1, VAL7_1 LEU8_1
add: frgm_2.CG: 1: ALA1_2 LYS2_2, LYS2_2 SER3_2, SER3_2 ALA4_2, ALA4_2 PRO5_2, PRO5_2 ALA6_2, ALA6_2 PRO7_2, PRO7_2 LYS8_2
add: frgm_3.CG: 1: ALA1_3 PRO2_3, PRO2_3 LYS3_3, LYS3_3 LYS4_3, LYS4_3 GLY5_3, GLY5_3 SER6_3, SER6_3 LYS7_3, LYS7_3 LYS8_3
add: frgm_4.CG: 1: ALA1_4 ARG2_4, ARG2_4 THR3_4, THR3_4 LYS4_4, LYS4_4 GLN5_4, GLN5_4 THR6_4, THR6_4 ALA7_4, ALA7_4 ARG8_4
add: frgm_5.CG: 1: ALA1_5 THR2_5, THR2_5 GLY3_5, GLY3_5 GLY4_5, GLY4_5 VAL5_5, VAL5_5 LYS6_5, LYS6_5 LYS7_5, LYS7_5 PRO8_5
add: frgm_6.CG: 1: GLU1_6 SER2_6, SER2_6 SER3_6, SER3_6 LYS4_6, LYS4_6 PRO5_6, PRO5_6 LYS6_6, LYS6_6 LYS7_6, LYS7_6 THR8_6
add: frgm_7.CG: 1: GLY1_7 ALA2_7, ALA2_7 LYS3_7, LYS3_7 ARG4_7, ARG4_7 HSE5_7, HSE5_7 ARG6_7, ARG6_7 ASP7_7, ASP7_7 VAL8_7
add: frgm_8.CG: 1: GLY1_8 ALA2_8, ALA2_8 LYS3_8, LYS3_8 ARG4_8, ARG4_8 HSE5_8, HSE5_8 ARG6_8, ARG6_8 LYS7_8, LYS7_8 VAL8_8
add: frgm_9.CG: 1: GLY1_9 GLY2_9, GLY2_9 ALA3_9, ALA3_9 LYS4_9, LYS4_9 ARG5_9, ARG5_9 HSE6_9, HSE6_9 ARG7_9, ARG7_9 LYS8_9
add: frgm_10.CG: 1: GLY1_10 GLY2_10, GLY2_10 LYS3_10, LYS3_10 ALA4_10, ALA4_10 PRO5_10, PRO5_10 ARG6_10, ARG6_10 LYS7_10, LYS7_10 GLN8_10
add: frgm_11.CG: 1: GLY1_11 GLY2_11, GLY2_11 LYS3_11, LYS3_11 THR4_11, THR4_11 ARG5_11, ARG5_11 ALA6_11, ALA6_11 LYS7_11, LYS7_11 ALA8_11
add: frgm_12.CG: 1: GLY1_12 LYS2_12, LYS2_12 GLY3_12, GLY3_12 LEU4_12, LEU4_12 GLY5_12, GLY5_12 LYS6_12, LYS6_12 GLY7_12, GLY7_12 GLY8_12
add: frgm_13.CG: 1: HSE1_13 ARG2_13, ARG2_13 LYS3_13, LYS3_13 VAL4_13, VAL4_13 LEU5_13, LEU5_13 ARG6_13, ARG6_13 ASP7_13, ASP7_13 GLN8_13
add: frgm_14.CG: 1: LYS1_14 ALA2_14, ALA2_14 ALA3_14, ALA3_14 ARG4_14, ARG4_14 LYS5_14, LYS5_14 SER6_14, SER6_14 ALA7_14, ALA7_14 PRO8_14
add: frgm_15.CG: 1: LYS1_15 ALA2_15, ALA2_15 LYS3_15, LYS3_15 THR4_15, THR4_15 ARG5_15, ARG5_15 SER6_15, SER6_15 SER7_15, SER7_15 ARG8_15
add: frgm_16.CG: 1: LYS1_16 ALA2_16, ALA2_16 VAL3_16, VAL3_16 THR4_16, THR4_16 LYS5_16, LYS5_16 THR6_16, THR6_16 GLN7_16, GLN7_16 LYS8_16
add: frgm_17.CG: 1: LYS1_17 GLY2_17, GLY2_17 GLY3_17, GLY3_17 GLU4_17, GLU4_17 GLY5_17, GLY5_17 LEU6_17, LEU6_17 HSE7_17, HSE7_17 LYS8_17
add: frgm_18.CG: 1: LYS1_18 GLY2_18, GLY2_18 GLY3_18, GLY3_18 LYS4_18, LYS4_18 GLY5_18, GLY5_18 LEU6_18, LEU6_18 GLY7_18, GLY7_18 LYS8_18
add: frgm_19.CG: 1: LYS1_19 LYS2_19, LYS2_19 ALA3_19, ALA3_19 VAL4_19, VAL4_19 THR5_19, THR5_19 LYS6_19, LYS6_19 THR7_19, THR7_19 GLN8_19
add: frgm_20.CG: 1: LYS1_20 LYS2_20, LYS2_20 ASP3_20, ASP3_20 GLY4_20, GLY4_20 LYS5_20, LYS5_20 GLU6_20, GLU6_20 ARG7_20, ARG7_20 ARG8_20
add: frgm_21.CG: 1: LYS1_21 LYS2_21, LYS2_21 ASP3_21, ASP3_21 GLY4_21, GLY4_21 LYS5_21, LYS5_21 LYS6_21, LYS6_21 ARG7_21, ARG7_21 ARG8_21
add: frgm_22.CG: 1: LYS1_22 SER2_22, SER2_22 ALA3_22, ALA3_22 PRO4_22, PRO4_22 ALA5_22, ALA5_22 THR6_22, THR6_22 GLY7_22, GLY7_22 ARG8_22
add: frgm_23.CG: 1: LYS1_23 THR2_23, THR2_23 GLN3_23, GLN3_23 GLU4_23, GLU4_23 LYS5_23, LYS5_23 ASP6_23, ASP6_23 GLY7_23, GLY7_23 LYS8_23
add: frgm_24.CG: 1: LYS1_24 THR2_24, THR2_24 GLN3_24, GLN3_24 LYS4_24, LYS4_24 LYS5_24, LYS5_24 ASP6_24, ASP6_24 GLY7_24, GLY7_24 LYS8_24
add: frgm_25.CG: 1: PRO1_25 LYS2_25, LYS2_25 LYS3_25, LYS3_25 GLY4_25, GLY4_25 SER5_25, SER5_25 LYS6_25, LYS6_25 LYS7_25, LYS7_25 ALA8_25
add: frgm_26.CG: 1: PRO1_26 LYS2_26, LYS2_26 LYS3_26, LYS3_26 THR4_26, THR4_26 GLU5_26, GLU5_26 SER6_26, SER6_26 SER7_26, SER7_26 LYS8_26
add: frgm_27.CG: 1: PRO1_27 ARG2_27, ARG2_27 LYS3_27, LYS3_27 GLN4_27, GLN4_27 LEU5_27, LEU5_27 ALA6_27, ALA6_27 THR7_27, THR7_27 LYS8_27
add: frgm_28.CG: 1: PRO1_28 ARG2_28, ARG2_28 GLN3_28, GLN3_28 GLN4_28, GLN4_28 LEU5_28, LEU5_28 ALA6_28, ALA6_28 THR7_28, THR7_28 HSE8_28
add: frgm_29.CG: 1: GLN1_29 LEU2_29, LEU2_29 ALA3_29, ALA3_29 THR4_29, THR4_29 LYS5_29, LYS5_29 PRO6_29, PRO6_29 ARG7_29, ARG7_29 LYS8_29
add: frgm_30.CG: 1: ARG1_30 HSE2_30, HSE2_30 GLU3_30, GLU3_30 LYS4_30, LYS4_30 VAL5_30, VAL5_30 LEU6_30, LEU6_30 ARG7_30, ARG7_30 ASP8_30
add: frgm_31.CG: 1: ARG1_31 HSE2_31, HSE2_31 ARG3_31, ARG3_31 LYS4_31, LYS4_31 GLY5_31, GLY5_31 HSE6_31, HSE6_31 ALA7_31, ALA7_31 LYS8_31
add: frgm_32.CG: 1: ARG1_32 HSE2_32, HSE2_32 ARG3_32, ARG3_32 LYS4_32, LYS4_32 VAL5_32, VAL5_32 LEU6_32, LEU6_32 ARG7_32, ARG7_32 ASP8_32
add: frgm_33.CG: 1: ARG1_33 LYS2_33, LYS2_33 SER3_33, SER3_33 ALA4_33, ALA4_33 PRO5_33, PRO5_33 LYS6_33, LYS6_33 ALA7_33, ALA7_33 ALA8_33
add: frgm_34.CG: 1: ARG1_34 LYS2_34, LYS2_34 SER3_34, SER3_34 THR4_34, THR4_34 GLY5_34, GLY5_34 GLY6_34, GLY6_34 LYS7_34, LYS7_34 ALA8_34
add: frgm_35.CG: 1: SER1_35 ALA2_35, ALA2_35 PRO3_35, PRO3_35 ALA4_35, ALA4_35 PRO5_35, PRO5_35 LYS6_35, LYS6_35 LYS7_35, LYS7_35 GLY8_35
add: frgm_36.CG: 1: SER1_36 ALA2_36, ALA2_36 PRO3_36, PRO3_36 ALA4_36, ALA4_36 THR5_36, THR5_36 GLY6_36, GLY6_36 ARG7_36, ARG7_36 VAL8_36
add: frgm_37.CG: 1: SER1_37 GLY2_37, GLY2_37 ARG3_37, ARG3_37 GLY4_37, GLY4_37 LYS5_37, LYS5_37 GLY6_37, GLY6_37 GLY7_37, GLY7_37 LYS8_37
add: frgm_38.CG: 1: SER1_38 GLY2_38, GLY2_38 ARG3_38, ARG3_38 GLY4_38, GLY4_38 LYS5_38, LYS5_38 GLN6_38, GLN6_38 GLY7_38, GLY7_38 GLY8_38
add: frgm_39.CG: 1: SER1_39 LYS2_39, LYS2_39 ASP3_39, ASP3_39 ALA4_39, ALA4_39 PRO5_39, PRO5_39 LYS6_39, LYS6_39 HSE7_39, HSE7_39 GLY8_39
add: frgm_40.CG: 1: SER1_40 LYS2_40, LYS2_40 LYS3_40, LYS3_40 ALA4_40, ALA4_40 PRO5_40, PRO5_40 LYS6_40, LYS6_40 LYS7_40, LYS7_40 GLY8_40
add: frgm_41.CG: 1: SER1_41 ARG2_41, ARG2_41 HSE3_41, HSE3_41 GLY4_41, GLY4_41 LYS5_41, LYS5_41 GLN6_41, GLN6_41 GLY7_41, GLY7_41 GLY8_41
add: frgm_42.CG: 1: SER1_42 SER2_42, SER2_42 LYS3_42, LYS3_42 SER4_42, SER4_42 ALA5_42, ALA5_42 LYS6_42, LYS6_42 SER7_42, SER7_42 LYS8_42
add: frgm_43.CG: 1: THR1_43 GLU2_43, GLU2_43 SER3_43, SER3_43 SER4_43, SER4_43 LYS5_43, LYS5_43 SER6_43, SER6_43 ALA7_43, ALA7_43 LYS8_43
add: frgm_44.CG: 1: THR1_44 GLU2_44, GLU2_44 VAL3_44, VAL3_44 VAL4_44, VAL4_44 LYS5_44, LYS5_44 SER6_44, SER6_44 ALA7_44, ALA7_44 LEU8_44
add: frgm_45.CG: 1: THR1_45 LYS2_45, LYS2_45 THR3_45, THR3_45 GLN4_45, GLN4_45 LYS5_45, LYS5_45 LYS6_45, LYS6_45 ASP7_45, ASP7_45 GLY8_45
add: frgm_46.CG: 1: VAL1_46 LYS2_46, LYS2_46 LYS3_46, LYS3_46 PRO4_46, PRO4_46 ALA5_46, ALA5_46 THR6_46, THR6_46 GLY7_46, GLY7_46 GLY8_46
add: frgm_47.CG: 1: VAL1_47 LEU2_47, LEU2_47 ARG3_47, ARG3_47 ASP4_47, ASP4_47 ARG5_47, ARG5_47 HSE6_47, HSE6_47 GLU7_47, GLU7_47 LYS8_47
add: frgm_48.CG: 1: VAL1_48 LEU2_48, LEU2_48 ARG3_48, ARG3_48 ASP4_48, ASP4_48 SER5_48, SER5_48 GLY6_48, GLY6_48 ARG7_48, ARG7_48 GLY8_48
&EndRDFsB
&RDFsA
add: frgm_1.CG: 4: ALA1_1 LYS2_1 ARG3_1, LYS2_1 ARG3_1 HSE4_1, ARG3_1 HSE4_1 ARG5_1, HSE4_1 ARG5_1 LYS6_1, ARG5_1 LYS6_1 VAL7_1, LYS6_1 VAL7_1 LEU8_1
add: frgm_2.CG: 2: ALA4_2 PRO5_2 ALA6_2, ALA6_2 PRO7_2 LYS8_2
add: frgm_2.CG: 4: ALA1_2 LYS2_2 SER3_2, LYS2_2 SER3_2 ALA4_2, SER3_2 ALA4_2 PRO5_2, PRO5_2 ALA6_2 PRO7_2
add: frgm_3.CG: 2: ALA1_3 PRO2_3 LYS3_3
add: frgm_3.CG: 3: LYS4_3 GLY5_3 SER6_3
add: frgm_3.CG: 4: PRO2_3 LYS3_3 LYS4_3, LYS3_3 LYS4_3 GLY5_3, GLY5_3 SER6_3 LYS7_3, SER6_3 LYS7_3 LYS8_3
add: frgm_4.CG: 4: ALA1_4 ARG2_4 THR3_4, ARG2_4 THR3_4 LYS4_4, THR3_4 LYS4_4 GLN5_4, LYS4_4 GLN5_4 THR6_4, GLN5_4 THR6_4 ALA7_4, THR6_4 ALA7_4 ARG8_4
add: frgm_5.CG: 3: THR2_5 GLY3_5 GLY4_5, GLY3_5 GLY4_5 VAL5_5
add: frgm_5.CG: 4: ALA1_5 THR2_5 GLY3_5, GLY4_5 VAL5_5 LYS6_5, VAL5_5 LYS6_5 LYS7_5, LYS6_5 LYS7_5 PRO8_5
add: frgm_6.CG: 2: LYS4_6 PRO5_6 LYS6_6
add: frgm_6.CG: 4: GLU1_6 SER2_6 SER3_6, SER2_6 SER3_6 LYS4_6, SER3_6 LYS4_6 PRO5_6, PRO5_6 LYS6_6 LYS7_6, LYS6_6 LYS7_6 THR8_6
add: frgm_7.CG: 4: GLY1_7 ALA2_7 LYS3_7, ALA2_7 LYS3_7 ARG4_7, LYS3_7 ARG4_7 HSE5_7, ARG4_7 HSE5_7 ARG6_7, HSE5_7 ARG6_7 ASP7_7, ARG6_7 ASP7_7 VAL8_7
add: frgm_8.CG: 4: GLY1_8 ALA2_8 LYS3_8, ALA2_8 LYS3_8 ARG4_8, LYS3_8 ARG4_8 HSE5_8, ARG4_8 HSE5_8 ARG6_8, HSE5_8 ARG6_8 LYS7_8, ARG6_8 LYS7_8 VAL8_8
add: frgm_9.CG: 3: GLY1_9 GLY2_9 ALA3_9
add: frgm_9.CG: 4: GLY2_9 ALA3_9 LYS4_9, ALA3_9 LYS4_9 ARG5_9, LYS4_9 ARG5_9 HSE6_9, ARG5_9 HSE6_9 ARG7_9, HSE6_9 ARG7_9 LYS8_9
add: frgm_10.CG: 2: ALA4_10 PRO5_10 ARG6_10
add: frgm_10.CG: 3: GLY1_10 GLY2_10 LYS3_10
add: frgm_10.CG: 4: GLY2_10 LYS3_10 ALA4_10, LYS3_10 ALA4_10 PRO5_10, PRO5_10 ARG6_10 LYS7_10, ARG6_10 LYS7_10 GLN8_10
add: frgm_11.CG: 3: GLY1_11 GLY2_11 LYS3_11
add: frgm_11.CG: 4: GLY2_11 LYS3_11 THR4_11, LYS3_11 THR4_11 ARG5_11, THR4_11 ARG5_11 ALA6_11, ARG5_11 ALA6_11 LYS7_11, ALA6_11 LYS7_11 ALA8_11
add: frgm_12.CG: 3: LYS2_12 GLY3_12 LEU4_12, LEU4_12 GLY5_12 LYS6_12, LYS6_12 GLY7_12 GLY8_12
add: frgm_12.CG: 4: GLY1_12 LYS2_12 GLY3_12, GLY3_12 LEU4_12 GLY5_12, GLY5_12 LYS6_12 GLY7_12
add: frgm_13.CG: 4: HSE1_13 ARG2_13 LYS3_13, ARG2_13 LYS3_13 VAL4_13, LYS3_13 VAL4_13 LEU5_13, VAL4_13 LEU5_13 ARG6_13, LEU5_13 ARG6_13 ASP7_13, ARG6_13 ASP7_13 GLN8_13
add: frgm_14.CG: 4: LYS1_14 ALA2_14 ALA3_14, ALA2_14 ALA3_14 ARG4_14, ALA3_14 ARG4_14 LYS5_14, ARG4_14 LYS5_14 SER6_14, LYS5_14 SER6_14 ALA7_14, SER6_14 ALA7_14 PRO8_14
add: frgm_15.CG: 4: LYS1_15 ALA2_15 LYS3_15, ALA2_15 LYS3_15 THR4_15, LYS3_15 THR4_15 ARG5_15, THR4_15 ARG5_15 SER6_15, ARG5_15 SER6_15 SER7_15, SER6_15 SER7_15 ARG8_15
add: frgm_16.CG: 4: LYS1_16 ALA2_16 VAL3_16, ALA2_16 VAL3_16 THR4_16, VAL3_16 THR4_16 LYS5_16, THR4_16 LYS5_16 THR6_16, LYS5_16 THR6_16 GLN7_16, THR6_16 GLN7_16 LYS8_16
add: frgm_17.CG: 3: LYS1_17 GLY2_17 GLY3_17, GLY2_17 GLY3_17 GLU4_17, GLU4_17 GLY5_17 LEU6_17
add: frgm_17.CG: 4: GLY3_17 GLU4_17 GLY5_17, GLY5_17 LEU6_17 HSE7_17, LEU6_17 HSE7_17 LYS8_17
add: frgm_18.CG: 3: LYS1_18 GLY2_18 GLY3_18, GLY2_18 GLY3_18 LYS4_18, LYS4_18 GLY5_18 LEU6_18, LEU6_18 GLY7_18 LYS8_18
add: frgm_18.CG: 4: GLY3_18 LYS4_18 GLY5_18, GLY5_18 LEU6_18 GLY7_18
add: frgm_19.CG: 4: LYS1_19 LYS2_19 ALA3_19, LYS2_19 ALA3_19 VAL4_19, ALA3_19 VAL4_19 THR5_19, VAL4_19 THR5_19 LYS6_19, THR5_19 LYS6_19 THR7_19, LYS6_19 THR7_19 GLN8_19
add: frgm_20.CG: 3: ASP3_20 GLY4_20 LYS5_20
add: frgm_20.CG: 4: LYS1_20 LYS2_20 ASP3_20, LYS2_20 ASP3_20 GLY4_20, GLY4_20 LYS5_20 GLU6_20, LYS5_20 GLU6_20 ARG7_20, GLU6_20 ARG7_20 ARG8_20
add: frgm_21.CG: 3: ASP3_21 GLY4_21 LYS5_21
add: frgm_21.CG: 4: LYS1_21 LYS2_21 ASP3_21, LYS2_21 ASP3_21 GLY4_21, GLY4_21 LYS5_21 LYS6_21, LYS5_21 LYS6_21 ARG7_21, LYS6_21 ARG7_21 ARG8_21
add: frgm_22.CG: 2: ALA3_22 PRO4_22 ALA5_22
add: frgm_22.CG: 3: THR6_22 GLY7_22 ARG8_22
add: frgm_22.CG: 4: LYS1_22 SER2_22 ALA3_22, SER2_22 ALA3_22 PRO4_22, PRO4_22 ALA5_22 THR6_22, ALA5_22 THR6_22 GLY7_22
add: frgm_23.CG: 3: ASP6_23 GLY7_23 LYS8_23
add: frgm_23.CG: 4: LYS1_23 THR2_23 GLN3_23, THR2_23 GLN3_23 GLU4_23, GLN3_23 GLU4_23 LYS5_23, GLU4_23 LYS5_23 ASP6_23, LYS5_23 ASP6_23 GLY7_23
add: frgm_24.CG: 3: ASP6_24 GLY7_24 LYS8_24
add: frgm_24.CG: 4: LYS1_24 THR2_24 GLN3_24, THR2_24 GLN3_24 LYS4_24, GLN3_24 LYS4_24 LYS5_24, LYS4_24 LYS5_24 ASP6_24, LYS5_24 ASP6_24 GLY7_24
add: frgm_25.CG: 3: LYS3_25 GLY4_25 SER5_25
add: frgm_25.CG: 4: PRO1_25 LYS2_25 LYS3_25, LYS2_25 LYS3_25 GLY4_25, GLY4_25 SER5_25 LYS6_25, SER5_25 LYS6_25 LYS7_25, LYS6_25 LYS7_25 ALA8_25
add: frgm_26.CG: 4: PRO1_26 LYS2_26 LYS3_26, LYS2_26 LYS3_26 THR4_26, LYS3_26 THR4_26 GLU5_26, THR4_26 GLU5_26 SER6_26, GLU5_26 SER6_26 SER7_26, SER6_26 SER7_26 LYS8_26
add: frgm_27.CG: 4: PRO1_27 ARG2_27 LYS3_27, ARG2_27 LYS3_27 GLN4_27, LYS3_27 GLN4_27 LEU5_27, GLN4_27 LEU5_27 ALA6_27, LEU5_27 ALA6_27 THR7_27, ALA6_27 THR7_27 LYS8_27
add: frgm_28.CG: 4: PRO1_28 ARG2_28 GLN3_28, ARG2_28 GLN3_28 GLN4_28, GLN3_28 GLN4_28 LEU5_28, GLN4_28 LEU5_28 ALA6_28, LEU5_28 ALA6_28 THR7_28, ALA6_28 THR7_28 HSE8_28
add: frgm_29.CG: 2: LYS5_29 PRO6_29 ARG7_29
add: frgm_29.CG: 4: GLN1_29 LEU2_29 ALA3_29, LEU2_29 ALA3_29 THR4_29, ALA3_29 THR4_29 LYS5_29, THR4_29 LYS5_29 PRO6_29, PRO6_29 ARG7_29 LYS8_29
add: frgm_30.CG: 4: ARG1_30 HSE2_30 GLU3_30, HSE2_30 GLU3_30 LYS4_30, GLU3_30 LYS4_30 VAL5_30, LYS4_30 VAL5_30 LEU6_30, VAL5_30 LEU6_30 ARG7_30, LEU6_30 ARG7_30 ASP8_30
add: frgm_31.CG: 3: LYS4_31 GLY5_31 HSE6_31
add: frgm_31.CG: 4: ARG1_31 HSE2_31 ARG3_31, HSE2_31 ARG3_31 LYS4_31, ARG3_31 LYS4_31 GLY5_31, GLY5_31 HSE6_31 ALA7_31, HSE6_31 ALA7_31 LYS8_31
add: frgm_32.CG: 4: ARG1_32 HSE2_32 ARG3_32, HSE2_32 ARG3_32 LYS4_32, ARG3_32 LYS4_32 VAL5_32, LYS4_32 VAL5_32 LEU6_32, VAL5_32 LEU6_32 ARG7_32, LEU6_32 ARG7_32 ASP8_32
add: frgm_33.CG: 2: ALA4_33 PRO5_33 LYS6_33
add: frgm_33.CG: 4: ARG1_33 LYS2_33 SER3_33, LYS2_33 SER3_33 ALA4_33, SER3_33 ALA4_33 PRO5_33, PRO5_33 LYS6_33 ALA7_33, LYS6_33 ALA7_33 ALA8_33
add: frgm_34.CG: 3: THR4_34 GLY5_34 GLY6_34, GLY5_34 GLY6_34 LYS7_34
add: frgm_34.CG: 4: ARG1_34 LYS2_34 SER3_34, LYS2_34 SER3_34 THR4_34, SER3_34 THR4_34 GLY5_34, GLY6_34 LYS7_34 ALA8_34
add: frgm_35.CG: 2: ALA2_35 PRO3_35 ALA4_35, ALA4_35 PRO5_35 LYS6_35
add: frgm_35.CG: 4: SER1_35 ALA2_35 PRO3_35, PRO3_35 ALA4_35 PRO5_35, PRO5_35 LYS6_35 LYS7_35, LYS6_35 LYS7_35 GLY8_35
add: frgm_36.CG: 2: ALA2_36 PRO3_36 ALA4_36
add: frgm_36.CG: 3: THR5_36 GLY6_36 ARG7_36
add: frgm_36.CG: 4: SER1_36 ALA2_36 PRO3_36, PRO3_36 ALA4_36 THR5_36, ALA4_36 THR5_36 GLY6_36, GLY6_36 ARG7_36 VAL8_36
add: frgm_37.CG: 3: SER1_37 GLY2_37 ARG3_37, ARG3_37 GLY4_37 LYS5_37, LYS5_37 GLY6_37 GLY7_37, GLY6_37 GLY7_37 LYS8_37
add: frgm_37.CG: 4: GLY2_37 ARG3_37 GLY4_37, GLY4_37 LYS5_37 GLY6_37
add: frgm_38.CG: 3: SER1_38 GLY2_38 ARG3_38, ARG3_38 GLY4_38 LYS5_38, GLN6_38 GLY7_38 GLY8_38
add: frgm_38.CG: 4: GLY2_38 ARG3_38 GLY4_38, GLY4_38 LYS5_38 GLN6_38, LYS5_38 GLN6_38 GLY7_38
add: frgm_39.CG: 2: ALA4_39 PRO5_39 LYS6_39
add: frgm_39.CG: 4: SER1_39 LYS2_39 ASP3_39, LYS2_39 ASP3_39 ALA4_39, ASP3_39 ALA4_39 PRO5_39, PRO5_39 LYS6_39 HSE7_39, LYS6_39 HSE7_39 GLY8_39
add: frgm_40.CG: 2: ALA4_40 PRO5_40 LYS6_40
add: frgm_40.CG: 4: SER1_40 LYS2_40 LYS3_40, LYS2_40 LYS3_40 ALA4_40, LYS3_40 ALA4_40 PRO5_40, PRO5_40 LYS6_40 LYS7_40, LYS6_40 LYS7_40 GLY8_40
add: frgm_41.CG: 3: HSE3_41 GLY4_41 LYS5_41, GLN6_41 GLY7_41 GLY8_41
add: frgm_41.CG: 4: SER1_41 ARG2_41 HSE3_41, ARG2_41 HSE3_41 GLY4_41, GLY4_41 LYS5_41 GLN6_41, LYS5_41 GLN6_41 GLY7_41
add: frgm_42.CG: 4: SER1_42 SER2_42 LYS3_42, SER2_42 LYS3_42 SER4_42, LYS3_42 SER4_42 ALA5_42, SER4_42 ALA5_42 LYS6_42, ALA5_42 LYS6_42 SER7_42, LYS6_42 SER7_42 LYS8_42
add: frgm_43.CG: 4: THR1_43 GLU2_43 SER3_43, GLU2_43 SER3_43 SER4_43, SER3_43 SER4_43 LYS5_43, SER4_43 LYS5_43 SER6_43, LYS5_43 SER6_43 ALA7_43, SER6_43 ALA7_43 LYS8_43
add: frgm_44.CG: 4: THR1_44 GLU2_44 VAL3_44, GLU2_44 VAL3_44 VAL4_44, VAL3_44 VAL4_44 LYS5_44, VAL4_44 LYS5_44 SER6_44, LYS5_44 SER6_44 ALA7_44, SER6_44 ALA7_44 LEU8_44
add: frgm_45.CG: 4: THR1_45 LYS2_45 THR3_45, LYS2_45 THR3_45 GLN4_45, THR3_45 GLN4_45 LYS5_45, GLN4_45 LYS5_45 LYS6_45, LYS5_45 LYS6_45 ASP7_45, LYS6_45 ASP7_45 GLY8_45
add: frgm_46.CG: 2: LYS3_46 PRO4_46 ALA5_46
add: frgm_46.CG: 3: THR6_46 GLY7_46 GLY8_46
add: frgm_46.CG: 4: VAL1_46 LYS2_46 LYS3_46, LYS2_46 LYS3_46 PRO4_46, PRO4_46 ALA5_46 THR6_46, ALA5_46 THR6_46 GLY7_46
add: frgm_47.CG: 4: VAL1_47 LEU2_47 ARG3_47, LEU2_47 ARG3_47 ASP4_47, ARG3_47 ASP4_47 ARG5_47, ASP4_47 ARG5_47 HSE6_47, ARG5_47 HSE6_47 GLU7_47, HSE6_47 GLU7_47 LYS8_47
add: frgm_48.CG: 3: SER5_48 GLY6_48 ARG7_48
add: frgm_48.CG: 4: VAL1_48 LEU2_48 ARG3_48, LEU2_48 ARG3_48 ASP4_48, ARG3_48 ASP4_48 SER5_48, ASP4_48 SER5_48 GLY6_48, GLY6_48 ARG7_48 GLY8_48
&EndRDFsA
&SameAsBond
frgm_1.CG:1=frgm_2.CG:1, frgm_3.CG:1, frgm_4.CG:1, frgm_5.CG:1, frgm_6.CG:1, frgm_7.CG:1, frgm_8.CG:1, frgm_9.CG:1, frgm_10.CG:1, frgm_11.CG:1, frgm_12.CG:1, frgm_13.CG:1, frgm_14.CG:1, frgm_15.CG:1, frgm_16.CG:1, frgm_17.CG:1, frgm_18.CG:1, frgm_19.CG:1, frgm_20.CG:1, frgm_21.CG:1, frgm_22.CG:1, frgm_23.CG:1, frgm_24.CG:1, frgm_25.CG:1, frgm_26.CG:1, frgm_27.CG:1, frgm_28.CG:1, frgm_29.CG:1, frgm_30.CG:1, frgm_31.CG:1, frgm_32.CG:1, frgm_33.CG:1, frgm_34.CG:1, frgm_35.CG:1, frgm_36.CG:1, frgm_37.CG:1, frgm_38.CG:1, frgm_39.CG:1, frgm_40.CG:1, frgm_41.CG:1, frgm_42.CG:1, frgm_43.CG:1, frgm_44.CG:1, frgm_45.CG:1, frgm_46.CG:1, frgm_47.CG:1, frgm_48.CG:1
frgm_3.CG:4=frgm_1.CG:2, frgm_2.CG:3, frgm_3.CG:4, frgm_4.CG:2, frgm_5.CG:3, frgm_6.CG:3, frgm_7.CG:2, frgm_8.CG:2, frgm_9.CG:3, frgm_10.CG:4, frgm_11.CG:3, frgm_12.CG:3, frgm_13.CG:2, frgm_14.CG:2, frgm_15.CG:2, frgm_16.CG:2, frgm_17.CG:3, frgm_18.CG:3, frgm_19.CG:2, frgm_20.CG:3, frgm_21.CG:3, frgm_22.CG:4, frgm_23.CG:3, frgm_24.CG:3, frgm_25.CG:3, frgm_26.CG:2, frgm_27.CG:2, frgm_28.CG:2, frgm_29.CG:3, frgm_30.CG:2, frgm_31.CG:3, frgm_32.CG:2, frgm_33.CG:3, frgm_34.CG:3, frgm_35.CG:3, frgm_36.CG:4, frgm_37.CG:3, frgm_38.CG:3, frgm_39.CG:3, frgm_40.CG:3, frgm_41.CG:3, frgm_42.CG:2, frgm_43.CG:2, frgm_44.CG:2, frgm_45.CG:2, frgm_46.CG:4, frgm_47.CG:2, frgm_48.CG:3
frgm_3.CG:3=frgm_5.CG:2, frgm_9.CG:2, frgm_10.CG:3, frgm_11.CG:2, frgm_12.CG:2, frgm_17.CG:2, frgm_18.CG:2, frgm_20.CG:2, frgm_21.CG:2, frgm_22.CG:3, frgm_23.CG:2, frgm_24.CG:2, frgm_25.CG:2, frgm_31.CG:2, frgm_34.CG:2, frgm_36.CG:3, frgm_37.CG:2, frgm_38.CG:2, frgm_41.CG:2, frgm_46.CG:3, frgm_48.CG:2
frgm_3.CG:2=frgm_2.CG:2, frgm_3.CG:2, frgm_6.CG:2, frgm_10.CG:2, frgm_22.CG:2, frgm_29.CG:2, frgm_33.CG:2, frgm_35.CG:2, frgm_36.CG:2, frgm_39.CG:2, frgm_40.CG:2, frgm_46.CG:2
&EndSameAsBond
