# <PairPotential>
   0.00000  9757.16957
   0.00100  9741.44240
   0.00200  9724.61037
   0.00300  9706.53414
   0.00400  9687.05096
   0.00500  9665.97320
   0.00600  9643.08801
   0.00700  9618.15850
   0.00800  9590.92717
   0.00900  9561.12220
   0.01000  9528.46732
   0.01100  9492.69573
   0.01200  9453.56833
   0.01300  9410.89580
   0.01400  9364.56340
   0.01500  9314.55627
   0.01600  9260.98194
   0.01700  9204.08611
   0.01800  9144.25756
   0.01900  9082.01871
   0.02000  9018.00036
   0.02100  8952.90173
   0.02200  8887.43973
   0.02300  8822.29402
   0.02400  8758.05518
   0.02500  8695.18313
   0.02600  8633.98063
   0.02700  8574.58425
   0.02800  8516.97199
   0.02900  8460.98505
   0.03000  8406.35960
   0.03100  8352.76442
   0.03200  8299.84044
   0.03300  8247.23885
   0.03400  8194.65512
   0.03500  8141.85659
   0.03600  8088.70188
   0.03700  8035.15063
   0.03800  7981.26273
   0.03900  7927.18708
   0.04000  7873.14095
   0.04100  7819.38220
   0.04200  7766.17760
   0.04300  7713.77102
   0.04400  7662.35521
   0.04500  7612.05035
   0.04600  7562.89119
   0.04700  7514.82371
   0.04800  7467.71086
   0.04900  7421.34605
   0.05000  7375.47274
   0.05100  7329.80801
   0.05200  7284.06820
   0.05300  7237.99455
   0.05400  7191.37686
   0.05500  7144.07332
   0.05600  7096.02449
   0.05700  7047.25985
   0.05800  6997.89581
   0.05900  6948.12466
   0.06000  6898.19538
   0.06100  6848.38810
   0.06200  6798.98503
   0.06300  6750.24139
   0.06400  6702.35974
   0.06500  6655.47052
   0.06600  6609.62069
   0.06700  6564.77117
   0.06800  6520.80273
   0.06900  6477.52908
   0.07000  6434.71557
   0.07100  6392.10157
   0.07200  6349.42467
   0.07300  6306.44489
   0.07400  6262.96696
   0.07500  6218.85895
   0.07600  6174.06542
   0.07700  6128.61371
   0.07800  6082.61205
   0.07900  6036.23943
   0.08000  5989.72768
   0.08100  5943.33775
   0.08200  5897.33265
   0.08300  5851.95036
   0.08400  5807.37992
   0.08500  5763.74333
   0.08600  5721.08491
   0.08700  5679.36896
   0.08800  5638.48515
   0.08900  5598.26074
   0.09000  5558.47790
   0.09100  5518.89457
   0.09200  5479.26690
   0.09300  5439.37175
   0.09400  5399.02737
   0.09500  5358.11075
   0.09600  5316.56980
   0.09700  5274.42923
   0.09800  5231.78881
   0.09900  5188.81397
   0.10000  5145.71927
   0.10100  5102.74640
   0.10200  5060.13908
   0.10300  5018.11802
   0.10400  4976.85873
   0.10500  4936.47472
   0.10600  4897.00770
   0.10700  4858.42529
   0.10800  4820.62610
   0.10900  4783.45092
   0.11000  4746.69876
   0.11100  4710.14610
   0.11200  4673.56766
   0.11300  4636.75712
   0.11400  4599.54630
   0.11500  4561.82107
   0.11600  4523.53271
   0.11700  4484.70328
   0.11800  4445.42409
   0.11900  4405.84703
   0.12000  4366.16939
   0.12100  4326.61357
   0.12200  4287.40404
   0.12300  4248.74421
   0.12400  4210.79606
   0.12500  4173.66463
   0.12600  4137.38900
   0.12700  4101.94015
   0.12800  4067.22558
   0.12900  4033.09962
   0.13000  3999.37813
   0.13100  3965.85615
   0.13200  3932.32693
   0.13300  3898.60102
   0.13400  3864.52375
   0.13500  3829.98991
   0.13600  3794.95414
   0.13700  3759.43585
   0.13800  3723.51789
   0.13900  3687.33861
   0.14000  3651.07803
   0.14100  3614.93927
   0.14200  3579.12751
   0.14300  3543.82891
   0.14400  3509.19191
   0.14500  3475.31307
   0.14600  3442.22883
   0.14700  3409.91353
   0.14800  3378.28358
   0.14900  3347.20685
   0.15000  3316.51603
   0.15100  3286.02472
   0.15200  3255.54473
   0.15300  3224.90344
   0.15400  3193.95972
   0.15500  3162.61727
   0.15600  3130.83408
   0.15700  3098.62694
   0.15800  3066.07021
   0.15900  3033.28872
   0.16000  3000.44519
   0.16100  2967.72348
   0.16200  2935.30951
   0.16300  2903.37214
   0.16400  2872.04628
   0.16500  2841.42002
   0.16600  2811.52717
   0.16700  2782.34543
   0.16800  2753.80010
   0.16900  2725.77260
   0.17000  2698.11245
   0.17100  2670.65181
   0.17200  2643.22105
   0.17300  2615.66438
   0.17400  2587.85421
   0.17500  2559.70315
   0.17600  2531.17255
   0.17700  2502.27655
   0.17800  2473.08105
   0.17900  2443.69734
   0.18000  2414.27087
   0.18100  2384.96622
   0.18200  2355.95003
   0.18300  2327.37389
   0.18400  2299.35917
   0.18500  2271.98550
   0.18600  2245.28404
   0.18700  2219.23585
   0.18800  2193.77514
   0.18900  2168.79687
   0.19000  2144.16739
   0.19100  2119.73742
   0.19200  2095.35589
   0.19300  2070.88384
   0.19400  2046.20723
   0.19500  2021.24756
   0.19600  1995.96954
   0.19700  1970.38468
   0.19800  1944.55041
   0.19900  1918.56449
   0.20000  1892.55507
   0.20100  1866.66747
   0.20200  1841.04907
   0.20300  1815.83416
   0.20400  1791.13058
   0.20500  1767.00950
   0.20600  1743.49943
   0.20700  1720.58479
   0.20800  1698.20871
   0.20900  1676.27966
   0.21000  1654.68086
   0.21100  1633.28156
   0.21200  1611.94925
   0.21300  1590.56183
   0.21400  1569.01876
   0.21500  1547.25049
   0.21600  1525.22506
   0.21700  1502.95134
   0.21800  1480.47830
   0.21900  1457.89016
   0.22000  1435.29779
   0.22100  1412.82725
   0.22200  1390.60663
   0.22300  1368.75296
   0.22400  1347.36052
   0.22500  1326.49202
   0.22600  1306.17334
   0.22700  1286.39225
   0.22800  1267.10079
   0.22900  1248.22097
   0.23000  1229.65284
   0.23100  1211.28421
   0.23200  1193.00114
   0.23300  1174.69833
   0.23400  1156.28882
   0.23500  1137.71194
   0.23600  1118.93909
   0.23700  1099.97651
   0.23800  1080.86470
   0.23900  1061.67435
   0.24000  1042.49904
   0.24100  1023.44555
   0.24200  1004.62272
   0.24300   986.13027
   0.24400   968.04897
   0.24500   950.43306
   0.24600   933.30578
   0.24700   916.65824
   0.24800   900.45140
   0.24900   884.62080
   0.25000   869.08335
   0.25100   853.74539
   0.25200   838.51154
   0.25300   823.29336
   0.25400   808.01739
   0.25500   792.63191
   0.25600   777.11164
   0.25700   761.46021
   0.25800   745.70963
   0.25900   729.91706
   0.26000   714.15881
   0.26100   698.52237
   0.26200   683.09732
   0.26300   667.96611
   0.26400   653.19595
   0.26500   638.83262
   0.26600   624.89673
   0.26700   611.38274
   0.26800   598.26052
   0.26900   585.47916
   0.27000   572.97237
   0.27100   560.66509
   0.27200   548.48047
   0.27300   536.34691
   0.27400   524.20449
   0.27500   512.01040
   0.27600   499.74272
   0.27700   487.40243
   0.27800   475.01308
   0.27900   462.61829
   0.28000   450.27709
   0.28100   438.05772
   0.28200   426.03045
   0.28300   414.26046
   0.28400   402.80145
   0.28500   391.69070
   0.28600   380.94621
   0.28700   370.56577
   0.28800   360.52817
   0.28900   350.79603
   0.29000   341.31992
   0.29100   332.04331
   0.29200   322.90792
   0.29300   313.85898
   0.29400   304.85011
   0.29500   295.84741
   0.29600   286.83232
   0.29700   277.80317
   0.29800   268.77505
   0.29900   259.77804
   0.30000   250.85390
   0.30100   242.05158
   0.30200   233.42209
   0.30300   225.01334
   0.30400   216.86547
   0.30500   209.00731
   0.30600   201.45420
   0.30700   194.20732
   0.30800   187.25434
   0.30900   180.57143
   0.31000   174.12598
   0.31100   167.88004
   0.31200   161.79386
   0.31300   155.82953
   0.31400   149.95420
   0.31500   144.14286
   0.31600   138.38030
   0.31700   132.66221
   0.31800   126.99521
   0.31900   121.39581
   0.32000   115.88847
   0.32100   110.50281
   0.32200   105.27054
   0.32300   100.22219
   0.32400    95.38427
   0.32500    90.77700
   0.32600    86.41289
   0.32700    82.29618
   0.32800    78.42312
   0.32900    74.78294
   0.33000    71.35927
   0.33100    68.13191
   0.33200    65.07865
   0.33300    62.17713
   0.33400    59.40648
   0.33500    56.74861
   0.33600    54.18934
   0.33700    51.71890
   0.33800    49.33215
   0.33900    47.02827
   0.34000    44.81012
   0.34100    42.68322
   0.34200    40.65464
   0.34300    38.73180
   0.34400    36.92136
   0.34500    35.22836
   0.34600    33.65564
   0.34700    32.20355
   0.34800    30.86995
   0.34900    29.65043
   0.35000    28.53873
   0.35100    27.52720
   0.35200    26.60736
   0.35300    25.77036
   0.35400    25.00745
   0.35500    24.31035
   0.35600    23.67149
   0.35700    23.08426
   0.35800    22.54299
   0.35900    22.04304
   0.36000    21.58067
   0.36100    21.15291
   0.36200    20.75739
   0.36300    20.39215
   0.36400    20.05545
   0.36500    19.74567
   0.36600    19.46114
   0.36700    19.20009
   0.36800    18.96067
   0.36900    18.74089
   0.37000    18.53870
   0.37100    18.35201
   0.37200    18.17880
   0.37300    18.01712
   0.37400    17.86518
   0.37500    17.72139
   0.37600    17.58438
   0.37700    17.45302
   0.37800    17.32641
   0.37900    17.20388
   0.38000    17.08491
   0.38100    16.96911
   0.38200    16.85617
   0.38300    16.74577
   0.38400    16.63758
   0.38500    16.53118
   0.38600    16.42605
   0.38700    16.32160
   0.38800    16.21714
   0.38900    16.11191
   0.39000    16.00517
   0.39100    15.89621
   0.39200    15.78442
   0.39300    15.66936
   0.39400    15.55082
   0.39500    15.42884
   0.39600    15.30380
   0.39700    15.17640
   0.39800    15.04764
   0.39900    14.91883
   0.40000    14.79148
   0.40100    14.66724
   0.40200    14.54782
   0.40300    14.43488
   0.40400    14.32994
   0.40500    14.23432
   0.40600    14.14910
   0.40700    14.07507
   0.40800    14.01273
   0.40900    13.96228
   0.41000    13.92364
   0.41100    13.89647
   0.41200    13.88014
   0.41300    13.87376
   0.41400    13.87616
   0.41500    13.88588
   0.41600    13.90117
   0.41700    13.91999
   0.41800    13.94001
   0.41900    13.95864
   0.42000    13.97308
   0.42100    13.98032
   0.42200    13.97727
   0.42300    13.96076
   0.42400    13.92765
   0.42500    13.87483
   0.42600    13.79934
   0.42700    13.69834
   0.42800    13.56924
   0.42900    13.40970
   0.43000    13.21776
   0.43100    12.99189
   0.43200    12.73114
   0.43300    12.43524
   0.43400    12.10475
   0.43500    11.74115
   0.43600    11.34693
   0.43700    10.92557
   0.43800    10.48150
   0.43900    10.01993
   0.44000     9.54662
   0.44100     9.06758
   0.44200     8.58872
   0.44300     8.11553
   0.44400     7.65278
   0.44500     7.20430
   0.44600     6.77284
   0.44700     6.36006
   0.44800     5.96656
   0.44900     5.59202
   0.45000     5.23537
   0.45100     4.89502
   0.45200     4.56906
   0.45300     4.25549
   0.45400     3.95244
   0.45500     3.65826
   0.45600     3.37174
   0.45700     3.09209
   0.45800     2.81904
   0.45900     2.55274
   0.46000     2.29375
   0.46100     2.04286
   0.46200     1.80101
   0.46300     1.56913
   0.46400     1.34800
   0.46500     1.13819
   0.46600     0.93994
   0.46700     0.75320
   0.46800     0.57758
   0.46900     0.41243
   0.47000     0.25686
   0.47100     0.10987
   0.47200    -0.02963
   0.47300    -0.16270
   0.47400    -0.29030
   0.47500    -0.41328
   0.47600    -0.53228
   0.47700    -0.64771
   0.47800    -0.75979
   0.47900    -0.86852
   0.48000    -0.97375
   0.48100    -1.07518
   0.48200    -1.17248
   0.48300    -1.26527
   0.48400    -1.35326
   0.48500    -1.43620
   0.48600    -1.51399
   0.48700    -1.58662
   0.48800    -1.65423
   0.48900    -1.71705
   0.49000    -1.77539
   0.49100    -1.82964
   0.49200    -1.88020
   0.49300    -1.92747
   0.49400    -1.97183
   0.49500    -2.01360
   0.49600    -2.05306
   0.49700    -2.09037
   0.49800    -2.12566
   0.49900    -2.15895
   0.50000    -2.19020
   0.50100    -2.21934
   0.50200    -2.24623
   0.50300    -2.27073
   0.50400    -2.29270
   0.50500    -2.31201
   0.50600    -2.32853
   0.50700    -2.34218
   0.50800    -2.35290
   0.50900    -2.36067
   0.51000    -2.36549
   0.51100    -2.36738
   0.51200    -2.36641
   0.51300    -2.36267
   0.51400    -2.35626
   0.51500    -2.34733
   0.51600    -2.33605
   0.51700    -2.32261
   0.51800    -2.30724
   0.51900    -2.29017
   0.52000    -2.27163
   0.52100    -2.25184
   0.52200    -2.23103
   0.52300    -2.20936
   0.52400    -2.18695
   0.52500    -2.16390
   0.52600    -2.14022
   0.52700    -2.11589
   0.52800    -2.09082
   0.52900    -2.06490
   0.53000    -2.03800
   0.53100    -2.00997
   0.53200    -1.98068
   0.53300    -1.95001
   0.53400    -1.91789
   0.53500    -1.88431
   0.53600    -1.84932
   0.53700    -1.81304
   0.53800    -1.77567
   0.53900    -1.73744
   0.54000    -1.69863
   0.54100    -1.65956
   0.54200    -1.62051
   0.54300    -1.58177
   0.54400    -1.54353
   0.54500    -1.50598
   0.54600    -1.46917
   0.54700    -1.43311
   0.54800    -1.39774
   0.54900    -1.36293
   0.55000    -1.32851
   0.55100    -1.29426
   0.55200    -1.26000
   0.55300    -1.22553
   0.55400    -1.19070
   0.55500    -1.15538
   0.55600    -1.11953
   0.55700    -1.08317
   0.55800    -1.04635
   0.55900    -1.00922
   0.56000    -0.97194
   0.56100    -0.93471
   0.56200    -0.89770
   0.56300    -0.86110
   0.56400    -0.82503
   0.56500    -0.78956
   0.56600    -0.75473
   0.56700    -0.72046
   0.56800    -0.68666
   0.56900    -0.65317
   0.57000    -0.61979
   0.57100    -0.58632
   0.57200    -0.55254
   0.57300    -0.51827
   0.57400    -0.48335
   0.57500    -0.44768
   0.57600    -0.41123
   0.57700    -0.37401
   0.57800    -0.33612
   0.57900    -0.29770
   0.58000    -0.25893
   0.58100    -0.22003
   0.58200    -0.18118
   0.58300    -0.14258
   0.58400    -0.10434
   0.58500    -0.06655
   0.58600    -0.02921
   0.58700     0.00773
   0.58800     0.04442
   0.58900     0.08102
   0.59000     0.11774
   0.59100     0.15482
   0.59200     0.19249
   0.59300     0.23094
   0.59400     0.27034
   0.59500     0.31078
   0.59600     0.35229
   0.59700     0.39483
   0.59800     0.43827
   0.59900     0.48242
   0.60000     0.52707
   0.60100     0.57195
   0.60200     0.61682
   0.60300     0.66146
   0.60400     0.70571
   0.60500     0.74947
   0.60600     0.79272
   0.60700     0.83554
   0.60800     0.87804
   0.60900     0.92044
   0.61000     0.96296
   0.61100     1.00588
   0.61200     1.04943
   0.61300     1.09385
   0.61400     1.13930
   0.61500     1.18587
   0.61600     1.23357
   0.61700     1.28233
   0.61800     1.33197
   0.61900     1.38224
   0.62000     1.43283
   0.62100     1.48341
   0.62200     1.53365
   0.62300     1.58322
   0.62400     1.63189
   0.62500     1.67948
   0.62600     1.72590
   0.62700     1.77117
   0.62800     1.81536
   0.62900     1.85866
   0.63000     1.90126
   0.63100     1.94342
   0.63200     1.98539
   0.63300     2.02740
   0.63400     2.06963
   0.63500     2.11222
   0.63600     2.15521
   0.63700     2.19858
   0.63800     2.24220
   0.63900     2.28591
   0.64000     2.32946
   0.64100     2.37258
   0.64200     2.41499
   0.64300     2.45644
   0.64400     2.49670
   0.64500     2.53562
   0.64600     2.57310
   0.64700     2.60914
   0.64800     2.64378
   0.64900     2.67714
   0.65000     2.70937
   0.65100     2.74066
   0.65200     2.77120
   0.65300     2.80119
   0.65400     2.83077
   0.65500     2.86008
   0.65600     2.88917
   0.65700     2.91808
   0.65800     2.94676
   0.65900     2.97512
   0.66000     3.00303
   0.66100     3.03035
   0.66200     3.05690
   0.66300     3.08253
   0.66400     3.10710
   0.66500     3.13050
   0.66600     3.15267
   0.66700     3.17358
   0.66800     3.19325
   0.66900     3.21172
   0.67000     3.22908
   0.67100     3.24541
   0.67200     3.26083
   0.67300     3.27542
   0.67400     3.28930
   0.67500     3.30252
   0.67600     3.31513
   0.67700     3.32717
   0.67800     3.33862
   0.67900     3.34945
   0.68000     3.35961
   0.68100     3.36901
   0.68200     3.37758
   0.68300     3.38522
   0.68400     3.39183
   0.68500     3.39733
   0.68600     3.40162
   0.68700     3.40463
   0.68800     3.40631
   0.68900     3.40659
   0.69000     3.40545
   0.69100     3.40284
   0.69200     3.39875
   0.69300     3.39317
   0.69400     3.38611
   0.69500     3.37759
   0.69600     3.36764
   0.69700     3.35630
   0.69800     3.34362
   0.69900     3.32964
   0.70000     3.31443
   0.70100     3.29801
   0.70200     3.28041
   0.70300     3.26161
   0.70400     3.24156
   0.70500     3.22019
   0.70600     3.19736
   0.70700     3.17294
   0.70800     3.14672
   0.70900     3.11851
   0.71000     3.08809
   0.71100     3.05527
   0.71200     3.01989
   0.71300     2.98182
   0.71400     2.94101
   0.71500     2.89750
   0.71600     2.85140
   0.71700     2.80294
   0.71800     2.75242
   0.71900     2.70023
   0.72000     2.64679
   0.72100     2.59258
   0.72200     2.53802
   0.72300     2.48352
   0.72400     2.42940
   0.72500     2.37587
   0.72600     2.32306
   0.72700     2.27096
   0.72800     2.21948
   0.72900     2.16844
   0.73000     2.11759
   0.73100     2.06665
   0.73200     2.01536
   0.73300     1.96346
   0.73400     1.91078
   0.73500     1.85720
   0.73600     1.80273
   0.73700     1.74748
   0.73800     1.69164
   0.73900     1.63555
   0.74000     1.57956
   0.74100     1.52412
   0.74200     1.46965
   0.74300     1.41656
   0.74400     1.36519
   0.74500     1.31583
   0.74600     1.26865
   0.74700     1.22373
   0.74800     1.18105
   0.74900     1.14052
   0.75000     1.10197
   0.75100     1.06520
   0.75200     1.02999
   0.75300     0.99611
   0.75400     0.96336
   0.75500     0.93157
   0.75600     0.90064
   0.75700     0.87051
   0.75800     0.84118
   0.75900     0.81272
   0.76000     0.78524
   0.76100     0.75887
   0.76200     0.73378
   0.76300     0.71013
   0.76400     0.68807
   0.76500     0.66774
   0.76600     0.64922
   0.76700     0.63258
   0.76800     0.61785
   0.76900     0.60501
   0.77000     0.59403
   0.77100     0.58484
   0.77200     0.57736
   0.77300     0.57151
   0.77400     0.56718
   0.77500     0.56426
   0.77600     0.56263
   0.77700     0.56219
   0.77800     0.56282
   0.77900     0.56442
   0.78000     0.56690
   0.78100     0.57016
   0.78200     0.57412
   0.78300     0.57874
   0.78400     0.58396
   0.78500     0.58977
   0.78600     0.59615
   0.78700     0.60312
   0.78800     0.61070
   0.78900     0.61893
   0.79000     0.62784
   0.79100     0.63747
   0.79200     0.64785
   0.79300     0.65899
   0.79400     0.67089
   0.79500     0.68350
   0.79600     0.69676
   0.79700     0.71058
   0.79800     0.72482
   0.79900     0.73933
   0.80000     0.75392
   0.80100     0.76841
   0.80200     0.78261
   0.80300     0.79634
   0.80400     0.80942
   0.80500     0.82173
   0.80600     0.83314
   0.80700     0.84359
   0.80800     0.85302
   0.80900     0.86141
   0.81000     0.86877
   0.81100     0.87513
   0.81200     0.88051
   0.81300     0.88498
   0.81400     0.88857
   0.81500     0.89136
   0.81600     0.89341
   0.81700     0.89476
   0.81800     0.89549
   0.81900     0.89563
   0.82000     0.89523
   0.82100     0.89433
   0.82200     0.89297
   0.82300     0.89115
   0.82400     0.88890
   0.82500     0.88621
   0.82600     0.88308
   0.82700     0.87948
   0.82800     0.87540
   0.82900     0.87081
   0.83000     0.86568
   0.83100     0.85998
   0.83200     0.85367
   0.83300     0.84675
   0.83400     0.83921
   0.83500     0.83105
   0.83600     0.82229
   0.83700     0.81297
   0.83800     0.80314
   0.83900     0.79287
   0.84000     0.78222
   0.84100     0.77127
   0.84200     0.76008
   0.84300     0.74871
   0.84400     0.73720
   0.84500     0.72556
   0.84600     0.71379
   0.84700     0.70187
   0.84800     0.68974
   0.84900     0.67735
   0.85000     0.66464
   0.85100     0.65153
   0.85200     0.63795
   0.85300     0.62386
   0.85400     0.60923
   0.85500     0.59407
   0.85600     0.57841
   0.85700     0.56232
   0.85800     0.54591
   0.85900     0.52931
   0.86000     0.51269
   0.86100     0.49620
   0.86200     0.48004
   0.86300     0.46436
   0.86400     0.44932
   0.86500     0.43503
   0.86600     0.42158
   0.86700     0.40904
   0.86800     0.39742
   0.86900     0.38674
   0.87000     0.37696
   0.87100     0.36804
   0.87200     0.35992
   0.87300     0.35256
   0.87400     0.34588
   0.87500     0.33984
   0.87600     0.33437
   0.87700     0.32944
   0.87800     0.32502
   0.87900     0.32108
   0.88000     0.31762
   0.88100     0.31463
   0.88200     0.31213
   0.88300     0.31012
   0.88400     0.30862
   0.88500     0.30765
   0.88600     0.30723
   0.88700     0.30737
   0.88800     0.30810
   0.88900     0.30942
   0.89000     0.31135
   0.89100     0.31388
   0.89200     0.31700
   0.89300     0.32070
   0.89400     0.32494
   0.89500     0.32966
   0.89600     0.33479
   0.89700     0.34026
   0.89800     0.34594
   0.89900     0.35173
   0.90000     0.35748
   0.90100     0.36305
   0.90200     0.36829
   0.90300     0.37307
   0.90400     0.37724
   0.90500     0.38069
   0.90600     0.38330
   0.90700     0.38497
   0.90800     0.38564
   0.90900     0.38524
   0.91000     0.38372
   0.91100     0.38107
   0.91200     0.37728
   0.91300     0.37237
   0.91400     0.36636
   0.91500     0.35933
   0.91600     0.35134
   0.91700     0.34252
   0.91800     0.33299
   0.91900     0.32289
   0.92000     0.31238
   0.92100     0.30162
   0.92200     0.29077
   0.92300     0.27996
   0.92400     0.26934
   0.92500     0.25899
   0.92600     0.24900
   0.92700     0.23941
   0.92800     0.23024
   0.92900     0.22151
   0.93000     0.21319
   0.93100     0.20525
   0.93200     0.19766
   0.93300     0.19038
   0.93400     0.18338
   0.93500     0.17664
   0.93600     0.17016
   0.93700     0.16392
   0.93800     0.15796
   0.93900     0.15230
   0.94000     0.14699
   0.94100     0.14209
   0.94200     0.13765
   0.94300     0.13375
   0.94400     0.13044
   0.94500     0.12779
   0.94600     0.12585
   0.94700     0.12467
   0.94800     0.12430
   0.94900     0.12475
   0.95000     0.12606
   0.95100     0.12824
   0.95200     0.13128
   0.95300     0.13516
   0.95400     0.13987
   0.95500     0.14535
   0.95600     0.15155
   0.95700     0.15838
   0.95800     0.16574
   0.95900     0.17354
   0.96000     0.18166
   0.96100     0.18997
   0.96200     0.19836
   0.96300     0.20673
   0.96400     0.21499
   0.96500     0.22305
   0.96600     0.23088
   0.96700     0.23844
   0.96800     0.24571
   0.96900     0.25270
   0.97000     0.25943
   0.97100     0.26593
   0.97200     0.27223
   0.97300     0.27835
   0.97400     0.28434
   0.97500     0.29021
   0.97600     0.29597
   0.97700     0.30164
   0.97800     0.30719
   0.97900     0.31262
   0.98000     0.31789
   0.98100     0.32297
   0.98200     0.32783
   0.98300     0.33243
   0.98400     0.33674
   0.98500     0.34073
   0.98600     0.34437
   0.98700     0.34766
   0.98800     0.35059
   0.98900     0.35316
   0.99000     0.35538
   0.99100     0.35725
   0.99200     0.35881
   0.99300     0.36007
   0.99400     0.36104
   0.99500     0.36176
   0.99600     0.36225
   0.99700     0.36253
   0.99800     0.36264
   0.99900     0.36258
   1.00000     0.36240
   1.00100     0.36212
   1.00200     0.36175
   1.00300     0.36131
   1.00400     0.36082
   1.00500     0.36030
   1.00600     0.35976
   1.00700     0.35919
   1.00800     0.35862
   1.00900     0.35803
   1.01000     0.35744
   1.01100     0.35683
   1.01200     0.35621
   1.01300     0.35557
   1.01400     0.35491
   1.01500     0.35422
   1.01600     0.35351
   1.01700     0.35276
   1.01800     0.35197
   1.01900     0.35114
   1.02000     0.35027
   1.02100     0.34935
   1.02200     0.34838
   1.02300     0.34735
   1.02400     0.34625
   1.02500     0.34507
   1.02600     0.34381
   1.02700     0.34244
   1.02800     0.34096
   1.02900     0.33935
   1.03000     0.33760
   1.03100     0.33570
   1.03200     0.33362
   1.03300     0.33137
   1.03400     0.32894
   1.03500     0.32634
   1.03600     0.32355
   1.03700     0.32061
   1.03800     0.31751
   1.03900     0.31429
   1.04000     0.31096
   1.04100     0.30755
   1.04200     0.30408
   1.04300     0.30056
   1.04400     0.29701
   1.04500     0.29343
   1.04600     0.28983
   1.04700     0.28619
   1.04800     0.28251
   1.04900     0.27877
   1.05000     0.27494
   1.05100     0.27100
   1.05200     0.26694
   1.05300     0.26273
   1.05400     0.25836
   1.05500     0.25384
   1.05600     0.24917
   1.05700     0.24437
   1.05800     0.23946
   1.05900     0.23447
   1.06000     0.22945
   1.06100     0.22444
   1.06200     0.21948
   1.06300     0.21462
   1.06400     0.20988
   1.06500     0.20531
   1.06600     0.20090
   1.06700     0.19669
   1.06800     0.19265
   1.06900     0.18879
   1.07000     0.18509
   1.07100     0.18153
   1.07200     0.17809
   1.07300     0.17476
   1.07400     0.17152
   1.07500     0.16835
   1.07600     0.16525
   1.07700     0.16222
   1.07800     0.15927
   1.07900     0.15642
   1.08000     0.15367
   1.08100     0.15106
   1.08200     0.14861
   1.08300     0.14635
   1.08400     0.14429
   1.08500     0.14247
   1.08600     0.14089
   1.08700     0.13959
   1.08800     0.13856
   1.08900     0.13782
   1.09000     0.13736
   1.09100     0.13720
   1.09200     0.13733
   1.09300     0.13773
   1.09400     0.13842
   1.09500     0.13937
   1.09600     0.14057
   1.09700     0.14202
   1.09800     0.14369
   1.09900     0.14556
   1.10000     0.14763
   1.10100     0.14988
   1.10200     0.15229
   1.10300     0.15487
   1.10400     0.15760
   1.10500     0.16050
   1.10600     0.16357
   1.10700     0.16683
   1.10800     0.17029
   1.10900     0.17399
   1.11000     0.17795
   1.11100     0.18219
   1.11200     0.18673
   1.11300     0.19158
   1.11400     0.19676
   1.11500     0.20226
   1.11600     0.20806
   1.11700     0.21415
   1.11800     0.22047
   1.11900     0.22698
   1.12000     0.23363
   1.12100     0.24036
   1.12200     0.24711
   1.12300     0.25384
   1.12400     0.26050
   1.12500     0.26705
   1.12600     0.27350
   1.12700     0.27982
   1.12800     0.28604
   1.12900     0.29218
   1.13000     0.29825
   1.13100     0.30430
   1.13200     0.31036
   1.13300     0.31647
   1.13400     0.32263
   1.13500     0.32887
   1.13600     0.33520
   1.13700     0.34160
   1.13800     0.34806
   1.13900     0.35454
   1.14000     0.36100
   1.14100     0.36741
   1.14200     0.37371
   1.14300     0.37986
   1.14400     0.38583
   1.14500     0.39159
   1.14600     0.39712
   1.14700     0.40243
   1.14800     0.40751
   1.14900     0.41238
   1.15000     0.41707
   1.15100     0.42159
   1.15200     0.42598
   1.15300     0.43026
   1.15400     0.43447
   1.15500     0.43861
   1.15600     0.44270
   1.15700     0.44674
   1.15800     0.45074
   1.15900     0.45469
   1.16000     0.45856
   1.16100     0.46234
   1.16200     0.46601
   1.16300     0.46955
   1.16400     0.47294
   1.16500     0.47617
   1.16600     0.47924
   1.16700     0.48214
   1.16800     0.48488
   1.16900     0.48746
   1.17000     0.48991
   1.17100     0.49222
   1.17200     0.49444
   1.17300     0.49656
   1.17400     0.49860
   1.17500     0.50059
   1.17600     0.50254
   1.17700     0.50445
   1.17800     0.50634
   1.17900     0.50820
   1.18000     0.51005
   1.18100     0.51188
   1.18200     0.51369
   1.18300     0.51550
   1.18400     0.51730
   1.18500     0.51910
   1.18600     0.52090
   1.18700     0.52272
   1.18800     0.52457
   1.18900     0.52646
   1.19000     0.52840
   1.19100     0.53041
   1.19200     0.53251
   1.19300     0.53469
   1.19400     0.53696
   1.19500     0.53933
   1.19600     0.54179
   1.19700     0.54433
   1.19800     0.54693
   1.19900     0.54958
   1.20000     0.55224
   1.20100     0.55490
   1.20200     0.55753
   1.20300     0.56011
   1.20400     0.56261
   1.20500     0.56502
   1.20600     0.56733
   1.20700     0.56953
   1.20800     0.57162
   1.20900     0.57361
   1.21000     0.57550
   1.21100     0.57731
   1.21200     0.57904
   1.21300     0.58072
   1.21400     0.58234
   1.21500     0.58393
   1.21600     0.58548
   1.21700     0.58702
   1.21800     0.58855
   1.21900     0.59006
   1.22000     0.59157
   1.22100     0.59307
   1.22200     0.59457
   1.22300     0.59606
   1.22400     0.59756
   1.22500     0.59906
   1.22600     0.60058
   1.22700     0.60212
   1.22800     0.60370
   1.22900     0.60533
   1.23000     0.60701
   1.23100     0.60877
   1.23200     0.61061
   1.23300     0.61255
   1.23400     0.61459
   1.23500     0.61673
   1.23600     0.61898
   1.23700     0.62134
   1.23800     0.62378
   1.23900     0.62632
   1.24000     0.62892
   1.24100     0.63158
   1.24200     0.63430
   1.24300     0.63704
   1.24400     0.63982
   1.24500     0.64264
   1.24600     0.64548
   1.24700     0.64838
   1.24800     0.65133
   1.24900     0.65436
   1.25000     0.65748
   1.25100     0.66073
   1.25200     0.66411
   1.25300     0.66765
   1.25400     0.67136
   1.25500     0.67525
   1.25600     0.67932
   1.25700     0.68355
   1.25800     0.68795
   1.25900     0.69249
   1.26000     0.69715
   1.26100     0.70192
   1.26200     0.70676
   1.26300     0.71167
   1.26400     0.71663
   1.26500     0.72165
   1.26600     0.72673
   1.26700     0.73188
   1.26800     0.73714
   1.26900     0.74253
   1.27000     0.74808
   1.27100     0.75384
   1.27200     0.75982
   1.27300     0.76606
   1.27400     0.77257
   1.27500     0.77936
   1.27600     0.78641
   1.27700     0.79371
   1.27800     0.80120
   1.27900     0.80885
   1.28000     0.81659
   1.28100     0.82436
   1.28200     0.83209
   1.28300     0.83973
   1.28400     0.84723
   1.28500     0.85455
   1.28600     0.86167
   1.28700     0.86859
   1.28800     0.87531
   1.28900     0.88186
   1.29000     0.88826
   1.29100     0.89454
   1.29200     0.90074
   1.29300     0.90690
   1.29400     0.91305
   1.29500     0.91919
   1.29600     0.92533
   1.29700     0.93149
   1.29800     0.93762
   1.29900     0.94371
   1.30000     0.94973
   1.30100     0.95562
   1.30200     0.96134
   1.30300     0.96686
   1.30400     0.97213
   1.30500     0.97713
   1.30600     0.98182
   1.30700     0.98621
   1.30800     0.99028
   1.30900     0.99405
   1.31000     0.99752
   1.31100     1.00072
   1.31200     1.00366
   1.31300     1.00636
   1.31400     1.00885
   1.31500     1.01114
   1.31600     1.01325
   1.31700     1.01518
   1.31800     1.01694
   1.31900     1.01853
   1.32000     1.01994
   1.32100     1.02117
   1.32200     1.02221
   1.32300     1.02303
   1.32400     1.02364
   1.32500     1.02400
   1.32600     1.02411
   1.32700     1.02395
   1.32800     1.02350
   1.32900     1.02276
   1.33000     1.02172
   1.33100     1.02037
   1.33200     1.01870
   1.33300     1.01672
   1.33400     1.01444
   1.33500     1.01187
   1.33600     1.00903
   1.33700     1.00594
   1.33800     1.00265
   1.33900     0.99918
   1.34000     0.99559
   1.34100     0.99191
   1.34200     0.98819
   1.34300     0.98447
   1.34400     0.98076
   1.34500     0.97711
   1.34600     0.97353
   1.34700     0.97001
   1.34800     0.96657
   1.34900     0.96319
   1.35000     0.95987
   1.35100     0.95658
   1.35200     0.95331
   1.35300     0.95004
   1.35400     0.94677
   1.35500     0.94349
   1.35600     0.94018
   1.35700     0.93687
   1.35800     0.93356
   1.35900     0.93028
   1.36000     0.92703
   1.36100     0.92386
   1.36200     0.92078
   1.36300     0.91783
   1.36400     0.91502
   1.36500     0.91239
   1.36600     0.90993
   1.36700     0.90767
   1.36800     0.90560
   1.36900     0.90373
   1.37000     0.90205
   1.37100     0.90055
   1.37200     0.89923
   1.37300     0.89807
   1.37400     0.89706
   1.37500     0.89619
   1.37600     0.89546
   1.37700     0.89485
   1.37800     0.89436
   1.37900     0.89399
   1.38000     0.89373
   1.38100     0.89359
   1.38200     0.89356
   1.38300     0.89365
   1.38400     0.89387
   1.38500     0.89422
   1.38600     0.89470
   1.38700     0.89534
   1.38800     0.89614
   1.38900     0.89710
   1.39000     0.89823
   1.39100     0.89955
   1.39200     0.90105
   1.39300     0.90274
   1.39400     0.90462
   1.39500     0.90668
   1.39600     0.90891
   1.39700     0.91130
   1.39800     0.91382
   1.39900     0.91645
   1.40000     0.91917
   1.40100     0.92195
   1.40200     0.92476
   1.40300     0.92758
   1.40400     0.93040
   1.40500     0.93319
   1.40600     0.93595
   1.40700     0.93868
   1.40800     0.94139
   1.40900     0.94408
   1.41000     0.94677
   1.41100     0.94947
   1.41200     0.95220
   1.41300     0.95496
   1.41400     0.95778
   1.41500     0.96065
   1.41600     0.96359
   1.41700     0.96657
   1.41800     0.96961
   1.41900     0.97268
   1.42000     0.97576
   1.42100     0.97885
   1.42200     0.98191
   1.42300     0.98493
   1.42400     0.98790
   1.42500     0.99081
   1.42600     0.99365
   1.42700     0.99643
   1.42800     0.99915
   1.42900     1.00182
   1.43000     1.00446
   1.43100     1.00708
   1.43200     1.00970
   1.43300     1.01233
   1.43400     1.01497
   1.43500     1.01764
   1.43600     1.02033
   1.43700     1.02303
   1.43800     1.02575
   1.43900     1.02845
   1.44000     1.03113
   1.44100     1.03374
   1.44200     1.03628
   1.44300     1.03872
   1.44400     1.04104
   1.44500     1.04322
   1.44600     1.04524
   1.44700     1.04711
   1.44800     1.04880
   1.44900     1.05034
   1.45000     1.05171
   1.45100     1.05294
   1.45200     1.05401
   1.45300     1.05496
   1.45400     1.05578
   1.45500     1.05650
   1.45600     1.05711
   1.45700     1.05764
   1.45800     1.05809
   1.45900     1.05848
   1.46000     1.05881
   1.46100     1.05909
   1.46200     1.05933
   1.46300     1.05954
   1.46400     1.05972
   1.46500     1.05987
   1.46600     1.06001
   1.46700     1.06014
   1.46800     1.06026
   1.46900     1.06036
   1.47000     1.06046
   1.47100     1.06056
   1.47200     1.06064
   1.47300     1.06072
   1.47400     1.06079
   1.47500     1.06085
   1.47600     1.06089
   1.47700     1.06091
   1.47800     1.06089
   1.47900     1.06084
   1.48000     1.06075
   1.48100     1.06059
   1.48200     1.06036
   1.48300     1.06006
   1.48400     1.05966
   1.48500     1.05915
   1.48600     1.05851
   1.48700     1.05775
   1.48800     1.05683
   1.48900     1.05575
   1.49000     1.05450
   1.49100     1.05306
   1.49200     1.05143
   1.49300     1.04961
   1.49400     1.04760
   1.49500     1.04539
   1.49600     1.04300
   1.49700     1.04045
   1.49800     1.03776
   1.49900     1.03494
   1.50000     1.03203
   1.50100     1.02905
   1.50200     1.02602
   1.50300     1.02298
   1.50400     1.01994
   1.50500     1.01690
   1.50600     1.01389
   1.50700     1.01088
   1.50800     1.00789
   1.50900     1.00490
   1.51000     1.00189
   1.51100     0.99884
   1.51200     0.99575
   1.51300     0.99259
   1.51400     0.98935
   1.51500     0.98602
   1.51600     0.98261
   1.51700     0.97912
   1.51800     0.97555
   1.51900     0.97194
   1.52000     0.96829
   1.52100     0.96463
   1.52200     0.96098
   1.52300     0.95736
   1.52400     0.95378
   1.52500     0.95027
   1.52600     0.94681
   1.52700     0.94340
   1.52800     0.94005
   1.52900     0.93672
   1.53000     0.93341
   1.53100     0.93010
   1.53200     0.92676
   1.53300     0.92338
   1.53400     0.91994
   1.53500     0.91645
   1.53600     0.91288
   1.53700     0.90926
   1.53800     0.90560
   1.53900     0.90190
   1.54000     0.89820
   1.54100     0.89452
   1.54200     0.89089
   1.54300     0.88732
   1.54400     0.88385
   1.54500     0.88048
   1.54600     0.87722
   1.54700     0.87407
   1.54800     0.87104
   1.54900     0.86810
   1.55000     0.86524
   1.55100     0.86246
   1.55200     0.85972
   1.55300     0.85701
   1.55400     0.85432
   1.55500     0.85163
   1.55600     0.84894
   1.55700     0.84623
   1.55800     0.84352
   1.55900     0.84079
   1.56000     0.83807
   1.56100     0.83535
   1.56200     0.83265
   1.56300     0.82997
   1.56400     0.82731
   1.56500     0.82469
   1.56600     0.82208
   1.56700     0.81950
   1.56800     0.81691
   1.56900     0.81431
   1.57000     0.81168
   1.57100     0.80901
   1.57200     0.80626
   1.57300     0.80344
   1.57400     0.80052
   1.57500     0.79750
   1.57600     0.79437
   1.57700     0.79114
   1.57800     0.78781
   1.57900     0.78440
   1.58000     0.78091
   1.58100     0.77737
   1.58200     0.77378
   1.58300     0.77016
   1.58400     0.76651
   1.58500     0.76284
   1.58600     0.75914
   1.58700     0.75540
   1.58800     0.75160
   1.58900     0.74772
   1.59000     0.74373
   1.59100     0.73961
   1.59200     0.73534
   1.59300     0.73090
   1.59400     0.72627
   1.59500     0.72146
   1.59600     0.71646
   1.59700     0.71130
   1.59800     0.70600
   1.59900     0.70059
   1.60000     0.69512
   1.60100     0.68962
   1.60200     0.68415
   1.60300     0.67873
   1.60400     0.67341
   1.60500     0.66821
   1.60600     0.66313
   1.60700     0.65818
   1.60800     0.65336
   1.60900     0.64864
   1.61000     0.64401
   1.61100     0.63944
   1.61200     0.63489
   1.61300     0.63035
   1.61400     0.62579
   1.61500     0.62119
   1.61600     0.61654
   1.61700     0.61185
   1.61800     0.60711
   1.61900     0.60233
   1.62000     0.59755
   1.62100     0.59277
   1.62200     0.58802
   1.62300     0.58331
   1.62400     0.57866
   1.62500     0.57408
   1.62600     0.56956
   1.62700     0.56510
   1.62800     0.56067
   1.62900     0.55626
   1.63000     0.55184
   1.63100     0.54738
   1.63200     0.54285
   1.63300     0.53824
   1.63400     0.53353
   1.63500     0.52870
   1.63600     0.52375
   1.63700     0.51871
   1.63800     0.51357
   1.63900     0.50838
   1.64000     0.50316
   1.64100     0.49795
   1.64200     0.49279
   1.64300     0.48771
   1.64400     0.48274
   1.64500     0.47791
   1.64600     0.47321
   1.64700     0.46866
   1.64800     0.46424
   1.64900     0.45994
   1.65000     0.45574
   1.65100     0.45161
   1.65200     0.44753
   1.65300     0.44348
   1.65400     0.43942
   1.65500     0.43534
   1.65600     0.43123
   1.65700     0.42710
   1.65800     0.42293
   1.65900     0.41873
   1.66000     0.41453
   1.66100     0.41034
   1.66200     0.40616
   1.66300     0.40201
   1.66400     0.39791
   1.66500     0.39386
   1.66600     0.38984
   1.66700     0.38586
   1.66800     0.38189
   1.66900     0.37791
   1.67000     0.37391
   1.67100     0.36985
   1.67200     0.36571
   1.67300     0.36147
   1.67400     0.35712
   1.67500     0.35265
   1.67600     0.34806
   1.67700     0.34337
   1.67800     0.33860
   1.67900     0.33376
   1.68000     0.32891
   1.68100     0.32408
   1.68200     0.31931
   1.68300     0.31462
   1.68400     0.31007
   1.68500     0.30565
   1.68600     0.30140
   1.68700     0.29732
   1.68800     0.29340
   1.68900     0.28963
   1.69000     0.28600
   1.69100     0.28248
   1.69200     0.27906
   1.69300     0.27571
   1.69400     0.27240
   1.69500     0.26914
   1.69600     0.26589
   1.69700     0.26267
   1.69800     0.25945
   1.69900     0.25626
   1.70000     0.25309
   1.70100     0.24996
   1.70200     0.24687
   1.70300     0.24384
   1.70400     0.24086
   1.70500     0.23796
   1.70600     0.23511
   1.70700     0.23232
   1.70800     0.22957
   1.70900     0.22685
   1.71000     0.22414
   1.71100     0.22143
   1.71200     0.21869
   1.71300     0.21591
   1.71400     0.21307
   1.71500     0.21018
   1.71600     0.20721
   1.71700     0.20417
   1.71800     0.20108
   1.71900     0.19793
   1.72000     0.19474
   1.72100     0.19153
   1.72200     0.18831
   1.72300     0.18509
   1.72400     0.18189
   1.72500     0.17869
   1.72600     0.17551
   1.72700     0.17232
   1.72800     0.16913
   1.72900     0.16592
   1.73000     0.16266
   1.73100     0.15933
   1.73200     0.15591
   1.73300     0.15240
   1.73400     0.14877
   1.73500     0.14502
   1.73600     0.14116
   1.73700     0.13719
   1.73800     0.13313
   1.73900     0.12900
   1.74000     0.12484
   1.74100     0.12066
   1.74200     0.11651
   1.74300     0.11241
   1.74400     0.10838
   1.74500     0.10443
   1.74600     0.10059
   1.74700     0.09684
   1.74800     0.09318
   1.74900     0.08960
   1.75000     0.08608
   1.75100     0.08260
   1.75200     0.07913
   1.75300     0.07568
   1.75400     0.07220
   1.75500     0.06870
   1.75600     0.06517
   1.75700     0.06162
   1.75800     0.05804
   1.75900     0.05446
   1.76000     0.05089
   1.76100     0.04735
   1.76200     0.04387
   1.76300     0.04048
   1.76400     0.03717
   1.76500     0.03397
   1.76600     0.03089
   1.76700     0.02792
   1.76800     0.02506
   1.76900     0.02230
   1.77000     0.01962
   1.77100     0.01702
   1.77200     0.01447
   1.77300     0.01196
   1.77400     0.00947
   1.77500     0.00700
   1.77600     0.00453
   1.77700     0.00207
   1.77800    -0.00037
   1.77900    -0.00281
   1.78000    -0.00521
   1.78100    -0.00758
   1.78200    -0.00990
   1.78300    -0.01215
   1.78400    -0.01433
   1.78500    -0.01642
   1.78600    -0.01844
   1.78700    -0.02037
   1.78800    -0.02222
   1.78900    -0.02399
   1.79000    -0.02570
   1.79100    -0.02736
   1.79200    -0.02897
   1.79300    -0.03054
   1.79400    -0.03210
   1.79500    -0.03363
   1.79600    -0.03515
   1.79700    -0.03666
   1.79800    -0.03816
   1.79900    -0.03964
   1.80000    -0.04110
   1.80100    -0.04252
   1.80200    -0.04392
   1.80300    -0.04526
   1.80400    -0.04656
   1.80500    -0.04780
   1.80600    -0.04899
   1.80700    -0.05012
   1.80800    -0.05119
   1.80900    -0.05222
   1.81000    -0.05319
   1.81100    -0.05413
   1.81200    -0.05504
   1.81300    -0.05592
   1.81400    -0.05678
   1.81500    -0.05763
   1.81600    -0.05847
   1.81700    -0.05930
   1.81800    -0.06013
   1.81900    -0.06096
   1.82000    -0.06179
   1.82100    -0.06262
   1.82200    -0.06345
   1.82300    -0.06428
   1.82400    -0.06511
   1.82500    -0.06595
   1.82600    -0.06679
   1.82700    -0.06764
   1.82800    -0.06851
   1.82900    -0.06941
   1.83000    -0.07033
   1.83100    -0.07129
   1.83200    -0.07230
   1.83300    -0.07335
   1.83400    -0.07446
   1.83500    -0.07561
   1.83600    -0.07682
   1.83700    -0.07807
   1.83800    -0.07937
   1.83900    -0.08071
   1.84000    -0.08207
   1.84100    -0.08345
   1.84200    -0.08484
   1.84300    -0.08623
   1.84400    -0.08761
   1.84500    -0.08899
   1.84600    -0.09036
   1.84700    -0.09172
   1.84800    -0.09308
   1.84900    -0.09444
   1.85000    -0.09582
   1.85100    -0.09721
   1.85200    -0.09863
   1.85300    -0.10008
   1.85400    -0.10157
   1.85500    -0.10310
   1.85600    -0.10467
   1.85700    -0.10629
   1.85800    -0.10793
   1.85900    -0.10959
   1.86000    -0.11127
   1.86100    -0.11295
   1.86200    -0.11461
   1.86300    -0.11626
   1.86400    -0.11787
   1.86500    -0.11945
   1.86600    -0.12098
   1.86700    -0.12248
   1.86800    -0.12394
   1.86900    -0.12537
   1.87000    -0.12677
   1.87100    -0.12816
   1.87200    -0.12954
   1.87300    -0.13091
   1.87400    -0.13230
   1.87500    -0.13369
   1.87600    -0.13510
   1.87700    -0.13652
   1.87800    -0.13795
   1.87900    -0.13939
   1.88000    -0.14082
   1.88100    -0.14225
   1.88200    -0.14366
   1.88300    -0.14505
   1.88400    -0.14641
   1.88500    -0.14773
   1.88600    -0.14902
   1.88700    -0.15028
   1.88800    -0.15151
   1.88900    -0.15271
   1.89000    -0.15389
   1.89100    -0.15507
   1.89200    -0.15624
   1.89300    -0.15741
   1.89400    -0.15860
   1.89500    -0.15979
   1.89600    -0.16100
   1.89700    -0.16223
   1.89800    -0.16347
   1.89900    -0.16472
   1.90000    -0.16597
   1.90100    -0.16721
   1.90200    -0.16845
   1.90300    -0.16967
   1.90400    -0.17087
   1.90500    -0.17204
   1.90600    -0.17319
   1.90700    -0.17431
   1.90800    -0.17542
   1.90900    -0.17651
   1.91000    -0.17759
   1.91100    -0.17867
   1.91200    -0.17975
   1.91300    -0.18084
   1.91400    -0.18194
   1.91500    -0.18307
   1.91600    -0.18421
   1.91700    -0.18537
   1.91800    -0.18654
   1.91900    -0.18772
   1.92000    -0.18890
   1.92100    -0.19008
   1.92200    -0.19125
   1.92300    -0.19239
   1.92400    -0.19351
   1.92500    -0.19461
   1.92600    -0.19567
   1.92700    -0.19670
   1.92800    -0.19769
   1.92900    -0.19867
   1.93000    -0.19962
   1.93100    -0.20055
   1.93200    -0.20146
   1.93300    -0.20237
   1.93400    -0.20327
   1.93500    -0.20416
   1.93600    -0.20504
   1.93700    -0.20591
   1.93800    -0.20676
   1.93900    -0.20758
   1.94000    -0.20836
   1.94100    -0.20909
   1.94200    -0.20975
   1.94300    -0.21033
   1.94400    -0.21083
   1.94500    -0.21122
   1.94600    -0.21149
   1.94700    -0.21164
   1.94800    -0.21166
   1.94900    -0.21154
   1.95000    -0.21127
   1.95100    -0.21086
   1.95200    -0.21029
   1.95300    -0.20958
   1.95400    -0.20872
   1.95500    -0.20773
   1.95600    -0.20660
   1.95700    -0.20536
   1.95800    -0.20401
   1.95900    -0.20258
   1.96000    -0.20107
   1.96100    -0.19950
   1.96200    -0.19790
   1.96300    -0.19627
   1.96400    -0.19462
   1.96500    -0.19297
   1.96600    -0.19132
   1.96700    -0.18966
   1.96800    -0.18800
   1.96900    -0.18633
   1.97000    -0.18463
   1.97100    -0.18291
   1.97200    -0.18116
   1.97300    -0.17935
   1.97400    -0.17750
   1.97500    -0.17560
   1.97600    -0.17364
   1.97700    -0.17165
   1.97800    -0.16961
   1.97900    -0.16755
   1.98000    -0.16548
   1.98100    -0.16342
   1.98200    -0.16137
   1.98300    -0.15937
   1.98400    -0.15742
   1.98500    -0.15553
   1.98600    -0.15370
   1.98700    -0.15194
   1.98800    -0.15025
   1.98900    -0.14862
   1.99000    -0.14705
   1.99100    -0.14552
   1.99200    -0.14404
   1.99300    -0.14259
   1.99400    -0.14117
   1.99500    -0.13977
   1.99600    -0.13839
   1.99700    -0.13703
   1.99800    -0.13571
   1.99900    -0.13442
   2.00000    -0.13318
   2.00100    -0.13200
   2.00200    -0.13090
   2.00300    -0.12988
   2.00400    -0.12897
   2.00500    -0.12816
   2.00600    -0.12748
   2.00700    -0.12694
   2.00800    -0.12653
   2.00900    -0.12626
   2.01000    -0.12613
   2.01100    -0.12614
   2.01200    -0.12630
   2.01300    -0.12659
   2.01400    -0.12702
   2.01500    -0.12756
   2.01600    -0.12822
   2.01700    -0.12897
   2.01800    -0.12980
   2.01900    -0.13070
   2.02000    -0.13164
   2.02100    -0.13261
   2.02200    -0.13360
   2.02300    -0.13458
   2.02400    -0.13554
   2.02500    -0.13647
   2.02600    -0.13736
   2.02700    -0.13820
   2.02800    -0.13900
   2.02900    -0.13974
   2.03000    -0.14043
   2.03100    -0.14108
   2.03200    -0.14168
   2.03300    -0.14224
   2.03400    -0.14276
   2.03500    -0.14325
   2.03600    -0.14372
   2.03700    -0.14417
   2.03800    -0.14460
   2.03900    -0.14501
   2.04000    -0.14542
   2.04100    -0.14581
   2.04200    -0.14620
   2.04300    -0.14659
   2.04400    -0.14698
   2.04500    -0.14737
   2.04600    -0.14776
   2.04700    -0.14817
   2.04800    -0.14859
   2.04900    -0.14902
   2.05000    -0.14947
   2.05100    -0.14995
   2.05200    -0.15044
   2.05300    -0.15096
   2.05400    -0.15150
   2.05500    -0.15206
   2.05600    -0.15263
   2.05700    -0.15321
   2.05800    -0.15379
   2.05900    -0.15434
   2.06000    -0.15487
   2.06100    -0.15536
   2.06200    -0.15579
   2.06300    -0.15614
   2.06400    -0.15641
   2.06500    -0.15657
   2.06600    -0.15662
   2.06700    -0.15654
   2.06800    -0.15632
   2.06900    -0.15595
   2.07000    -0.15543
   2.07100    -0.15475
   2.07200    -0.15391
   2.07300    -0.15290
   2.07400    -0.15174
   2.07500    -0.15042
   2.07600    -0.14897
   2.07700    -0.14738
   2.07800    -0.14568
   2.07900    -0.14389
   2.08000    -0.14202
   2.08100    -0.14011
   2.08200    -0.13817
   2.08300    -0.13622
   2.08400    -0.13427
   2.08500    -0.13234
   2.08600    -0.13043
   2.08700    -0.12855
   2.08800    -0.12670
   2.08900    -0.12486
   2.09000    -0.12303
   2.09100    -0.12120
   2.09200    -0.11936
   2.09300    -0.11749
   2.09400    -0.11559
   2.09500    -0.11366
   2.09600    -0.11167
   2.09700    -0.10964
   2.09800    -0.10757
   2.09900    -0.10545
   2.10000    -0.10329
   2.10100    -0.10110
   2.10200    -0.09887
   2.10300    -0.09663
   2.10400    -0.09435
   2.10500    -0.09204
   2.10600    -0.08970
   2.10700    -0.08731
   2.10800    -0.08486
   2.10900    -0.08234
   2.11000    -0.07972
   2.11100    -0.07699
   2.11200    -0.07414
   2.11300    -0.07115
   2.11400    -0.06802
   2.11500    -0.06475
   2.11600    -0.06134
   2.11700    -0.05781
   2.11800    -0.05418
   2.11900    -0.05047
   2.12000    -0.04672
   2.12100    -0.04296
   2.12200    -0.03923
   2.12300    -0.03555
   2.12400    -0.03196
   2.12500    -0.02846
   2.12600    -0.02508
   2.12700    -0.02182
   2.12800    -0.01868
   2.12900    -0.01565
   2.13000    -0.01271
   2.13100    -0.00985
   2.13200    -0.00706
   2.13300    -0.00430
   2.13400    -0.00158
   2.13500     0.00113
   2.13600     0.00384
   2.13700     0.00654
   2.13800     0.00925
   2.13900     0.01197
   2.14000     0.01467
   2.14100     0.01737
   2.14200     0.02005
   2.14300     0.02271
   2.14400     0.02534
   2.14500     0.02794
   2.14600     0.03052
   2.14700     0.03309
   2.14800     0.03566
   2.14900     0.03824
   2.15000     0.04085
   2.15100     0.04351
   2.15200     0.04623
   2.15300     0.04903
   2.15400     0.05191
   2.15500     0.05488
   2.15600     0.05794
   2.15700     0.06107
   2.15800     0.06426
   2.15900     0.06750
   2.16000     0.07076
   2.16100     0.07401
   2.16200     0.07722
   2.16300     0.08038
   2.16400     0.08346
   2.16500     0.08644
   2.16600     0.08932
   2.16700     0.09210
   2.16800     0.09476
   2.16900     0.09733
   2.17000     0.09982
   2.17100     0.10223
   2.17200     0.10459
   2.17300     0.10691
   2.17400     0.10920
   2.17500     0.11149
   2.17600     0.11376
   2.17700     0.11604
   2.17800     0.11833
   2.17900     0.12062
   2.18000     0.12291
   2.18100     0.12519
   2.18200     0.12748
   2.18300     0.12975
   2.18400     0.13201
   2.18500     0.13426
   2.18600     0.13651
   2.18700     0.13877
   2.18800     0.14104
   2.18900     0.14335
   2.19000     0.14570
   2.19100     0.14812
   2.19200     0.15061
   2.19300     0.15319
   2.19400     0.15586
   2.19500     0.15863
   2.19600     0.16148
   2.19700     0.16443
   2.19800     0.16743
   2.19900     0.17049
   2.20000     0.17356
   2.20100     0.17663
   2.20200     0.17966
   2.20300     0.18264
   2.20400     0.18553
   2.20500     0.18833
   2.20600     0.19102
   2.20700     0.19359
   2.20800     0.19606
   2.20900     0.19841
   2.21000     0.20067
   2.21100     0.20284
   2.21200     0.20495
   2.21300     0.20699
   2.21400     0.20899
   2.21500     0.21096
   2.21600     0.21290
   2.21700     0.21482
   2.21800     0.21673
   2.21900     0.21861
   2.22000     0.22048
   2.22100     0.22231
   2.22200     0.22412
   2.22300     0.22589
   2.22400     0.22762
   2.22500     0.22931
   2.22600     0.23097
   2.22700     0.23259
   2.22800     0.23419
   2.22900     0.23576
   2.23000     0.23733
   2.23100     0.23889
   2.23200     0.24047
   2.23300     0.24206
   2.23400     0.24367
   2.23500     0.24530
   2.23600     0.24695
   2.23700     0.24862
   2.23800     0.25030
   2.23900     0.25197
   2.24000     0.25362
   2.24100     0.25523
   2.24200     0.25678
   2.24300     0.25825
   2.24400     0.25964
   2.24500     0.26091
   2.24600     0.26208
   2.24700     0.26312
   2.24800     0.26403
   2.24900     0.26480
   2.25000     0.26545
   2.25100     0.26597
   2.25200     0.26636
   2.25300     0.26663
   2.25400     0.26680
   2.25500     0.26686
   2.25600     0.26682
   2.25700     0.26669
   2.25800     0.26649
   2.25900     0.26623
   2.26000     0.26590
   2.26100     0.26553
   2.26200     0.26512
   2.26300     0.26467
   2.26400     0.26420
   2.26500     0.26371
   2.26600     0.26320
   2.26700     0.26267
   2.26800     0.26212
   2.26900     0.26155
   2.27000     0.26096
   2.27100     0.26035
   2.27200     0.25971
   2.27300     0.25904
   2.27400     0.25834
   2.27500     0.25760
   2.27600     0.25684
   2.27700     0.25605
   2.27800     0.25524
   2.27900     0.25441
   2.28000     0.25356
   2.28100     0.25270
   2.28200     0.25184
   2.28300     0.25098
   2.28400     0.25013
   2.28500     0.24928
   2.28600     0.24845
   2.28700     0.24762
   2.28800     0.24680
   2.28900     0.24598
   2.29000     0.24516
   2.29100     0.24433
   2.29200     0.24350
   2.29300     0.24265
   2.29400     0.24179
   2.29500     0.24091
   2.29600     0.24002
   2.29700     0.23911
   2.29800     0.23820
   2.29900     0.23730
   2.30000     0.23640
   2.30100     0.23553
   2.30200     0.23469
   2.30300     0.23389
   2.30400     0.23314
   2.30500     0.23245
   2.30600     0.23182
   2.30700     0.23126
   2.30800     0.23078
   2.30900     0.23036
   2.31000     0.23003
   2.31100     0.22976
   2.31200     0.22956
   2.31300     0.22943
   2.31400     0.22936
   2.31500     0.22934
   2.31600     0.22937
   2.31700     0.22945
   2.31800     0.22956
   2.31900     0.22971
   2.32000     0.22987
   2.32100     0.23005
   2.32200     0.23023
   2.32300     0.23042
   2.32400     0.23059
   2.32500     0.23076
   2.32600     0.23091
   2.32700     0.23103
   2.32800     0.23114
   2.32900     0.23121
   2.33000     0.23126
   2.33100     0.23128
   2.33200     0.23128
   2.33300     0.23124
   2.33400     0.23117
   2.33500     0.23108
   2.33600     0.23096
   2.33700     0.23082
   2.33800     0.23065
   2.33900     0.23046
   2.34000     0.23025
   2.34100     0.23002
   2.34200     0.22978
   2.34300     0.22952
   2.34400     0.22924
   2.34500     0.22895
   2.34600     0.22864
   2.34700     0.22832
   2.34800     0.22797
   2.34900     0.22760
   2.35000     0.22720
   2.35100     0.22677
   2.35200     0.22632
   2.35300     0.22583
   2.35400     0.22530
   2.35500     0.22474
   2.35600     0.22414
   2.35700     0.22351
   2.35800     0.22285
   2.35900     0.22216
   2.36000     0.22144
   2.36100     0.22069
   2.36200     0.21993
   2.36300     0.21915
   2.36400     0.21834
   2.36500     0.21752
   2.36600     0.21668
   2.36700     0.21581
   2.36800     0.21491
   2.36900     0.21397
   2.37000     0.21300
   2.37100     0.21197
   2.37200     0.21089
   2.37300     0.20976
   2.37400     0.20856
   2.37500     0.20730
   2.37600     0.20598
   2.37700     0.20460
   2.37800     0.20317
   2.37900     0.20171
   2.38000     0.20021
   2.38100     0.19870
   2.38200     0.19718
   2.38300     0.19567
   2.38400     0.19416
   2.38500     0.19267
   2.38600     0.19119
   2.38700     0.18973
   2.38800     0.18829
   2.38900     0.18685
   2.39000     0.18541
   2.39100     0.18397
   2.39200     0.18251
   2.39300     0.18103
   2.39400     0.17952
   2.39500     0.17799
   2.39600     0.17644
   2.39700     0.17486
   2.39800     0.17328
   2.39900     0.17169
   2.40000     0.17012
   2.40100     0.16858
   2.40200     0.16708
   2.40300     0.16565
   2.40400     0.16429
   2.40500     0.16301
   2.40600     0.16183
   2.40700     0.16076
   2.40800     0.15979
   2.40900     0.15892
   2.41000     0.15816
   2.41100     0.15749
   2.41200     0.15692
   2.41300     0.15644
   2.41400     0.15604
   2.41500     0.15571
   2.41600     0.15544
   2.41700     0.15523
   2.41800     0.15507
   2.41900     0.15494
   2.42000     0.15485
   2.42100     0.15477
   2.42200     0.15471
   2.42300     0.15466
   2.42400     0.15460
   2.42500     0.15453
   2.42600     0.15446
   2.42700     0.15436
   2.42800     0.15424
   2.42900     0.15409
   2.43000     0.15391
   2.43100     0.15369
   2.43200     0.15343
   2.43300     0.15313
   2.43400     0.15278
   2.43500     0.15239
   2.43600     0.15195
   2.43700     0.15146
   2.43800     0.15091
   2.43900     0.15031
   2.44000     0.14966
   2.44100     0.14895
   2.44200     0.14817
   2.44300     0.14733
   2.44400     0.14641
   2.44500     0.14542
   2.44600     0.14433
   2.44700     0.14315
   2.44800     0.14185
   2.44900     0.14044
   2.45000     0.13889
   2.45100     0.13721
   2.45200     0.13538
   2.45300     0.13340
   2.45400     0.13129
   2.45500     0.12903
   2.45600     0.12666
   2.45700     0.12419
   2.45800     0.12166
   2.45900     0.11909
   2.46000     0.11652
   2.46100     0.11399
   2.46200     0.11155
   2.46300     0.10923
   2.46400     0.10706
   2.46500     0.10509
   2.46600     0.10332
   2.46700     0.10178
   2.46800     0.10047
   2.46900     0.09939
   2.47000     0.09853
   2.47100     0.09789
   2.47200     0.09743
   2.47300     0.09712
   2.47400     0.09694
   2.47500     0.09683
   2.47600     0.09676
   2.47700     0.09667
   2.47800     0.09651
   2.47900     0.09625
   2.48000     0.09584
   2.48100     0.09524
   2.48200     0.09443
   2.48300     0.09340
   2.48400     0.09214
   2.48500     0.09065
   2.48600     0.08893
   2.48700     0.08702
   2.48800     0.08491
   2.48900     0.08265
   2.49000     0.08024
   2.49100     0.07772
   2.49200     0.07510
   2.49300     0.07242
   2.49400     0.06968
   2.49500     0.06691
   2.49600     0.06413
   2.49700     0.06135
   2.49800     0.05858
   2.49900     0.05583
   2.50000     0.05313
# </ PairPotential>
